trace.vcd
$version Generated by VerilatedVcd $end
$date Tue Sep 27 17:33:59 2022
 $end
$timescale   1ps $end

 $scope module TOP $end
  $var wire  1 p! clk $end
  $var wire  1 q! reset $end
  $scope module pipeline $end
   $var wire 144 3 AGEX_latch_out [143:0] $end
   $var wire 240 + DE_latch_out [239:0] $end
   $var wire 132 & FE_latch_out [131:0] $end
   $var wire 144 8 MEM_latch_out [143:0] $end
   $var wire  1 p! clk $end
   $var wire 32 % cycle_count [31:0] $end
   $var wire  7 ? from_AGEX_to_DE [6:0] $end
   $var wire 34 = from_AGEX_to_FE [33:0] $end
   $var wire  1 j! from_DE_to_FE [0:0] $end
   $var wire  1 V" from_MEM_to_AGEX [0:0] $end
   $var wire  6 @ from_MEM_to_DE [5:0] $end
   $var wire  1 T" from_MEM_to_FE [0:0] $end
   $var wire  1 W" from_WB_to_AGEX [0:0] $end
   $var wire 43 A from_WB_to_DE [42:0] $end
   $var wire  1 U" from_WB_to_FE [0:0] $end
   $var wire  1 X" from_WB_to_MEM [0:0] $end
   $var wire  1 q! reset $end
   $scope module my_AGEX_stage $end
    $var wire 144 3 AGEX_latch [143:0] $end
    $var wire 144 g AGEX_latch_contents [143:0] $end
    $var wire 144 3 AGEX_latch_out [143:0] $end
    $var wire 32 m PC_AGEX [31:0] $end
    $var wire  1 u br_cond_AGEX $end
    $var wire 32 z br_target [31:0] $end
    $var wire  4 v bus_canary_AGEX [3:0] $end
    $var wire  1 p! clk $end
    $var wire  7 ? from_AGEX_to_DE [6:0] $end
    $var wire 34 = from_AGEX_to_FE [33:0] $end
    $var wire 240 + from_DE_latch [239:0] $end
    $var wire  1 V" from_MEM_to_AGEX [0:0] $end
    $var wire  1 W" from_WB_to_AGEX [0:0] $end
    $var wire 32 s imm_val [31:0] $end
    $var wire 32 l inst_AGEX [31:0] $end
    $var wire 32 n inst_count_AGEX [31:0] $end
    $var wire  1 w is_branch $end
    $var wire  1 x move_on_fetch $end
    $var wire  6 p op_I_AGEX [5:0] $end
    $var wire 32 o pcplus_AGEX [31:0] $end
    $var wire 32 q reg_1_val [31:0] $end
    $var wire 32 r reg_2_val [31:0] $end
    $var wire  5 t reg_dest [4:0] $end
    $var wire  1 q! reset $end
    $var wire 32 y result [31:0] $end
    $var wire 32 q signed_reg_1_val [31:0] $end
    $var wire 32 r signed_reg_2_val [31:0] $end
    $var wire  1 w stall_de $end
    $var wire  1 { wr_reg $end
   $upscope $end
   $scope module my_DE_stage $end
    $var wire 240 + DE_latch [239:0] $end
    $var wire 240 /! DE_latch_contents [239:0] $end
    $var wire 240 + DE_latch_out [239:0] $end
    $var wire  3 T F3_DE [2:0] $end
    $var wire  7 U F7_DE [6:0] $end
    $var wire 32 P PC_DE [31:0] $end
    $var wire  5 a agex_reg_dest [4:0] $end
    $var wire  1 ` agex_stall_command $end
    $var wire  4 S bus_canary_DE [3:0] $end
    $var wire  1 p! clk $end
    $var wire 32 Z! csr_regs(0) [31:0] $end
    $var wire 32 [! csr_regs(1) [31:0] $end
    $var wire 32 d! csr_regs(10) [31:0] $end
    $var wire 32 e! csr_regs(11) [31:0] $end
    $var wire 32 f! csr_regs(12) [31:0] $end
    $var wire 32 g! csr_regs(13) [31:0] $end
    $var wire 32 h! csr_regs(14) [31:0] $end
    $var wire 32 i! csr_regs(15) [31:0] $end
    $var wire 32 \! csr_regs(2) [31:0] $end
    $var wire 32 ]! csr_regs(3) [31:0] $end
    $var wire 32 ^! csr_regs(4) [31:0] $end
    $var wire 32 _! csr_regs(5) [31:0] $end
    $var wire 32 `! csr_regs(6) [31:0] $end
    $var wire 32 a! csr_regs(7) [31:0] $end
    $var wire 32 b! csr_regs(8) [31:0] $end
    $var wire 32 c! csr_regs(9) [31:0] $end
    $var wire  7 ? from_AGEX_to_DE [6:0] $end
    $var wire  1 j! from_DE_to_FE [0:0] $end
    $var wire 132 & from_FE_latch [131:0] $end
    $var wire  6 @ from_MEM_to_DE [5:0] $end
    $var wire 43 A from_WB_to_DE [42:0] $end
    $var wire 32 O inst_DE [31:0] $end
    $var wire 32 R inst_count_DE [31:0] $end
    $var wire  1 c is_agex_wr $end
    $var wire  1 d is_mem_wr $end
    $var wire  5 b mem_reg_dest [4:0] $end
    $var wire  7 V op_DE [6:0] $end
    $var wire  6 W op_I_DE [5:0] $end
    $var wire 32 Q pcplus_DE [31:0] $end
    $var wire  1 k! pipeline_stall_DE $end
    $var wire  1 Z" prev_dest $end
    $var wire  1 [" prev_wr $end
    $var wire  5 n! reg_1_num [4:0] $end
    $var wire 32 l! reg_1_val [31:0] $end
    $var wire  5 o! reg_2_num [4:0] $end
    $var wire 32 m! reg_2_val [31:0] $end
    $var wire  5 e reg_dest [4:0] $end
    $var wire 32 :! regs(0) [31:0] $end
    $var wire 32 ;! regs(1) [31:0] $end
    $var wire 32 D! regs(10) [31:0] $end
    $var wire 32 E! regs(11) [31:0] $end
    $var wire 32 F! regs(12) [31:0] $end
    $var wire 32 G! regs(13) [31:0] $end
    $var wire 32 H! regs(14) [31:0] $end
    $var wire 32 I! regs(15) [31:0] $end
    $var wire 32 J! regs(16) [31:0] $end
    $var wire 32 K! regs(17) [31:0] $end
    $var wire 32 L! regs(18) [31:0] $end
    $var wire 32 M! regs(19) [31:0] $end
    $var wire 32 <! regs(2) [31:0] $end
    $var wire 32 N! regs(20) [31:0] $end
    $var wire 32 O! regs(21) [31:0] $end
    $var wire 32 P! regs(22) [31:0] $end
    $var wire 32 Q! regs(23) [31:0] $end
    $var wire 32 R! regs(24) [31:0] $end
    $var wire 32 S! regs(25) [31:0] $end
    $var wire 32 T! regs(26) [31:0] $end
    $var wire 32 U! regs(27) [31:0] $end
    $var wire 32 V! regs(28) [31:0] $end
    $var wire 32 W! regs(29) [31:0] $end
    $var wire 32 =! regs(3) [31:0] $end
    $var wire 32 X! regs(30) [31:0] $end
    $var wire 32 Y! regs(31) [31:0] $end
    $var wire 32 >! regs(4) [31:0] $end
    $var wire 32 ?! regs(5) [31:0] $end
    $var wire 32 @! regs(6) [31:0] $end
    $var wire 32 A! regs(7) [31:0] $end
    $var wire 32 B! regs(8) [31:0] $end
    $var wire 32 C! regs(9) [31:0] $end
    $var wire 32 ] regval_WB [31:0] $end
    $var wire  1 q! reset $end
    $var wire  1 7! stall_from_agex $end
    $var wire  1 8! stall_from_mem $end
    $var wire  1 9! stall_from_wb $end
    $var wire 32 Z sxt_imm_DE [31:0] $end
    $var wire  4 X type_I_DE [3:0] $end
    $var wire  3 Y type_immediate_DE [2:0] $end
    $var wire  5 \ wb_reg_dest [4:0] $end
    $var wire  4 ^ wcsrno_WB [3:0] $end
    $var wire  1 _ wr_csr_WB $end
    $var wire  1 f wr_reg $end
    $var wire  1 [ wr_reg_WB $end
    $var wire  5 \ wregno_WB [4:0] $end
    $scope module unnamedblk1 $end
     $var wire 32 # i [31:0] $end
    $upscope $end
    $scope module unnamedblk2 $end
     $var wire 32 $ i [31:0] $end
    $upscope $end
   $upscope $end
   $scope module my_FE_stage $end
    $var wire 132 & FE_latch [131:0] $end
    $var wire 132 F FE_latch_contents [131:0] $end
    $var wire 132 & FE_latch_out [131:0] $end
    $var wire 32 C PC_FE_latch [31:0] $end
    $var wire 32 L br_target [31:0] $end
    $var wire  1 p! clk $end
    $var wire 34 = from_AGEX_to_FE [33:0] $end
    $var wire  1 j! from_DE_to_FE [0:0] $end
    $var wire  1 T" from_MEM_to_FE [0:0] $end
    $var wire  1 U" from_WB_to_FE [0:0] $end
    $var wire 32 D inst_FE [31:0] $end
    $var wire 32 Y" inst_count_AGEX [31:0] $end
    $var wire 32 K inst_count_FE [31:0] $end
    $var wire  1 M is_branch $end
    $var wire  1 N move_on $end
    $var wire 32 E pcplus_FE [31:0] $end
    $var wire  1 q! reset $end
    $var wire  1 j! stall_pipe_FE $end
   $upscope $end
   $scope module my_MEM_stage $end
    $var wire 144 8 MEM_latch [143:0] $end
    $var wire 144 3 MEM_latch_contents [143:0] $end
    $var wire 144 8 MEM_latch_out [143:0] $end
    $var wire 32 !! PC_MEM [31:0] $end
    $var wire  4 "! bus_canary_MEM [3:0] $end
    $var wire  1 p! clk $end
    $var wire 144 3 from_AGEX_latch [143:0] $end
    $var wire  1 V" from_MEM_to_AGEX [0:0] $end
    $var wire  6 @ from_MEM_to_DE [5:0] $end
    $var wire  1 T" from_MEM_to_FE [0:0] $end
    $var wire  1 X" from_WB_to_MEM [0:0] $end
    $var wire 32 ~ inst_MEM [31:0] $end
    $var wire 32 } inst_count_MEM [31:0] $end
    $var wire 32 \" memaddr_MEM [31:0] $end
    $var wire  6 | op_I_MEM [5:0] $end
    $var wire 32 #! rd_val_MEM [31:0] $end
    $var wire  5 $! reg_dest [4:0] $end
    $var wire  1 q! reset $end
    $var wire 32 %! result [31:0] $end
    $var wire  1 ^" wr_mem_MEM $end
    $var wire  1 &! wr_reg $end
    $var wire 32 ]" wr_val_MEM [31:0] $end
   $upscope $end
   $scope module my_WB_stage $end
    $var wire 32 )! PC_WB [31:0] $end
    $var wire 32 4" WB_counters(0) [31:0] $end
    $var wire 32 5" WB_counters(1) [31:0] $end
    $var wire 32 >" WB_counters(10) [31:0] $end
    $var wire 32 ?" WB_counters(11) [31:0] $end
    $var wire 32 @" WB_counters(12) [31:0] $end
    $var wire 32 A" WB_counters(13) [31:0] $end
    $var wire 32 B" WB_counters(14) [31:0] $end
    $var wire 32 C" WB_counters(15) [31:0] $end
    $var wire 32 D" WB_counters(16) [31:0] $end
    $var wire 32 E" WB_counters(17) [31:0] $end
    $var wire 32 F" WB_counters(18) [31:0] $end
    $var wire 32 G" WB_counters(19) [31:0] $end
    $var wire 32 6" WB_counters(2) [31:0] $end
    $var wire 32 H" WB_counters(20) [31:0] $end
    $var wire 32 I" WB_counters(21) [31:0] $end
    $var wire 32 J" WB_counters(22) [31:0] $end
    $var wire 32 K" WB_counters(23) [31:0] $end
    $var wire 32 L" WB_counters(24) [31:0] $end
    $var wire 32 M" WB_counters(25) [31:0] $end
    $var wire 32 N" WB_counters(26) [31:0] $end
    $var wire 32 O" WB_counters(27) [31:0] $end
    $var wire 32 P" WB_counters(28) [31:0] $end
    $var wire 32 Q" WB_counters(29) [31:0] $end
    $var wire 32 7" WB_counters(3) [31:0] $end
    $var wire 32 R" WB_counters(30) [31:0] $end
    $var wire 32 S" WB_counters(31) [31:0] $end
    $var wire 32 8" WB_counters(4) [31:0] $end
    $var wire 32 9" WB_counters(5) [31:0] $end
    $var wire 32 :" WB_counters(6) [31:0] $end
    $var wire 32 ;" WB_counters(7) [31:0] $end
    $var wire 32 <" WB_counters(8) [31:0] $end
    $var wire 32 =" WB_counters(9) [31:0] $end
    $var wire  4 +! bus_canary_WB [3:0] $end
    $var wire  1 p! clk $end
    $var wire 144 8 from_MEM_latch [143:0] $end
    $var wire  1 W" from_WB_to_AGEX [0:0] $end
    $var wire 43 A from_WB_to_DE [42:0] $end
    $var wire  1 U" from_WB_to_FE [0:0] $end
    $var wire  1 X" from_WB_to_MEM [0:0] $end
    $var wire 32 (! inst_WB [31:0] $end
    $var wire 32 *! inst_count_WB [31:0] $end
    $var wire 32 r! last_WB_value(0) [31:0] $end
    $var wire 32 s! last_WB_value(1) [31:0] $end
    $var wire 32 |! last_WB_value(10) [31:0] $end
    $var wire 32 }! last_WB_value(11) [31:0] $end
    $var wire 32 ~! last_WB_value(12) [31:0] $end
    $var wire 32 !" last_WB_value(13) [31:0] $end
    $var wire 32 "" last_WB_value(14) [31:0] $end
    $var wire 32 #" last_WB_value(15) [31:0] $end
    $var wire 32 $" last_WB_value(16) [31:0] $end
    $var wire 32 %" last_WB_value(17) [31:0] $end
    $var wire 32 &" last_WB_value(18) [31:0] $end
    $var wire 32 '" last_WB_value(19) [31:0] $end
    $var wire 32 t! last_WB_value(2) [31:0] $end
    $var wire 32 (" last_WB_value(20) [31:0] $end
    $var wire 32 )" last_WB_value(21) [31:0] $end
    $var wire 32 *" last_WB_value(22) [31:0] $end
    $var wire 32 +" last_WB_value(23) [31:0] $end
    $var wire 32 ," last_WB_value(24) [31:0] $end
    $var wire 32 -" last_WB_value(25) [31:0] $end
    $var wire 32 ." last_WB_value(26) [31:0] $end
    $var wire 32 /" last_WB_value(27) [31:0] $end
    $var wire 32 0" last_WB_value(28) [31:0] $end
    $var wire 32 1" last_WB_value(29) [31:0] $end
    $var wire 32 u! last_WB_value(3) [31:0] $end
    $var wire 32 2" last_WB_value(30) [31:0] $end
    $var wire 32 3" last_WB_value(31) [31:0] $end
    $var wire 32 v! last_WB_value(4) [31:0] $end
    $var wire 32 w! last_WB_value(5) [31:0] $end
    $var wire 32 x! last_WB_value(6) [31:0] $end
    $var wire 32 y! last_WB_value(7) [31:0] $end
    $var wire 32 z! last_WB_value(8) [31:0] $end
    $var wire 32 {! last_WB_value(9) [31:0] $end
    $var wire  6 '! op_I_WB [5:0] $end
    $var wire  5 -! reg_dest [4:0] $end
    $var wire 32 .! regval_WB [31:0] $end
    $var wire  1 q! reset $end
    $var wire 32 .! result [31:0] $end
    $var wire  4 _" wcsrno_WB [3:0] $end
    $var wire  1 `" wr_csr_WB $end
    $var wire  1 ,! wr_reg $end
    $var wire  1 ,! wr_reg_WB $end
    $var wire  5 -! wregno_WB [4:0] $end
   $upscope $end
  $upscope $end
 $upscope $end
$enddefinitions $end


#0
b00000000000000000000000000100000 #
b00000000000000000000000000010000 $
b00000000000000000000000000000000 %
b000000000000000000000000000000000000000000000000000000000000000000000000000000000000000000000000000000000000000000000000000000000000 &
b000000000000000000000000000000000000000000000000000000000000000000000000000000000000000000000000000000000000000000000000000000000000000000000000000000000000000000000000000000000000000000000000000000000000000000000000000000000000000000000000 +
b000000000000000000000000000000000000000000000000000000000000000000000000000000000000000000000000000000000000000000000000000000000000000000000000 3
b000000000000000000000000000000000000000000000000000000000000000000000000000000000000000000000000000000000000000000000000000000000000000000000000 8
b0000000000000000000000000000000000 =
b0000000 ?
b000000 @
b0000000000000000000000000000000000000000000 A
b00000000000000000000000000000000 C
b00000000000000000000000000000000 D
b00000000000000000000000000000100 E
b000000000000000000000000000000000000000000000000000000000000000000000000000000000000000000000100000000000000000000000000000000001111 F
b00000000000000000000000000000000 K
b00000000000000000000000000000000 L
0M
0N
b00000000000000000000000000000000 O
b00000000000000000000000000000000 P
b00000000000000000000000000000000 Q
b00000000000000000000000000000000 R
b0000 S
b000 T
b0000000 U
b0000000 V
b100101 W
b0000 X
b000 Y
b00000000000000000000000000000000 Z
0[
b00000 \
b00000000000000000000000000000000 ]
b0000 ^
0_
0`
b00000 a
b00000 b
0c
0d
b00000 e
0f
b000000000000000000000000000000000000000000000000000000000000000000000000000000000000000000000000000000000000000000000000000000000000000000000000 g
b00000000000000000000000000000000 l
b00000000000000000000000000000000 m
b00000000000000000000000000000000 n
b00000000000000000000000000000000 o
b000000 p
b00000000000000000000000000000000 q
b00000000000000000000000000000000 r
b00000000000000000000000000000000 s
b00000 t
0u
b0000 v
0w
0x
b00000000000000000000000000000000 y
b00000000000000000000000000000000 z
0{
b000000 |
b00000000000000000000000000000000 }
b00000000000000000000000000000000 ~
b00000000000000000000000000000000 !!
b0000 "!
b00000000000000000000000000000000 #!
b00000 $!
b00000000000000000000000000000000 %!
0&!
b000000 '!
b00000000000000000000000000000000 (!
b00000000000000000000000000000000 )!
b00000000000000000000000000000000 *!
b0000 +!
0,!
b00000 -!
b00000000000000000000000000000000 .!
b000000000000000000000000000000000000000000000000000000000000000000000000000000000000000000000000100101000000000000000000000000000000000000000000000000000000000000000000000000000000000000000000000000000000000000000000000000000000000000000000 /!
07!
08!
09!
b00000000000000000000000000000000 :!
b00000000000000000000000000000000 ;!
b00000000000000000000000000000000 <!
b00000000000000000000000000000000 =!
b00000000000000000000000000000000 >!
b00000000000000000000000000000000 ?!
b00000000000000000000000000000000 @!
b00000000000000000000000000000000 A!
b00000000000000000000000000000000 B!
b00000000000000000000000000000000 C!
b00000000000000000000000000000000 D!
b00000000000000000000000000000000 E!
b00000000000000000000000000000000 F!
b00000000000000000000000000000000 G!
b00000000000000000000000000000000 H!
b00000000000000000000000000000000 I!
b00000000000000000000000000000000 J!
b00000000000000000000000000000000 K!
b00000000000000000000000000000000 L!
b00000000000000000000000000000000 M!
b00000000000000000000000000000000 N!
b00000000000000000000000000000000 O!
b00000000000000000000000000000000 P!
b00000000000000000000000000000000 Q!
b00000000000000000000000000000000 R!
b00000000000000000000000000000000 S!
b00000000000000000000000000000000 T!
b00000000000000000000000000000000 U!
b00000000000000000000000000000000 V!
b00000000000000000000000000000000 W!
b00000000000000000000000000000000 X!
b00000000000000000000000000000000 Y!
b00000000000000000000000000000000 Z!
b00000000000000000000000000000000 [!
b00000000000000000000000000000000 \!
b00000000000000000000000000000000 ]!
b00000000000000000000000000000000 ^!
b00000000000000000000000000000000 _!
b00000000000000000000000000000000 `!
b00000000000000000000000000000000 a!
b00000000000000000000000000000000 b!
b00000000000000000000000000000000 c!
b00000000000000000000000000000000 d!
b00000000000000000000000000000000 e!
b00000000000000000000000000000000 f!
b00000000000000000000000000000000 g!
b00000000000000000000000000000000 h!
b00000000000000000000000000000000 i!
0j!
0k!
b00000000000000000000000000000000 l!
b00000000000000000000000000000000 m!
b00000 n!
b00000 o!
0p!
0q!
b00000000000000000000000000000000 r!
b00000000000000000000000000000000 s!
b00000000000000000000000000000000 t!
b00000000000000000000000000000000 u!
b00000000000000000000000000000000 v!
b00000000000000000000000000000000 w!
b00000000000000000000000000000000 x!
b00000000000000000000000000000000 y!
b00000000000000000000000000000000 z!
b00000000000000000000000000000000 {!
b00000000000000000000000000000000 |!
b00000000000000000000000000000000 }!
b00000000000000000000000000000000 ~!
b00000000000000000000000000000000 !"
b00000000000000000000000000000000 ""
b00000000000000000000000000000000 #"
b00000000000000000000000000000000 $"
b00000000000000000000000000000000 %"
b00000000000000000000000000000000 &"
b00000000000000000000000000000000 '"
b00000000000000000000000000000000 ("
b00000000000000000000000000000000 )"
b00000000000000000000000000000000 *"
b00000000000000000000000000000000 +"
b00000000000000000000000000000000 ,"
b00000000000000000000000000000000 -"
b00000000000000000000000000000000 ."
b00000000000000000000000000000000 /"
b00000000000000000000000000000000 0"
b00000000000000000000000000000000 1"
b00000000000000000000000000000000 2"
b00000000000000000000000000000000 3"
b00000000000000000000000000000000 4"
b00000000000000000000000000000000 5"
b00000000000000000000000000000000 6"
b00000000000000000000000000000000 7"
b00000000000000000000000000000000 8"
b00000000000000000000000000000000 9"
b00000000000000000000000000000000 :"
b00000000000000000000000000000000 ;"
b00000000000000000000000000000000 <"
b00000000000000000000000000000000 ="
b00000000000000000000000000000000 >"
b00000000000000000000000000000000 ?"
b00000000000000000000000000000000 @"
b00000000000000000000000000000000 A"
b00000000000000000000000000000000 B"
b00000000000000000000000000000000 C"
b00000000000000000000000000000000 D"
b00000000000000000000000000000000 E"
b00000000000000000000000000000000 F"
b00000000000000000000000000000000 G"
b00000000000000000000000000000000 H"
b00000000000000000000000000000000 I"
b00000000000000000000000000000000 J"
b00000000000000000000000000000000 K"
b00000000000000000000000000000000 L"
b00000000000000000000000000000000 M"
b00000000000000000000000000000000 N"
b00000000000000000000000000000000 O"
b00000000000000000000000000000000 P"
b00000000000000000000000000000000 Q"
b00000000000000000000000000000000 R"
b00000000000000000000000000000000 S"
0T"
0U"
0V"
0W"
0X"
b00000000000000000000000000000000 Y"
0Z"
0["
b00000000000000000000000000000000 \"
b00000000000000000000000000000000 ]"
0^"
b0000 _"
0`"
#1
b00000000000000000000000000000001 %
b000000000000000000000000000000000000000000000000000000000000000000000000000000000000000000000100000000000000000000000000000000001111 &
b000000000000000000000000000000000000000000000000000000000000000000000000000000000000000000000000100101000000000000000000000000000000000000000000000000000000000000000000000000000000000000000000000000000000000000000000000000000000000000000000 +
b00000000000000000000000000000100 C
b00000000000000000000000000001000 E
b000000000000000000000000000000000000000000000000000000000000010000000000000000000000000000001000000000000000000000000000000000011111 F
b00000000000000000000000000000001 K
b00000000000000000000000000000100 Q
b1111 S
b000000000000000000000000000000000000000000000000000000000000000010010100000000000000000000000000000000000000000000000000000000000000000000000000 g
b100101 p
b000000000000000000000000000000000000000000000000000000000000000000000000000000000000000000000100100101000000000000000000000000000000000000000000000000000000000000000000000000000000000000000000000000000000000000000000000000000000000000001111 /!
1p!
#2
0p!
1q!
#3
b00000000000000000000000000000000 %
b000000000000000000000000000000000000000000000000000000000000000000000000000000000000000000000000000000000000000000000000000000000000 &
b000000000000000000000000000000000000000000000000000000000000000000000000000000000000000000000000000000000000000000000000000000000000000000000000000000000000000000000000000000000000000000000000000000000000000000000000000000000000000000000000 +
b00000000000000000000001000000000 C
b00000000000100000000000110010011 D
b00000000000000000000001000000100 E
b000000000001000000000001100100110000000000000000000000100000000000000000000000000000001000000100000000000000000000000000000000011111 F
b00000000000000000000000000000000 Q
b0000 S
b000000000000000000000000000000000000000000000000000000000000000000000000000000000000000000000000000000000000000000000000000000000000000000000000 g
b000000 p
b000000000000000000000000000000000000000000000000000000000000000000000000000000000000000000000000100101000000000000000000000000000000000000000000000000000000000000000000000000000000000000000000000000000000000000000000000000000000000000000000 /!
1p!
#4
0p!
#5
1p!
#6
0p!
#7
1p!
#8
0p!
#9
1p!
#10
#11
0p!
#12
1p!
#13
0p!
#14
1p!
#15
0p!
#16
1p!
#17
0p!
#18
1p!
#19
0p!
#20
#21
1p!
#22
0p!
#23
1p!
#24
0p!
#25
1p!
#26
0p!
#27
1p!
#28
0p!
#29
1p!
#30
#31
0p!
#32
1p!
#33
0p!
#34
1p!
#35
0p!
#36
1p!
#37
0p!
#38
1p!
#39
0p!
#40
#41
1p!
#42
0p!
#43
1p!
#44
0p!
#45
1p!
#46
0p!
#47
1p!
#48
0p!
#49
1p!
#50
#51
0p!
#52
1p!
#53
0p!
#54
1p!
#55
0p!
#56
1p!
#57
0p!
#58
1p!
#59
0p!
#60
#61
1p!
#62
0p!
#63
1p!
#64
0p!
#65
1p!
#66
0p!
#67
1p!
#68
0p!
#69
1p!
#70
#71
0p!
#72
1p!
#73
0p!
#74
1p!
#75
0p!
#76
1p!
#77
0p!
#78
1p!
#79
0p!
#80
#81
1p!
#82
0p!
#83
1p!
#84
0p!
#85
1p!
#86
0p!
#87
1p!
#88
0p!
#89
1p!
#90
#91
0p!
#92
1p!
#93
0p!
#94
1p!
#95
0p!
#96
1p!
#97
0p!
#98
1p!
#99
0p!
#100
0q!
#101
b00000000000000000000000000000001 %
b000000000001000000000001100100110000000000000000000000100000000000000000000000000000001000000100000000000000000000000000000000011111 &
b000000000000000000000000000000000000000000000000000000000000000000000000000000000000000000000000100101000000000000000000000000000000000000000000000000000000000000000000000000000000000000000000000000000000000000000000000000000000000000000000 +
b00000000000000000000001000000100 C
b11111111111000000000000010010011 D
b00000000000000000000001000001000 E
b111111111110000000000000100100110000000000000000000000100000010000000000000000000000001000001000000000000000000000000000000000101111 F
b00000000000000000000000000000010 K
b00000000000100000000000110010011 O
b00000000000000000000001000000000 P
b00000000000000000000001000000100 Q
b00000000000000000000000000000001 R
b1111 S
b0010011 V
b001100 W
b0010 X
b001 Y
b00000000000000000000000000000001 Z
b00011 e
1f
b000000000000000000000000000000000000000000000000000000000000000010010100000000000000000000000000000000000000000000000000000000000000000000000000 g
b100101 p
b000000000001000000000001100100110000000000000000000000100000000000000000000000000000001000000100001100000000000000000000000000000000010000000000000000000000000000000000000000000000000000000000000000000110000000000000000000000000000000111111 /!
b00001 o!
1p!
#102
0p!
#103
b00000000000000000000000000000010 %
b111111111110000000000000100100110000000000000000000000100000010000000000000000000000001000001000000000000000000000000000000000101111 &
b000000000001000000000001100100110000000000000000000000100000000000000000000000000000001000000100001100000000000000000000000000000000010000000000000000000000000000000000000000000000000000000000000000000110000000000000000000000000000000111111 +
b000000000000000000000000000000000000000000000000000000000000000010010100000000000000000000000000000000000000000000000000000000000000000000000000 3
b0000111 ?
b00000000000000000000001000001000 C
b00000000000100000000000100010011 D
b00000000000000000000001000001100 E
b000000000001000000000001000100110000000000000000000000100000100000000000000000000000001000001100000000000000000000000000000000111111 F
b00000000000000000000000000000011 K
b11111111111000000000000010010011 O
b00000000000000000000001000000100 P
b00000000000000000000001000001000 Q
b00000000000000000000000000000010 R
b1111111 U
b11111111111111111111111111111110 Z
b00011 a
1c
b00001 e
b000000000001000000000001100100110000000000000000000000100000000000110000000000000000000000000000000001000110000000000000000000000000000000111111 g
b00000000000100000000000110010011 l
b00000000000000000000001000000000 m
b00000000000000000000000000000001 n
b00000000000000000000001000000100 o
b001100 p
b00000000000000000000000000000001 s
b00011 t
b1111 v
b00000000000000000000000000000001 y
1{
b100101 |
b111111111110000000000000100100110000000000000000000000100000010000000000000000000000001000001000001100000000000000000000000000000000100000000000000000000000000000000000000000000000000000000000000000000011111111111111111111111111111111011111 /!
b11110 o!
1p!
#104
0p!
#105
b00000000000000000000000000000011 %
b000000000001000000000001000100110000000000000000000000100000100000000000000000000000001000001100000000000000000000000000000000111111 &
b111111111110000000000000100100110000000000000000000000100000010000000000000000000000001000001000001100000000000000000000000000000000100000000000000000000000000000000000000000000000000000000000000000000011111111111111111111111111111111011111 +
b000000000001000000000001100100110000000000000000000000100000000000110000000000000000000000000000000001000110000000000000000000000000000000111111 3
b000000000000000000000000000000000000000000000000000000000000000010010100000000000000000000000000000000000000000000000000000000000000000000000000 8
b0000011 ?
b000111 @
b00000000000000000000001000001100 C
b00000000000100010101010001100011 D
b00000000000000000000001000010000 E
b000000000001000101010100011000110000000000000000000000100000110000000000000000000000001000010000000000000000000000000000000001001111 F
b00000000000000000000000000000100 K
b00000000000100000000000100010011 O
b00000000000000000000001000001000 P
b00000000000000000000001000001100 Q
b00000000000000000000000000000011 R
b0000000 U
b00000000000000000000000000000001 Z
b00001 a
b00011 b
1d
b00010 e
b111111111110000000000000100100110000000000000000000000100000010000110000000000000000000000000000000010000011111111111111111111111111111111011111 g
b11111111111000000000000010010011 l
b00000000000000000000001000000100 m
b00000000000000000000000000000010 n
b00000000000000000000001000001000 o
b11111111111111111111111111111110 s
b00001 t
b11111111111111111111111111111110 y
b001100 |
b00000000000000000000000000000001 }
b00000000000100000000000110010011 ~
b00000000000000000000001000000000 !!
b1111 "!
b00011 $!
b00000000000000000000000000000001 %!
1&!
b100101 '!
b000000000001000000000001000100110000000000000000000000100000100000000000000000000000001000001100001100000000000000000000000000000000110000000000000000000000000000000000000000000000000000000000000000000100000000000000000000000000000000111111 /!
17!
1j!
1k!
b00001 o!
1p!
#106
0p!
#107
b00000000000000000000000000000100 %
b000000000000000000000000000000000000000000000000000000000000000000000000000000000000000000000000000000000000000000000000000000000000000000000000000000000000000000000000000000000000000000000000000000000000000000000000000000000000000000000000 +
b111111111110000000000000100100110000000000000000000000100000010000110000000000000000000000000000000010000011111111111111111111111111111111011111 3
b000000000001000000000001100100110000000000000000000000100000000000110000000000000000000000000000000001000110000000000000000000000000000000111111 8
b0000000 ?
b000011 @
b1000110000000000000000000000000000000100000 A
1[
b00011 \
b00000000000000000000000000000001 ]
b00000 a
b00001 b
0c
b000000000000000000000000000000000000000000000000000000000000000000000000000000000000000000000000000000000001111111111111111111111111111111000000 g
b00000000000000000000000000000000 l
b00000000000000000000000000000000 m
b00000000000000000000000000000000 n
b00000000000000000000000000000000 o
b000000 p
b00000000000000000000000000000000 s
b00000 t
b0000 v
0{
b00000000000000000000000000000010 }
b11111111111000000000000010010011 ~
b00000000000000000000001000000100 !!
b00001 $!
b11111111111111111111111111111110 %!
b001100 '!
b00000000000100000000000110010011 (!
b00000000000000000000001000000000 )!
b00000000000000000000000000000001 *!
b1111 +!
1,!
b00011 -!
b00000000000000000000000000000001 .!
07!
18!
1p!
b00000000000000000000000000100101 :"
#108
b00000000000000000000000000000001 =!
0p!
b00000000000000000000000000000001 u!
#109
b00000000000000000000000000000101 %
b000000000000000000000000000000000000000000000000000000000000000000000000000000000000000000000000000000000001111111111111111111111111111111000000 3
b111111111110000000000000100100110000000000000000000000100000010000110000000000000000000000000000000010000011111111111111111111111111111111011111 8
b000000 @
b1000011111111111111111111111111111111000000 A
b00001 \
b11111111111111111111111111111110 ]
b00000 b
0d
b000000 |
b00000000000000000000000000000000 }
b00000000000000000000000000000000 ~
b00000000000000000000000000000000 !!
b0000 "!
b00000 $!
0&!
b11111111111000000000000010010011 (!
b00000000000000000000001000000100 )!
b00000000000000000000000000000010 *!
b00001 -!
b11111111111111111111111111111110 .!
08!
19!
1p!
b00000000000000000000001000000000 5"
b00000000000100000000000110010011 6"
b00000000000000000000000000000001 7"
b00000000000000000000000000000001 8"
b00000000000000000000000000000001 9"
b00000000000000000000000000001100 :"
b00000000000000000000000000000011 ;"
#110
#111
b000000000001000000000001000100110000000000000000000000100000100000000000000000000000001000001100001100000000000000000000000000000000110000000000000000000000000000000011111111111111111111111111111110000100000000000000000000000000000000111111 /!
b11111111111111111111111111111110 ;!
b11111111111111111111111111111110 m!
0p!
b11111111111111111111111111111110 s!
#112
b00000000000000000000000000000110 %
b000000000000000000000000000000000000000000000000000000000000000000000000000000000000000000000000000000000001111111111111111111111111111111000000 8
b0000001111111111111111111111111111111000000 A
0[
b00000 \
b000000 '!
b00000000000000000000000000000000 (!
b00000000000000000000000000000000 )!
b00000000000000000000000000000000 *!
b0000 +!
0,!
b00000 -!
09!
0j!
0k!
1p!
b00000000000000000000001000000100 5"
b11111111111000000000000010010011 6"
b11111111111111111111111111111110 8"
b00000000000000000000000000000010 9"
b00000000000000000000000000000001 ;"
#113
0p!
