trace.vcd
$version Generated by VerilatedVcd $end
$date Tue Sep 20 21:25:28 2022
 $end
$timescale   1ps $end

 $scope module TOP $end
  $var wire  1 k! clk $end
  $var wire  1 l! reset $end
  $scope module pipeline $end
   $var wire 144 3 AGEX_latch_out [143:0] $end
   $var wire 240 + DE_latch_out [239:0] $end
   $var wire 132 & FE_latch_out [131:0] $end
   $var wire 144 8 MEM_latch_out [143:0] $end
   $var wire  1 k! clk $end
   $var wire 32 % cycle_count [31:0] $end
   $var wire  7 @ from_AGEX_to_DE [6:0] $end
   $var wire 33 > from_AGEX_to_FE [32:0] $end
   $var wire  1 = from_DE_to_FE [0:0] $end
   $var wire  1 Q" from_MEM_to_AGEX [0:0] $end
   $var wire  6 A from_MEM_to_DE [5:0] $end
   $var wire  1 O" from_MEM_to_FE [0:0] $end
   $var wire  1 R" from_WB_to_AGEX [0:0] $end
   $var wire 43 B from_WB_to_DE [42:0] $end
   $var wire  1 P" from_WB_to_FE [0:0] $end
   $var wire  1 S" from_WB_to_MEM [0:0] $end
   $var wire  1 l! reset $end
   $scope module my_AGEX_stage $end
    $var wire 144 3 AGEX_latch [143:0] $end
    $var wire 144 t AGEX_latch_contents [143:0] $end
    $var wire 144 3 AGEX_latch_out [143:0] $end
    $var wire 32 z PC_AGEX [31:0] $end
    $var wire  1 $! br_cond_AGEX $end
    $var wire 32 (! br_target [31:0] $end
    $var wire  4 %! bus_canary_AGEX [3:0] $end
    $var wire  1 k! clk $end
    $var wire  7 @ from_AGEX_to_DE [6:0] $end
    $var wire 33 > from_AGEX_to_FE [32:0] $end
    $var wire 240 + from_DE_latch [239:0] $end
    $var wire  1 Q" from_MEM_to_AGEX [0:0] $end
    $var wire  1 R" from_WB_to_AGEX [0:0] $end
    $var wire 32 "! imm_val [31:0] $end
    $var wire 32 y inst_AGEX [31:0] $end
    $var wire 32 { inst_count_AGEX [31:0] $end
    $var wire  1 &! is_branch $end
    $var wire  6 } op_I_AGEX [5:0] $end
    $var wire 32 | pcplus_AGEX [31:0] $end
    $var wire 32 ~ reg_1_val [31:0] $end
    $var wire 32 !! reg_2_val [31:0] $end
    $var wire  5 #! reg_dest [4:0] $end
    $var wire  1 l! reset $end
    $var wire 32 '! result [31:0] $end
    $var wire  1 &! stall_de $end
    $var wire  1 )! wr_reg $end
   $upscope $end
   $scope module my_DE_stage $end
    $var wire 240 + DE_latch [239:0] $end
    $var wire 240 S DE_latch_contents [239:0] $end
    $var wire 240 + DE_latch_out [239:0] $end
    $var wire  3 \ F3_DE [2:0] $end
    $var wire  7 ] F7_DE [6:0] $end
    $var wire 32 P PC_DE [31:0] $end
    $var wire  5 j agex_reg_dest [4:0] $end
    $var wire  1 h agex_stall_command $end
    $var wire  4 [ bus_canary_DE [3:0] $end
    $var wire  1 k! clk $end
    $var wire 32 [! csr_regs(0) [31:0] $end
    $var wire 32 \! csr_regs(1) [31:0] $end
    $var wire 32 e! csr_regs(10) [31:0] $end
    $var wire 32 f! csr_regs(11) [31:0] $end
    $var wire 32 g! csr_regs(12) [31:0] $end
    $var wire 32 h! csr_regs(13) [31:0] $end
    $var wire 32 i! csr_regs(14) [31:0] $end
    $var wire 32 j! csr_regs(15) [31:0] $end
    $var wire 32 ]! csr_regs(2) [31:0] $end
    $var wire 32 ^! csr_regs(3) [31:0] $end
    $var wire 32 _! csr_regs(4) [31:0] $end
    $var wire 32 `! csr_regs(5) [31:0] $end
    $var wire 32 a! csr_regs(6) [31:0] $end
    $var wire 32 b! csr_regs(7) [31:0] $end
    $var wire 32 c! csr_regs(8) [31:0] $end
    $var wire 32 d! csr_regs(9) [31:0] $end
    $var wire  7 @ from_AGEX_to_DE [6:0] $end
    $var wire  1 = from_DE_to_FE [0:0] $end
    $var wire 132 & from_FE_latch [131:0] $end
    $var wire  6 A from_MEM_to_DE [5:0] $end
    $var wire 43 B from_WB_to_DE [42:0] $end
    $var wire 32 O inst_DE [31:0] $end
    $var wire 32 R inst_count_DE [31:0] $end
    $var wire  1 l is_agex_wr $end
    $var wire  1 m is_mem_wr $end
    $var wire  5 k mem_reg_dest [4:0] $end
    $var wire  7 ^ op_DE [6:0] $end
    $var wire  6 _ op_I_DE [5:0] $end
    $var wire 32 Q pcplus_DE [31:0] $end
    $var wire  1 i pipeline_stall_DE $end
    $var wire  5 q reg_1_num [4:0] $end
    $var wire 32 o reg_1_val [31:0] $end
    $var wire  5 r reg_2_num [4:0] $end
    $var wire 32 p reg_2_val [31:0] $end
    $var wire  5 n reg_dest [4:0] $end
    $var wire 32 ;! regs(0) [31:0] $end
    $var wire 32 <! regs(1) [31:0] $end
    $var wire 32 E! regs(10) [31:0] $end
    $var wire 32 F! regs(11) [31:0] $end
    $var wire 32 G! regs(12) [31:0] $end
    $var wire 32 H! regs(13) [31:0] $end
    $var wire 32 I! regs(14) [31:0] $end
    $var wire 32 J! regs(15) [31:0] $end
    $var wire 32 K! regs(16) [31:0] $end
    $var wire 32 L! regs(17) [31:0] $end
    $var wire 32 M! regs(18) [31:0] $end
    $var wire 32 N! regs(19) [31:0] $end
    $var wire 32 =! regs(2) [31:0] $end
    $var wire 32 O! regs(20) [31:0] $end
    $var wire 32 P! regs(21) [31:0] $end
    $var wire 32 Q! regs(22) [31:0] $end
    $var wire 32 R! regs(23) [31:0] $end
    $var wire 32 S! regs(24) [31:0] $end
    $var wire 32 T! regs(25) [31:0] $end
    $var wire 32 U! regs(26) [31:0] $end
    $var wire 32 V! regs(27) [31:0] $end
    $var wire 32 W! regs(28) [31:0] $end
    $var wire 32 X! regs(29) [31:0] $end
    $var wire 32 >! regs(3) [31:0] $end
    $var wire 32 Y! regs(30) [31:0] $end
    $var wire 32 Z! regs(31) [31:0] $end
    $var wire 32 ?! regs(4) [31:0] $end
    $var wire 32 @! regs(5) [31:0] $end
    $var wire 32 A! regs(6) [31:0] $end
    $var wire 32 B! regs(7) [31:0] $end
    $var wire 32 C! regs(8) [31:0] $end
    $var wire 32 D! regs(9) [31:0] $end
    $var wire 32 e regval_WB [31:0] $end
    $var wire  1 l! reset $end
    $var wire 32 b sxt_imm_DE [31:0] $end
    $var wire  4 ` type_I_DE [3:0] $end
    $var wire  3 a type_immediate_DE [2:0] $end
    $var wire  5 d wb_reg_dest [4:0] $end
    $var wire  4 f wcsrno_WB [3:0] $end
    $var wire  1 g wr_csr_WB $end
    $var wire  1 s wr_reg $end
    $var wire  1 c wr_reg_WB $end
    $var wire  5 d wregno_WB [4:0] $end
    $scope module unnamedblk1 $end
     $var wire 32 # i [31:0] $end
    $upscope $end
    $scope module unnamedblk2 $end
     $var wire 32 $ i [31:0] $end
    $upscope $end
   $upscope $end
   $scope module my_FE_stage $end
    $var wire 132 & FE_latch [131:0] $end
    $var wire 132 G FE_latch_contents [131:0] $end
    $var wire 132 & FE_latch_out [131:0] $end
    $var wire 32 D PC_FE_latch [31:0] $end
    $var wire 32 M br_target [31:0] $end
    $var wire  1 k! clk $end
    $var wire 33 > from_AGEX_to_FE [32:0] $end
    $var wire  1 = from_DE_to_FE [0:0] $end
    $var wire  1 O" from_MEM_to_FE [0:0] $end
    $var wire  1 P" from_WB_to_FE [0:0] $end
    $var wire 32 E inst_FE [31:0] $end
    $var wire 32 T" inst_count_AGEX [31:0] $end
    $var wire 32 L inst_count_FE [31:0] $end
    $var wire  1 N is_branch $end
    $var wire 32 F pcplus_FE [31:0] $end
    $var wire  1 l! reset $end
    $var wire  1 = stall_pipe_FE $end
   $upscope $end
   $scope module my_MEM_stage $end
    $var wire 144 8 MEM_latch [143:0] $end
    $var wire 144 3 MEM_latch_contents [143:0] $end
    $var wire 144 8 MEM_latch_out [143:0] $end
    $var wire 32 -! PC_MEM [31:0] $end
    $var wire  4 .! bus_canary_MEM [3:0] $end
    $var wire  1 k! clk $end
    $var wire 144 3 from_AGEX_latch [143:0] $end
    $var wire  1 Q" from_MEM_to_AGEX [0:0] $end
    $var wire  6 A from_MEM_to_DE [5:0] $end
    $var wire  1 O" from_MEM_to_FE [0:0] $end
    $var wire  1 S" from_WB_to_MEM [0:0] $end
    $var wire 32 ,! inst_MEM [31:0] $end
    $var wire 32 +! inst_count_MEM [31:0] $end
    $var wire 32 U" memaddr_MEM [31:0] $end
    $var wire  6 *! op_I_MEM [5:0] $end
    $var wire 32 /! rd_val_MEM [31:0] $end
    $var wire  5 0! reg_dest [4:0] $end
    $var wire  1 l! reset $end
    $var wire 32 1! result [31:0] $end
    $var wire  1 W" wr_mem_MEM $end
    $var wire  1 2! wr_reg $end
    $var wire 32 V" wr_val_MEM [31:0] $end
   $upscope $end
   $scope module my_WB_stage $end
    $var wire 32 5! PC_WB [31:0] $end
    $var wire 32 /" WB_counters(0) [31:0] $end
    $var wire 32 0" WB_counters(1) [31:0] $end
    $var wire 32 9" WB_counters(10) [31:0] $end
    $var wire 32 :" WB_counters(11) [31:0] $end
    $var wire 32 ;" WB_counters(12) [31:0] $end
    $var wire 32 <" WB_counters(13) [31:0] $end
    $var wire 32 =" WB_counters(14) [31:0] $end
    $var wire 32 >" WB_counters(15) [31:0] $end
    $var wire 32 ?" WB_counters(16) [31:0] $end
    $var wire 32 @" WB_counters(17) [31:0] $end
    $var wire 32 A" WB_counters(18) [31:0] $end
    $var wire 32 B" WB_counters(19) [31:0] $end
    $var wire 32 1" WB_counters(2) [31:0] $end
    $var wire 32 C" WB_counters(20) [31:0] $end
    $var wire 32 D" WB_counters(21) [31:0] $end
    $var wire 32 E" WB_counters(22) [31:0] $end
    $var wire 32 F" WB_counters(23) [31:0] $end
    $var wire 32 G" WB_counters(24) [31:0] $end
    $var wire 32 H" WB_counters(25) [31:0] $end
    $var wire 32 I" WB_counters(26) [31:0] $end
    $var wire 32 J" WB_counters(27) [31:0] $end
    $var wire 32 K" WB_counters(28) [31:0] $end
    $var wire 32 L" WB_counters(29) [31:0] $end
    $var wire 32 2" WB_counters(3) [31:0] $end
    $var wire 32 M" WB_counters(30) [31:0] $end
    $var wire 32 N" WB_counters(31) [31:0] $end
    $var wire 32 3" WB_counters(4) [31:0] $end
    $var wire 32 4" WB_counters(5) [31:0] $end
    $var wire 32 5" WB_counters(6) [31:0] $end
    $var wire 32 6" WB_counters(7) [31:0] $end
    $var wire 32 7" WB_counters(8) [31:0] $end
    $var wire 32 8" WB_counters(9) [31:0] $end
    $var wire  4 7! bus_canary_WB [3:0] $end
    $var wire  1 k! clk $end
    $var wire 144 8 from_MEM_latch [143:0] $end
    $var wire  1 R" from_WB_to_AGEX [0:0] $end
    $var wire 43 B from_WB_to_DE [42:0] $end
    $var wire  1 P" from_WB_to_FE [0:0] $end
    $var wire  1 S" from_WB_to_MEM [0:0] $end
    $var wire 32 4! inst_WB [31:0] $end
    $var wire 32 6! inst_count_WB [31:0] $end
    $var wire 32 m! last_WB_value(0) [31:0] $end
    $var wire 32 n! last_WB_value(1) [31:0] $end
    $var wire 32 w! last_WB_value(10) [31:0] $end
    $var wire 32 x! last_WB_value(11) [31:0] $end
    $var wire 32 y! last_WB_value(12) [31:0] $end
    $var wire 32 z! last_WB_value(13) [31:0] $end
    $var wire 32 {! last_WB_value(14) [31:0] $end
    $var wire 32 |! last_WB_value(15) [31:0] $end
    $var wire 32 }! last_WB_value(16) [31:0] $end
    $var wire 32 ~! last_WB_value(17) [31:0] $end
    $var wire 32 !" last_WB_value(18) [31:0] $end
    $var wire 32 "" last_WB_value(19) [31:0] $end
    $var wire 32 o! last_WB_value(2) [31:0] $end
    $var wire 32 #" last_WB_value(20) [31:0] $end
    $var wire 32 $" last_WB_value(21) [31:0] $end
    $var wire 32 %" last_WB_value(22) [31:0] $end
    $var wire 32 &" last_WB_value(23) [31:0] $end
    $var wire 32 '" last_WB_value(24) [31:0] $end
    $var wire 32 (" last_WB_value(25) [31:0] $end
    $var wire 32 )" last_WB_value(26) [31:0] $end
    $var wire 32 *" last_WB_value(27) [31:0] $end
    $var wire 32 +" last_WB_value(28) [31:0] $end
    $var wire 32 ," last_WB_value(29) [31:0] $end
    $var wire 32 p! last_WB_value(3) [31:0] $end
    $var wire 32 -" last_WB_value(30) [31:0] $end
    $var wire 32 ." last_WB_value(31) [31:0] $end
    $var wire 32 q! last_WB_value(4) [31:0] $end
    $var wire 32 r! last_WB_value(5) [31:0] $end
    $var wire 32 s! last_WB_value(6) [31:0] $end
    $var wire 32 t! last_WB_value(7) [31:0] $end
    $var wire 32 u! last_WB_value(8) [31:0] $end
    $var wire 32 v! last_WB_value(9) [31:0] $end
    $var wire  6 3! op_I_WB [5:0] $end
    $var wire  5 9! reg_dest [4:0] $end
    $var wire 32 :! regval_WB [31:0] $end
    $var wire  1 l! reset $end
    $var wire 32 :! result [31:0] $end
    $var wire  4 X" wcsrno_WB [3:0] $end
    $var wire  1 Y" wr_csr_WB $end
    $var wire  1 8! wr_reg $end
    $var wire  1 8! wr_reg_WB $end
    $var wire  5 9! wregno_WB [4:0] $end
   $upscope $end
  $upscope $end
 $upscope $end
$enddefinitions $end


#0
b00000000000000000000000000100000 #
b00000000000000000000000000010000 $
b00000000000000000000000000000000 %
b000000000000000000000000000000000000000000000000000000000000000000000000000000000000000000000000000000000000000000000000000000000000 &
b000000000000000000000000000000000000000000000000000000000000000000000000000000000000000000000000000000000000000000000000000000000000000000000000000000000000000000000000000000000000000000000000000000000000000000000000000000000000000000000000 +
b000000000000000000000000000000000000000000000000000000000000000000000000000000000000000000000000000000000000000000000000000000000000000000000000 3
b000000000000000000000000000000000000000000000000000000000000000000000000000000000000000000000000000000000000000000000000000000000000000000000000 8
0=
b000000000000000000000000000000000 >
b0000000 @
b000000 A
b0000000000000000000000000000000000000000000 B
b00000000000000000000000000000000 D
b00000000000000000000000100000000 E
b00000000000000000000000000000100 F
b000000000000000000000001000000000000000000000000000000000000000000000000000000000000000000000100000000000000000000000000000000001111 G
b00000000000000000000000000000000 L
b00000000000000000000000000000000 M
0N
b00000000000000000000000000000000 O
b00000000000000000000000000000000 P
b00000000000000000000000000000000 Q
b00000000000000000000000000000000 R
b000000000000000000000000000000000000000000000000000000000000000000000000000000000000000000000000100101000000000000000000000000000000000000000000000000000000000000000000000000000000000000000000000000000000000000000000000000000000000000000000 S
b0000 [
b000 \
b0000000 ]
b0000000 ^
b100101 _
b0000 `
b000 a
b00000000000000000000000000000000 b
0c
b00000 d
b00000000000000000000000000000000 e
b0000 f
0g
0h
0i
b00000 j
b00000 k
0l
0m
b00000 n
b00000000000000000000000000000000 o
b00000000000000000000000000000000 p
b00000 q
b00000 r
0s
b000000000000000000000000000000000000000000000000000000000000000000000000000000000000000000000000000000000000000000000000000000000000000000000000 t
b00000000000000000000000000000000 y
b00000000000000000000000000000000 z
b00000000000000000000000000000000 {
b00000000000000000000000000000000 |
b000000 }
b00000000000000000000000000000000 ~
b00000000000000000000000000000000 !!
b00000000000000000000000000000000 "!
b00000 #!
0$!
b0000 %!
0&!
b00000000000000000000000000000000 '!
b00000000000000000000000000000000 (!
0)!
b000000 *!
b00000000000000000000000000000000 +!
b00000000000000000000000000000000 ,!
b00000000000000000000000000000000 -!
b0000 .!
b00000000000000000000000100000000 /!
b00000 0!
b00000000000000000000000000000000 1!
02!
b000000 3!
b00000000000000000000000000000000 4!
b00000000000000000000000000000000 5!
b00000000000000000000000000000000 6!
b0000 7!
08!
b00000 9!
b00000000000000000000000000000000 :!
b00000000000000000000000000000000 ;!
b00000000000000000000000000000000 <!
b00000000000000000000000000000000 =!
b00000000000000000000000000000000 >!
b00000000000000000000000000000000 ?!
b00000000000000000000000000000000 @!
b00000000000000000000000000000000 A!
b00000000000000000000000000000000 B!
b00000000000000000000000000000000 C!
b00000000000000000000000000000000 D!
b00000000000000000000000000000000 E!
b00000000000000000000000000000000 F!
b00000000000000000000000000000000 G!
b00000000000000000000000000000000 H!
b00000000000000000000000000000000 I!
b00000000000000000000000000000000 J!
b00000000000000000000000000000000 K!
b00000000000000000000000000000000 L!
b00000000000000000000000000000000 M!
b00000000000000000000000000000000 N!
b00000000000000000000000000000000 O!
b00000000000000000000000000000000 P!
b00000000000000000000000000000000 Q!
b00000000000000000000000000000000 R!
b00000000000000000000000000000000 S!
b00000000000000000000000000000000 T!
b00000000000000000000000000000000 U!
b00000000000000000000000000000000 V!
b00000000000000000000000000000000 W!
b00000000000000000000000000000000 X!
b00000000000000000000000000000000 Y!
b00000000000000000000000000000000 Z!
b00000000000000000000000000000000 [!
b00000000000000000000000000000000 \!
b00000000000000000000000000000000 ]!
b00000000000000000000000000000000 ^!
b00000000000000000000000000000000 _!
b00000000000000000000000000000000 `!
b00000000000000000000000000000000 a!
b00000000000000000000000000000000 b!
b00000000000000000000000000000000 c!
b00000000000000000000000000000000 d!
b00000000000000000000000000000000 e!
b00000000000000000000000000000000 f!
b00000000000000000000000000000000 g!
b00000000000000000000000000000000 h!
b00000000000000000000000000000000 i!
b00000000000000000000000000000000 j!
0k!
0l!
b00000000000000000000000000000000 m!
b00000000000000000000000000000000 n!
b00000000000000000000000000000000 o!
b00000000000000000000000000000000 p!
b00000000000000000000000000000000 q!
b00000000000000000000000000000000 r!
b00000000000000000000000000000000 s!
b00000000000000000000000000000000 t!
b00000000000000000000000000000000 u!
b00000000000000000000000000000000 v!
b00000000000000000000000000000000 w!
b00000000000000000000000000000000 x!
b00000000000000000000000000000000 y!
b00000000000000000000000000000000 z!
b00000000000000000000000000000000 {!
b00000000000000000000000000000000 |!
b00000000000000000000000000000000 }!
b00000000000000000000000000000000 ~!
b00000000000000000000000000000000 !"
b00000000000000000000000000000000 ""
b00000000000000000000000000000000 #"
b00000000000000000000000000000000 $"
b00000000000000000000000000000000 %"
b00000000000000000000000000000000 &"
b00000000000000000000000000000000 '"
b00000000000000000000000000000000 ("
b00000000000000000000000000000000 )"
b00000000000000000000000000000000 *"
b00000000000000000000000000000000 +"
b00000000000000000000000000000000 ,"
b00000000000000000000000000000000 -"
b00000000000000000000000000000000 ."
b00000000000000000000000000000000 /"
b00000000000000000000000000000000 0"
b00000000000000000000000000000000 1"
b00000000000000000000000000000000 2"
b00000000000000000000000000000000 3"
b00000000000000000000000000000000 4"
b00000000000000000000000000000000 5"
b00000000000000000000000000000000 6"
b00000000000000000000000000000000 7"
b00000000000000000000000000000000 8"
b00000000000000000000000000000000 9"
b00000000000000000000000000000000 :"
b00000000000000000000000000000000 ;"
b00000000000000000000000000000000 <"
b00000000000000000000000000000000 ="
b00000000000000000000000000000000 >"
b00000000000000000000000000000000 ?"
b00000000000000000000000000000000 @"
b00000000000000000000000000000000 A"
b00000000000000000000000000000000 B"
b00000000000000000000000000000000 C"
b00000000000000000000000000000000 D"
b00000000000000000000000000000000 E"
b00000000000000000000000000000000 F"
b00000000000000000000000000000000 G"
b00000000000000000000000000000000 H"
b00000000000000000000000000000000 I"
b00000000000000000000000000000000 J"
b00000000000000000000000000000000 K"
b00000000000000000000000000000000 L"
b00000000000000000000000000000000 M"
b00000000000000000000000000000000 N"
0O"
0P"
0Q"
0R"
0S"
b00000000000000000000000000000000 T"
b00000000000000000000000000000000 U"
b00000000000000000000000000000000 V"
0W"
b0000 X"
0Y"
#1
b00000000000000000000000000000001 %
b000000000000000000000001000000000000000000000000000000000000000000000000000000000000000000000100000000000000000000000000000000001111 &
b000000000000000000000000000000000000000000000000000000000000000000000000000000000000000000000000100101000000000000000000000000000000000000000000000000000000000000000000000000000000000000000000000000000000000000000000000000000000000000000000 +
b00000000000000000000000000000100 D
b00000000000000000000000100010011 E
b00000000000000000000000000001000 F
b000000000000000000000001000100110000000000000000000000000000010000000000000000000000000000001000000000000000000000000000000000011111 G
b00000000000000000000000000000001 L
b00000000000000000000000100000000 O
b00000000000000000000000000000100 Q
b000000000000000000000001000000000000000000000000000000000000000000000000000000000000000000000100100101000000000000000000000000000000000000000000000000000000000000000000000000000000000000000000000000000100000000000000000000000000000000001111 S
b1111 [
b00010 n
b000000000000000000000000000000000000000000000000000000000000000010010100000000000000000000000000000000000000000000000000000000000000000000000000 t
b100101 }
1k!
#2
0k!
1l!
#3
b00000000000000000000000000000000 %
b000000000000000000000000000000000000000000000000000000000000000000000000000000000000000000000000000000000000000000000000000000000000 &
b000000000000000000000000000000000000000000000000000000000000000000000000000000000000000000000000000000000000000000000000000000000000000000000000000000000000000000000000000000000000000000000000000000000000000000000000000000000000000000000000 +
b00000000000000000000001000000000 D
b00000000000100000000001100010011 E
b00000000000000000000001000000100 F
b000000000001000000000011000100110000000000000000000000100000000000000000000000000000001000000100000000000000000000000000000000011111 G
b00000000000000000000000000000000 O
b00000000000000000000000000000000 Q
b000000000000000000000000000000000000000000000000000000000000000000000000000000000000000000000000100101000000000000000000000000000000000000000000000000000000000000000000000000000000000000000000000000000000000000000000000000000000000000000000 S
b0000 [
b00000 n
b000000000000000000000000000000000000000000000000000000000000000000000000000000000000000000000000000000000000000000000000000000000000000000000000 t
b000000 }
1k!
#4
0k!
#5
1k!
#6
0k!
#7
1k!
#8
0k!
#9
1k!
#10
#11
0k!
#12
1k!
#13
0k!
#14
1k!
#15
0k!
#16
1k!
#17
0k!
#18
1k!
#19
0k!
#20
#21
1k!
#22
0k!
#23
1k!
#24
0k!
#25
1k!
#26
0k!
#27
1k!
#28
0k!
#29
1k!
#30
#31
0k!
#32
1k!
#33
0k!
#34
1k!
#35
0k!
#36
1k!
#37
0k!
#38
1k!
#39
0k!
#40
#41
1k!
#42
0k!
#43
1k!
#44
0k!
#45
1k!
#46
0k!
#47
1k!
#48
0k!
#49
1k!
#50
#51
0k!
#52
1k!
#53
0k!
#54
1k!
#55
0k!
#56
1k!
#57
0k!
#58
1k!
#59
0k!
#60
#61
1k!
#62
0k!
#63
1k!
#64
0k!
#65
1k!
#66
0k!
#67
1k!
#68
0k!
#69
1k!
#70
#71
0k!
#72
1k!
#73
0k!
#74
1k!
#75
0k!
#76
1k!
#77
0k!
#78
1k!
#79
0k!
#80
#81
1k!
#82
0k!
#83
1k!
#84
0k!
#85
1k!
#86
0k!
#87
1k!
#88
0k!
#89
1k!
#90
#91
0k!
#92
1k!
#93
0k!
#94
1k!
#95
0k!
#96
1k!
#97
0k!
#98
1k!
#99
0k!
#100
0l!
#101
b00000000000000000000000000000001 %
b000000000001000000000011000100110000000000000000000000100000000000000000000000000000001000000100000000000000000000000000000000011111 &
b000000000000000000000000000000000000000000000000000000000000000000000000000000000000000000000000100101000000000000000000000000000000000000000000000000000000000000000000000000000000000000000000000000000000000000000000000000000000000000000000 +
b00000000000000000000001000000100 D
b00000000000100000000001110010011 E
b00000000000000000000001000001000 F
b000000000001000000000011100100110000000000000000000000100000010000000000000000000000001000001000000000000000000000000000000000101111 G
b00000000000000000000000000000010 L
b00000000000100000000001100010011 O
b00000000000000000000001000000000 P
b00000000000000000000001000000100 Q
b00000000000000000000000000000001 R
b000000000001000000000011000100110000000000000000000000100000000000000000000000000000001000000100001100000000000000000000000000000000010000000000000000000000000000000000000000000000000000000000000000001100000000000000000000000000000000111111 S
b1111 [
b0010011 ^
b001100 _
b0010 `
b001 a
b00000000000000000000000000000001 b
b00110 n
1s
b000000000000000000000000000000000000000000000000000000000000000010010100000000000000000000000000000000000000000000000000000000000000000000000000 t
b100101 }
1k!
#102
0k!
#103
b00000000000000000000000000000010 %
b000000000001000000000011100100110000000000000000000000100000010000000000000000000000001000001000000000000000000000000000000000101111 &
b000000000001000000000011000100110000000000000000000000100000000000000000000000000000001000000100001100000000000000000000000000000000010000000000000000000000000000000000000000000000000000000000000000001100000000000000000000000000000000111111 +
b000000000000000000000000000000000000000000000000000000000000000010010100000000000000000000000000000000000000000000000000000000000000000000000000 3
b0001101 @
b00000000000000000000001000001000 D
b00000000011100110000010001100011 E
b00000000000000000000001000001100 F
b000000000111001100000100011000110000000000000000000000100000100000000000000000000000001000001100000000000000000000000000000000111111 G
b00000000000000000000000000000011 L
b00000000000100000000001110010011 O
b00000000000000000000001000000100 P
b00000000000000000000001000001000 Q
b00000000000000000000000000000010 R
b000000000001000000000011100100110000000000000000000000100000010000000000000000000000001000001000001100000000000000000000000000000000100000000000000000000000000000000000000000000000000000000000000000001110000000000000000000000000000000111111 S
b00110 j
1l
b00111 n
b00001 r
b000000000001000000000011000100110000000000000000000000100000000000110000000000000000000000000000000001001100000000000000000000000000000000111111 t
b00000000000100000000001100010011 y
b00000000000000000000001000000000 z
b00000000000000000000000000000001 {
b00000000000000000000001000000100 |
b001100 }
b00000000000000000000000000000001 "!
b00110 #!
b1111 %!
b00000000000000000000000000000001 '!
1)!
b100101 *!
1k!
#104
0k!
#105
b00000000000000000000000000000011 %
b000000000111001100000100011000110000000000000000000000100000100000000000000000000000001000001100000000000000000000000000000000111111 &
b000000000001000000000011100100110000000000000000000000100000010000000000000000000000001000001000001100000000000000000000000000000000100000000000000000000000000000000000000000000000000000000000000000001110000000000000000000000000000000111111 +
b000000000001000000000011000100110000000000000000000000100000000000110000000000000000000000000000000001001100000000000000000000000000000000111111 3
b000000000000000000000000000000000000000000000000000000000000000010010100000000000000000000000000000000000000000000000000000000000000000000000000 8
1=
b0001111 @
b001101 A
b00000000000000000000001000001100 D
b00000000001100000000000110010011 E
b00000000000000000000001000010000 F
b000000000011000000000001100100110000000000000000000000100000110000000000000000000000001000010000000000000000000000000000000001001111 G
b00000000000000000000000000000100 L
b00000000011100110000010001100011 O
b00000000000000000000001000001000 P
b00000000000000000000001000001100 Q
b00000000000000000000000000000011 R
b000000000111001100000100011000110000000000000000000000100000100000000000000000000000001000001100011100000000000000000000000000000000110000000000000000000000000000000000000000000000000000000000000000010000000000000000000000000000000100001111 S
b1100011 ^
b011100 _
b0011 `
b101 a
b00000000000000000000000000001000 b
b00111 j
b00110 k
1m
b01000 n
0s
b000000000001000000000011100100110000000000000000000000100000010000110000000000000000000000000000000010001110000000000000000000000000000000111111 t
b00000000000100000000001110010011 y
b00000000000000000000001000000100 z
b00000000000000000000000000000010 {
b00000000000000000000001000001000 |
b00111 #!
b001100 *!
b00000000000000000000000000000001 +!
b00000000000100000000001100010011 ,!
b00000000000000000000001000000000 -!
b1111 .!
b00110 0!
b00000000000000000000000000000001 1!
12!
b100101 3!
1k!
#106
0k!
#107
b00000000000000000000000000000100 %
b000000000111001100000100011000110000000000000000000000100000100000000000000000000000001000001100011100000000000000000000000000000000110000000000000000000000000000000000000000000000000000000000000000010000000000000000000000000000000100001111 +
b000000000001000000000011100100110000000000000000000000100000010000110000000000000000000000000000000010001110000000000000000000000000000000111111 3
b000000000001000000000011000100110000000000000000000000100000000000110000000000000000000000000000000001001100000000000000000000000000000000111111 8
b100000000000000000000001000010000 >
b1010000 @
b001111 A
b1001100000000000000000000000000000000100000 B
b00000000000100000000000110010011 E
b00000000000000000000001000010100 F
b000000000001000000000001100100110000000000000000000000100001000000000000000000000000001000010100000000000000000000000000000001001111 G
b00000000000000000000001000010000 M
1N
1c
b00110 d
b00000000000000000000000000000001 e
1h
1i
b01000 j
b00111 k
0l
b00110 q
b00111 r
b000000000111001100000100011000110000000000000000000000100000100001110000000000000000000000000000000011010000000000000000000000000000000000101111 t
b00000000011100110000010001100011 y
b00000000000000000000001000001000 z
b00000000000000000000000000000011 {
b00000000000000000000001000001100 |
b011100 }
b00000000000000000000000000001000 "!
b01000 #!
1$!
1&!
b00000000000000000000001000010000 (!
0)!
b00000000000000000000000000000010 +!
b00000000000100000000001110010011 ,!
b00000000000000000000001000000100 -!
b00111 0!
b001100 3!
b00000000000100000000001100010011 4!
b00000000000000000000001000000000 5!
b00000000000000000000000000000001 6!
b1111 7!
18!
b00110 9!
b00000000000000000000000000000001 :!
1k!
b00000000000000000000000000100101 5"
#108
b00000000000000000000000000000001 A!
0k!
b00000000000000000000000000000001 s!
#109
b00000000000000000000000000000101 %
b000000000001000000000001100100110000000000000000000000100001000000000000000000000000001000010100000000000000000000000000000001001111 &
b000000000000000000000000000000000000000000000000000000000000000000000000000000000000000000000000000000000000000000000000000000000000000000000000000000000000000000000000000000000000000000000000000000000000000000000000000000000000000000000000 +
b000000000111001100000100011000110000000000000000000000100000100001110000000000000000000000000000000011010000000000000000000000000000000000101111 3
b000000000001000000000011100100110000000000000000000000100000010000110000000000000000000000000000000010001110000000000000000000000000000000111111 8
b000000000000000000000001000010000 >
b0000000 @
b010000 A
b1001110000000000000000000000000000000100000 B
b00000000000000000000001000010100 D
b00000000010000000000001100010011 E
b00000000000000000000001000011000 F
b000000000100000000000011000100110000000000000000000000100001010000000000000000000000001000011000000000000000000000000000000001011111 G
b00000000000000000000000000000101 L
0N
b00000000000100000000000110010011 O
b00000000000000000000001000010000 P
b00000000000000000000001000010100 Q
b00000000000000000000000000000100 R
b000000000001000000000001100100110000000000000000000000100001000000000000000000000000001000010100001100000000000000000000000000000001000000000000000000000000000000000100000000000000000000000000000000000110000000000000000000000000000000111111 S
b0010011 ^
b001100 _
b0010 `
b001 a
b00000000000000000000000000000001 b
b00111 d
0h
b00000 j
b01000 k
0m
b00011 n
b00000000000000000000000000000001 o
1s
b000000000000000000000000000000000000000000000000000000000000000000000000000000000000000000000000000000000000000000000000000000000000000000100000 t
b00000000000000000000000000000000 y
b00000000000000000000000000000000 z
b00000000000000000000000000000000 {
b00000000000000000000000000000000 |
b000000 }
b00000000000000000000000000000000 "!
b00000 #!
0$!
b0000 %!
0&!
b011100 *!
b00000000000000000000000000000011 +!
b00000000011100110000010001100011 ,!
b00000000000000000000001000001000 -!
b01000 0!
02!
b00000000000100000000001110010011 4!
b00000000000000000000001000000100 5!
b00000000000000000000000000000010 6!
b00111 9!
1k!
b00000000000000000000001000000000 0"
b00000000000100000000001100010011 1"
b00000000000000000000000000000001 2"
b00000000000000000000000000000001 3"
b00000000000000000000000000000001 4"
b00000000000000000000000000001100 5"
b00000000000000000000000000000110 6"
#110
