trace.vcd
$version Generated by VerilatedVcd $end
$date Wed Oct  5 20:24:18 2022
 $end
$timescale   1ps $end

 $scope module TOP $end
  $var wire  1 {! clk $end
  $var wire  1 |! reset $end
  $scope module pipeline $end
   $var wire 176 3 AGEX_latch_out [175:0] $end
   $var wire 240 + DE_latch_out [239:0] $end
   $var wire 132 & FE_latch_out [131:0] $end
   $var wire 144 9 MEM_latch_out [143:0] $end
   $var wire  1 {! clk $end
   $var wire 32 % cycle_count [31:0] $end
   $var wire  7 @ from_AGEX_to_DE [6:0] $end
   $var wire 34 > from_AGEX_to_FE [33:0] $end
   $var wire  1 u! from_DE_to_FE [0:0] $end
   $var wire  1 a" from_MEM_to_AGEX [0:0] $end
   $var wire  6 A from_MEM_to_DE [5:0] $end
   $var wire  1 _" from_MEM_to_FE [0:0] $end
   $var wire  1 b" from_WB_to_AGEX [0:0] $end
   $var wire 43 B from_WB_to_DE [42:0] $end
   $var wire  1 `" from_WB_to_FE [0:0] $end
   $var wire  1 c" from_WB_to_MEM [0:0] $end
   $var wire  1 |! reset $end
   $scope module my_AGEX_stage $end
    $var wire 176 3 AGEX_latch [175:0] $end
    $var wire 176 h AGEX_latch_contents [175:0] $end
    $var wire 176 3 AGEX_latch_out [175:0] $end
    $var wire 32 o PC_AGEX [31:0] $end
    $var wire  1 w br_cond_AGEX $end
    $var wire 32 } br_target [31:0] $end
    $var wire  4 x bus_canary_AGEX [3:0] $end
    $var wire  1 {! clk $end
    $var wire  7 @ from_AGEX_to_DE [6:0] $end
    $var wire 34 > from_AGEX_to_FE [33:0] $end
    $var wire 240 + from_DE_latch [239:0] $end
    $var wire  1 a" from_MEM_to_AGEX [0:0] $end
    $var wire  1 b" from_WB_to_AGEX [0:0] $end
    $var wire 32 u imm_val [31:0] $end
    $var wire 32 n inst_AGEX [31:0] $end
    $var wire 32 p inst_count_AGEX [31:0] $end
    $var wire  1 y is_branch $end
    $var wire 32 | mem_addr [31:0] $end
    $var wire  1 z move_on_fetch $end
    $var wire  6 r op_I_AGEX [5:0] $end
    $var wire 32 q pcplus_AGEX [31:0] $end
    $var wire 32 s reg_1_val [31:0] $end
    $var wire 32 t reg_2_val [31:0] $end
    $var wire  5 v reg_dest [4:0] $end
    $var wire  1 |! reset $end
    $var wire 32 { result [31:0] $end
    $var wire 32 u signed_imm [31:0] $end
    $var wire 32 s signed_reg_1_val [31:0] $end
    $var wire 32 t signed_reg_2_val [31:0] $end
    $var wire  1 y stall_de $end
    $var wire  1 ~ wr_reg $end
   $upscope $end
   $scope module my_DE_stage $end
    $var wire 240 + DE_latch [239:0] $end
    $var wire 240 :! DE_latch_contents [239:0] $end
    $var wire 240 + DE_latch_out [239:0] $end
    $var wire  3 U F3_DE [2:0] $end
    $var wire  7 V F7_DE [6:0] $end
    $var wire 32 Q PC_DE [31:0] $end
    $var wire  5 b agex_reg_dest [4:0] $end
    $var wire  1 a agex_stall_command $end
    $var wire  4 T bus_canary_DE [3:0] $end
    $var wire  1 {! clk $end
    $var wire 32 e! csr_regs(0) [31:0] $end
    $var wire 32 f! csr_regs(1) [31:0] $end
    $var wire 32 o! csr_regs(10) [31:0] $end
    $var wire 32 p! csr_regs(11) [31:0] $end
    $var wire 32 q! csr_regs(12) [31:0] $end
    $var wire 32 r! csr_regs(13) [31:0] $end
    $var wire 32 s! csr_regs(14) [31:0] $end
    $var wire 32 t! csr_regs(15) [31:0] $end
    $var wire 32 g! csr_regs(2) [31:0] $end
    $var wire 32 h! csr_regs(3) [31:0] $end
    $var wire 32 i! csr_regs(4) [31:0] $end
    $var wire 32 j! csr_regs(5) [31:0] $end
    $var wire 32 k! csr_regs(6) [31:0] $end
    $var wire 32 l! csr_regs(7) [31:0] $end
    $var wire 32 m! csr_regs(8) [31:0] $end
    $var wire 32 n! csr_regs(9) [31:0] $end
    $var wire  7 @ from_AGEX_to_DE [6:0] $end
    $var wire  1 u! from_DE_to_FE [0:0] $end
    $var wire 132 & from_FE_latch [131:0] $end
    $var wire  6 A from_MEM_to_DE [5:0] $end
    $var wire 43 B from_WB_to_DE [42:0] $end
    $var wire 32 P inst_DE [31:0] $end
    $var wire 32 S inst_count_DE [31:0] $end
    $var wire  1 d is_agex_wr $end
    $var wire  1 e is_mem_wr $end
    $var wire  5 c mem_reg_dest [4:0] $end
    $var wire  7 W op_DE [6:0] $end
    $var wire  6 X op_I_DE [5:0] $end
    $var wire 32 R pcplus_DE [31:0] $end
    $var wire  1 v! pipeline_stall_DE $end
    $var wire  1 e" prev_dest $end
    $var wire  1 f" prev_wr $end
    $var wire  5 y! reg_1_num [4:0] $end
    $var wire 32 w! reg_1_val [31:0] $end
    $var wire  5 z! reg_2_num [4:0] $end
    $var wire 32 x! reg_2_val [31:0] $end
    $var wire  5 f reg_dest [4:0] $end
    $var wire 32 E! regs(0) [31:0] $end
    $var wire 32 F! regs(1) [31:0] $end
    $var wire 32 O! regs(10) [31:0] $end
    $var wire 32 P! regs(11) [31:0] $end
    $var wire 32 Q! regs(12) [31:0] $end
    $var wire 32 R! regs(13) [31:0] $end
    $var wire 32 S! regs(14) [31:0] $end
    $var wire 32 T! regs(15) [31:0] $end
    $var wire 32 U! regs(16) [31:0] $end
    $var wire 32 V! regs(17) [31:0] $end
    $var wire 32 W! regs(18) [31:0] $end
    $var wire 32 X! regs(19) [31:0] $end
    $var wire 32 G! regs(2) [31:0] $end
    $var wire 32 Y! regs(20) [31:0] $end
    $var wire 32 Z! regs(21) [31:0] $end
    $var wire 32 [! regs(22) [31:0] $end
    $var wire 32 \! regs(23) [31:0] $end
    $var wire 32 ]! regs(24) [31:0] $end
    $var wire 32 ^! regs(25) [31:0] $end
    $var wire 32 _! regs(26) [31:0] $end
    $var wire 32 `! regs(27) [31:0] $end
    $var wire 32 a! regs(28) [31:0] $end
    $var wire 32 b! regs(29) [31:0] $end
    $var wire 32 H! regs(3) [31:0] $end
    $var wire 32 c! regs(30) [31:0] $end
    $var wire 32 d! regs(31) [31:0] $end
    $var wire 32 I! regs(4) [31:0] $end
    $var wire 32 J! regs(5) [31:0] $end
    $var wire 32 K! regs(6) [31:0] $end
    $var wire 32 L! regs(7) [31:0] $end
    $var wire 32 M! regs(8) [31:0] $end
    $var wire 32 N! regs(9) [31:0] $end
    $var wire 32 ^ regval_WB [31:0] $end
    $var wire  1 |! reset $end
    $var wire  1 B! stall_from_agex $end
    $var wire  1 C! stall_from_mem $end
    $var wire  1 D! stall_from_wb $end
    $var wire 32 [ sxt_imm_DE [31:0] $end
    $var wire  4 Y type_I_DE [3:0] $end
    $var wire  3 Z type_immediate_DE [2:0] $end
    $var wire  5 ] wb_reg_dest [4:0] $end
    $var wire  4 _ wcsrno_WB [3:0] $end
    $var wire  1 ` wr_csr_WB $end
    $var wire  1 g wr_reg $end
    $var wire  1 \ wr_reg_WB $end
    $var wire  5 ] wregno_WB [4:0] $end
    $scope module unnamedblk1 $end
     $var wire 32 # i [31:0] $end
    $upscope $end
    $scope module unnamedblk2 $end
     $var wire 32 $ i [31:0] $end
    $upscope $end
   $upscope $end
   $scope module my_FE_stage $end
    $var wire 132 & FE_latch [131:0] $end
    $var wire 132 G FE_latch_contents [131:0] $end
    $var wire 132 & FE_latch_out [131:0] $end
    $var wire 32 D PC_FE_latch [31:0] $end
    $var wire 32 M br_target [31:0] $end
    $var wire  1 {! clk $end
    $var wire 34 > from_AGEX_to_FE [33:0] $end
    $var wire  1 u! from_DE_to_FE [0:0] $end
    $var wire  1 _" from_MEM_to_FE [0:0] $end
    $var wire  1 `" from_WB_to_FE [0:0] $end
    $var wire 32 E inst_FE [31:0] $end
    $var wire 32 d" inst_count_AGEX [31:0] $end
    $var wire 32 L inst_count_FE [31:0] $end
    $var wire  1 O is_branch $end
    $var wire 32 F pcplus_FE [31:0] $end
    $var wire  1 |! reset $end
    $var wire  1 N should_branch $end
    $var wire  1 u! stall_pipe_FE $end
   $upscope $end
   $scope module my_MEM_stage $end
    $var wire 144 9 MEM_latch [143:0] $end
    $var wire 144 !! MEM_latch_contents [143:0] $end
    $var wire 144 9 MEM_latch_out [143:0] $end
    $var wire 32 )! PC_MEM [31:0] $end
    $var wire  4 *! bus_canary_MEM [3:0] $end
    $var wire  1 {! clk $end
    $var wire 176 3 from_AGEX_latch [175:0] $end
    $var wire  1 a" from_MEM_to_AGEX [0:0] $end
    $var wire  6 A from_MEM_to_DE [5:0] $end
    $var wire  1 _" from_MEM_to_FE [0:0] $end
    $var wire  1 c" from_WB_to_MEM [0:0] $end
    $var wire 32 (! inst_MEM [31:0] $end
    $var wire 32 '! inst_count_MEM [31:0] $end
    $var wire 32 +! memaddr_MEM [31:0] $end
    $var wire  6 &! op_I_MEM [5:0] $end
    $var wire 32 ,! rd_val_MEM [31:0] $end
    $var wire  5 /! reg_dest [4:0] $end
    $var wire  1 |! reset $end
    $var wire 32 -! result [31:0] $end
    $var wire 32 0! result_to_wb [31:0] $end
    $var wire  1 .! wr_mem_MEM $end
    $var wire  1 1! wr_reg $end
    $var wire 32 -! wr_val_MEM [31:0] $end
   $upscope $end
   $scope module my_WB_stage $end
    $var wire 32 4! PC_WB [31:0] $end
    $var wire 32 ?" WB_counters(0) [31:0] $end
    $var wire 32 @" WB_counters(1) [31:0] $end
    $var wire 32 I" WB_counters(10) [31:0] $end
    $var wire 32 J" WB_counters(11) [31:0] $end
    $var wire 32 K" WB_counters(12) [31:0] $end
    $var wire 32 L" WB_counters(13) [31:0] $end
    $var wire 32 M" WB_counters(14) [31:0] $end
    $var wire 32 N" WB_counters(15) [31:0] $end
    $var wire 32 O" WB_counters(16) [31:0] $end
    $var wire 32 P" WB_counters(17) [31:0] $end
    $var wire 32 Q" WB_counters(18) [31:0] $end
    $var wire 32 R" WB_counters(19) [31:0] $end
    $var wire 32 A" WB_counters(2) [31:0] $end
    $var wire 32 S" WB_counters(20) [31:0] $end
    $var wire 32 T" WB_counters(21) [31:0] $end
    $var wire 32 U" WB_counters(22) [31:0] $end
    $var wire 32 V" WB_counters(23) [31:0] $end
    $var wire 32 W" WB_counters(24) [31:0] $end
    $var wire 32 X" WB_counters(25) [31:0] $end
    $var wire 32 Y" WB_counters(26) [31:0] $end
    $var wire 32 Z" WB_counters(27) [31:0] $end
    $var wire 32 [" WB_counters(28) [31:0] $end
    $var wire 32 \" WB_counters(29) [31:0] $end
    $var wire 32 B" WB_counters(3) [31:0] $end
    $var wire 32 ]" WB_counters(30) [31:0] $end
    $var wire 32 ^" WB_counters(31) [31:0] $end
    $var wire 32 C" WB_counters(4) [31:0] $end
    $var wire 32 D" WB_counters(5) [31:0] $end
    $var wire 32 E" WB_counters(6) [31:0] $end
    $var wire 32 F" WB_counters(7) [31:0] $end
    $var wire 32 G" WB_counters(8) [31:0] $end
    $var wire 32 H" WB_counters(9) [31:0] $end
    $var wire  4 6! bus_canary_WB [3:0] $end
    $var wire  1 {! clk $end
    $var wire 144 9 from_MEM_latch [143:0] $end
    $var wire  1 b" from_WB_to_AGEX [0:0] $end
    $var wire 43 B from_WB_to_DE [42:0] $end
    $var wire  1 `" from_WB_to_FE [0:0] $end
    $var wire  1 c" from_WB_to_MEM [0:0] $end
    $var wire 32 3! inst_WB [31:0] $end
    $var wire 32 5! inst_count_WB [31:0] $end
    $var wire 32 }! last_WB_value(0) [31:0] $end
    $var wire 32 ~! last_WB_value(1) [31:0] $end
    $var wire 32 )" last_WB_value(10) [31:0] $end
    $var wire 32 *" last_WB_value(11) [31:0] $end
    $var wire 32 +" last_WB_value(12) [31:0] $end
    $var wire 32 ," last_WB_value(13) [31:0] $end
    $var wire 32 -" last_WB_value(14) [31:0] $end
    $var wire 32 ." last_WB_value(15) [31:0] $end
    $var wire 32 /" last_WB_value(16) [31:0] $end
    $var wire 32 0" last_WB_value(17) [31:0] $end
    $var wire 32 1" last_WB_value(18) [31:0] $end
    $var wire 32 2" last_WB_value(19) [31:0] $end
    $var wire 32 !" last_WB_value(2) [31:0] $end
    $var wire 32 3" last_WB_value(20) [31:0] $end
    $var wire 32 4" last_WB_value(21) [31:0] $end
    $var wire 32 5" last_WB_value(22) [31:0] $end
    $var wire 32 6" last_WB_value(23) [31:0] $end
    $var wire 32 7" last_WB_value(24) [31:0] $end
    $var wire 32 8" last_WB_value(25) [31:0] $end
    $var wire 32 9" last_WB_value(26) [31:0] $end
    $var wire 32 :" last_WB_value(27) [31:0] $end
    $var wire 32 ;" last_WB_value(28) [31:0] $end
    $var wire 32 <" last_WB_value(29) [31:0] $end
    $var wire 32 "" last_WB_value(3) [31:0] $end
    $var wire 32 =" last_WB_value(30) [31:0] $end
    $var wire 32 >" last_WB_value(31) [31:0] $end
    $var wire 32 #" last_WB_value(4) [31:0] $end
    $var wire 32 $" last_WB_value(5) [31:0] $end
    $var wire 32 %" last_WB_value(6) [31:0] $end
    $var wire 32 &" last_WB_value(7) [31:0] $end
    $var wire 32 '" last_WB_value(8) [31:0] $end
    $var wire 32 (" last_WB_value(9) [31:0] $end
    $var wire  6 2! op_I_WB [5:0] $end
    $var wire  5 8! reg_dest [4:0] $end
    $var wire 32 9! regval_WB [31:0] $end
    $var wire  1 |! reset $end
    $var wire 32 9! result [31:0] $end
    $var wire  4 g" wcsrno_WB [3:0] $end
    $var wire  1 h" wr_csr_WB $end
    $var wire  1 7! wr_reg $end
    $var wire  1 7! wr_reg_WB $end
    $var wire  5 8! wregno_WB [4:0] $end
   $upscope $end
  $upscope $end
 $upscope $end
$enddefinitions $end


#0
b00000000000000000000000000100000 #
b00000000000000000000000000010000 $
b00000000000000000000000000000000 %
b000000000000000000000000000000000000000000000000000000000000000000000000000000000000000000000000000000000000000000000000000000000000 &
b000000000000000000000000000000000000000000000000000000000000000000000000000000000000000000000000000000000000000000000000000000000000000000000000000000000000000000000000000000000000000000000000000000000000000000000000000000000000000000000000 +
b00000000000000000000000000000000000000000000000000000000000000000000000000000000000000000000000000000000000000000000000000000000000000000000000000000000000000000000000000000000 3
b000000000000000000000000000000000000000000000000000000000000000000000000000000000000000000000000000000000000000000000000000000000000000000000000 9
b0000000000000000000000000000000000 >
b0000000 @
b000000 A
b0000000000000000000000000000000000000000000 B
b00000000000000000000000000000000 D
b00000000000000000000000000000000 E
b00000000000000000000000000000100 F
b000000000000000000000000000000000000000000000000000000000000000000000000000000000000000000000100000000000000000000000000000000001111 G
b00000000000000000000000000000000 L
b00000000000000000000000000000000 M
0N
0O
b00000000000000000000000000000000 P
b00000000000000000000000000000000 Q
b00000000000000000000000000000000 R
b00000000000000000000000000000000 S
b0000 T
b000 U
b0000000 V
b0000000 W
b100101 X
b0000 Y
b000 Z
b00000000000000000000000000000000 [
0\
b00000 ]
b00000000000000000000000000000000 ^
b0000 _
0`
0a
b00000 b
b00000 c
0d
0e
b00000 f
0g
b00000000000000000000000000000000000000000000000000000000000000000000000000000000000000000000000000000000000000000000000000000000000000000000000000000000000000000000000000000000 h
b00000000000000000000000000000000 n
b00000000000000000000000000000000 o
b00000000000000000000000000000000 p
b00000000000000000000000000000000 q
b000000 r
b00000000000000000000000000000000 s
b00000000000000000000000000000000 t
b00000000000000000000000000000000 u
b00000 v
0w
b0000 x
0y
0z
b00000000000000000000000000000000 {
b00000000000000000000000000000000 |
b00000000000000000000000000000000 }
0~
b000000000000000000000000000000000000000000000000000000000000000000000000000000000000000000000000000000000000000000000000000000000000000000000000 !!
b000000 &!
b00000000000000000000000000000000 '!
b00000000000000000000000000000000 (!
b00000000000000000000000000000000 )!
b0000 *!
b00000000000000000000000000000000 +!
b00000000000000000000000000000000 ,!
b00000000000000000000000000000000 -!
0.!
b00000 /!
b00000000000000000000000000000000 0!
01!
b000000 2!
b00000000000000000000000000000000 3!
b00000000000000000000000000000000 4!
b00000000000000000000000000000000 5!
b0000 6!
07!
b00000 8!
b00000000000000000000000000000000 9!
b000000000000000000000000000000000000000000000000000000000000000000000000000000000000000000000000100101000000000000000000000000000000000000000000000000000000000000000000000000000000000000000000000000000000000000000000000000000000000000000000 :!
0B!
0C!
0D!
b00000000000000000000000000000000 E!
b00000000000000000000000000000000 F!
b00000000000000000000000000000000 G!
b00000000000000000000000000000000 H!
b00000000000000000000000000000000 I!
b00000000000000000000000000000000 J!
b00000000000000000000000000000000 K!
b00000000000000000000000000000000 L!
b00000000000000000000000000000000 M!
b00000000000000000000000000000000 N!
b00000000000000000000000000000000 O!
b00000000000000000000000000000000 P!
b00000000000000000000000000000000 Q!
b00000000000000000000000000000000 R!
b00000000000000000000000000000000 S!
b00000000000000000000000000000000 T!
b00000000000000000000000000000000 U!
b00000000000000000000000000000000 V!
b00000000000000000000000000000000 W!
b00000000000000000000000000000000 X!
b00000000000000000000000000000000 Y!
b00000000000000000000000000000000 Z!
b00000000000000000000000000000000 [!
b00000000000000000000000000000000 \!
b00000000000000000000000000000000 ]!
b00000000000000000000000000000000 ^!
b00000000000000000000000000000000 _!
b00000000000000000000000000000000 `!
b00000000000000000000000000000000 a!
b00000000000000000000000000000000 b!
b00000000000000000000000000000000 c!
b00000000000000000000000000000000 d!
b00000000000000000000000000000000 e!
b00000000000000000000000000000000 f!
b00000000000000000000000000000000 g!
b00000000000000000000000000000000 h!
b00000000000000000000000000000000 i!
b00000000000000000000000000000000 j!
b00000000000000000000000000000000 k!
b00000000000000000000000000000000 l!
b00000000000000000000000000000000 m!
b00000000000000000000000000000000 n!
b00000000000000000000000000000000 o!
b00000000000000000000000000000000 p!
b00000000000000000000000000000000 q!
b00000000000000000000000000000000 r!
b00000000000000000000000000000000 s!
b00000000000000000000000000000000 t!
0u!
0v!
b00000000000000000000000000000000 w!
b00000000000000000000000000000000 x!
b00000 y!
b00000 z!
0{!
0|!
b00000000000000000000000000000000 }!
b00000000000000000000000000000000 ~!
b00000000000000000000000000000000 !"
b00000000000000000000000000000000 ""
b00000000000000000000000000000000 #"
b00000000000000000000000000000000 $"
b00000000000000000000000000000000 %"
b00000000000000000000000000000000 &"
b00000000000000000000000000000000 '"
b00000000000000000000000000000000 ("
b00000000000000000000000000000000 )"
b00000000000000000000000000000000 *"
b00000000000000000000000000000000 +"
b00000000000000000000000000000000 ,"
b00000000000000000000000000000000 -"
b00000000000000000000000000000000 ."
b00000000000000000000000000000000 /"
b00000000000000000000000000000000 0"
b00000000000000000000000000000000 1"
b00000000000000000000000000000000 2"
b00000000000000000000000000000000 3"
b00000000000000000000000000000000 4"
b00000000000000000000000000000000 5"
b00000000000000000000000000000000 6"
b00000000000000000000000000000000 7"
b00000000000000000000000000000000 8"
b00000000000000000000000000000000 9"
b00000000000000000000000000000000 :"
b00000000000000000000000000000000 ;"
b00000000000000000000000000000000 <"
b00000000000000000000000000000000 ="
b00000000000000000000000000000000 >"
b00000000000000000000000000000000 ?"
b00000000000000000000000000000000 @"
b00000000000000000000000000000000 A"
b00000000000000000000000000000000 B"
b00000000000000000000000000000000 C"
b00000000000000000000000000000000 D"
b00000000000000000000000000000000 E"
b00000000000000000000000000000000 F"
b00000000000000000000000000000000 G"
b00000000000000000000000000000000 H"
b00000000000000000000000000000000 I"
b00000000000000000000000000000000 J"
b00000000000000000000000000000000 K"
b00000000000000000000000000000000 L"
b00000000000000000000000000000000 M"
b00000000000000000000000000000000 N"
b00000000000000000000000000000000 O"
b00000000000000000000000000000000 P"
b00000000000000000000000000000000 Q"
b00000000000000000000000000000000 R"
b00000000000000000000000000000000 S"
b00000000000000000000000000000000 T"
b00000000000000000000000000000000 U"
b00000000000000000000000000000000 V"
b00000000000000000000000000000000 W"
b00000000000000000000000000000000 X"
b00000000000000000000000000000000 Y"
b00000000000000000000000000000000 Z"
b00000000000000000000000000000000 ["
b00000000000000000000000000000000 \"
b00000000000000000000000000000000 ]"
b00000000000000000000000000000000 ^"
0_"
0`"
0a"
0b"
0c"
b00000000000000000000000000000000 d"
0e"
0f"
b0000 g"
0h"
#1
b00000000000000000000000000000001 %
b000000000000000000000000000000000000000000000000000000000000000000000000000000000000000000000100000000000000000000000000000000001111 &
b000000000000000000000000000000000000000000000000000000000000000000000000000000000000000000000000100101000000000000000000000000000000000000000000000000000000000000000000000000000000000000000000000000000000000000000000000000000000000000000000 +
b00000000000000000000000000000100 D
b00000000000000000000000000001000 F
b000000000000000000000000000000000000000000000000000000000000010000000000000000000000000000001000000000000000000000000000000000011111 G
b00000000000000000000000000000001 L
b00000000000000000000000000000100 R
b1111 T
b00000000000000000000000000000000000000000000000000000000000000001001010000000000000000000000000000000000000000000000000000000000000000000000000000000000000000000000000000000000 h
b100101 r
b000000000000000000000000000000000000000000000000000000000000000000000000000000000000000000000100100101000000000000000000000000000000000000000000000000000000000000000000000000000000000000000000000000000000000000000000000000000000000000001111 :!
1{!
#2
0{!
1|!
#3
b00000000000000000000000000000000 %
b000000000000000000000000000000000000000000000000000000000000000000000000000000000000000000000000000000000000000000000000000000000000 &
b000000000000000000000000000000000000000000000000000000000000000000000000000000000000000000000000000000000000000000000000000000000000000000000000000000000000000000000000000000000000000000000000000000000000000000000000000000000000000000000000 +
b00000000000000000000001000000000 D
b00000000000000000000000010010011 E
b00000000000000000000001000000100 F
b000000000000000000000000100100110000000000000000000000100000000000000000000000000000001000000100000000000000000000000000000000011111 G
b00000000000000000000000000000000 R
b0000 T
b00000000000000000000000000000000000000000000000000000000000000000000000000000000000000000000000000000000000000000000000000000000000000000000000000000000000000000000000000000000 h
b000000 r
b000000000000000000000000000000000000000000000000000000000000000000000000000000000000000000000000100101000000000000000000000000000000000000000000000000000000000000000000000000000000000000000000000000000000000000000000000000000000000000000000 :!
1{!
#4
0{!
#5
1{!
#6
0{!
#7
1{!
#8
0{!
#9
1{!
#10
#11
0{!
#12
1{!
#13
0{!
#14
1{!
#15
0{!
#16
1{!
#17
0{!
#18
1{!
#19
0{!
#20
#21
1{!
#22
0{!
#23
1{!
#24
0{!
#25
1{!
#26
0{!
#27
1{!
#28
0{!
#29
1{!
#30
#31
0{!
#32
1{!
#33
0{!
#34
1{!
#35
0{!
#36
1{!
#37
0{!
#38
1{!
#39
0{!
#40
#41
1{!
#42
0{!
#43
1{!
#44
0{!
#45
1{!
#46
0{!
#47
1{!
#48
0{!
#49
1{!
#50
#51
0{!
#52
1{!
#53
0{!
#54
1{!
#55
0{!
#56
1{!
#57
0{!
#58
1{!
#59
0{!
#60
#61
1{!
#62
0{!
#63
1{!
#64
0{!
#65
1{!
#66
0{!
#67
1{!
#68
0{!
#69
1{!
#70
#71
0{!
#72
1{!
#73
0{!
#74
1{!
#75
0{!
#76
1{!
#77
0{!
#78
1{!
#79
0{!
#80
#81
1{!
#82
0{!
#83
1{!
#84
0{!
#85
1{!
#86
0{!
#87
1{!
#88
0{!
#89
1{!
#90
#91
0{!
#92
1{!
#93
0{!
#94
1{!
#95
0{!
#96
1{!
#97
0{!
#98
1{!
#99
0{!
#100
0|!
#101
b00000000000000000000000000000001 %
b000000000000000000000000100100110000000000000000000000100000000000000000000000000000001000000100000000000000000000000000000000011111 &
b000000000000000000000000000000000000000000000000000000000000000000000000000000000000000000000000100101000000000000000000000000000000000000000000000000000000000000000000000000000000000000000000000000000000000000000000000000000000000000000000 +
b00000000000000000000001000000100 D
b00000000000000000000000100010011 E
b00000000000000000000001000001000 F
b000000000000000000000001000100110000000000000000000000100000010000000000000000000000001000001000000000000000000000000000000000101111 G
b00000000000000000000000000000010 L
b00000000000000000000000010010011 P
b00000000000000000000001000000000 Q
b00000000000000000000001000000100 R
b00000000000000000000000000000001 S
b1111 T
b0010011 W
b001100 X
b0010 Y
b001 Z
b00001 f
1g
b00000000000000000000000000000000000000000000000000000000000000001001010000000000000000000000000000000000000000000000000000000000000000000000000000000000000000000000000000000000 h
b100101 r
b000000000000000000000000100100110000000000000000000000100000000000000000000000000000001000000100001100000000000000000000000000000000010000000000000000000000000000000000000000000000000000000000000000000010000000000000000000000000000000011111 :!
1{!
#102
0{!
#103
b00000000000000000000000000000010 %
b000000000000000000000001000100110000000000000000000000100000010000000000000000000000001000001000000000000000000000000000000000101111 &
b000000000000000000000000100100110000000000000000000000100000000000000000000000000000001000000100001100000000000000000000000000000000010000000000000000000000000000000000000000000000000000000000000000000010000000000000000000000000000000011111 +
b00000000000000000000000000000000000000000000000000000000000000001001010000000000000000000000000000000000000000000000000000000000000000000000000000000000000000000000000000000000 3
b0000011 @
b00000000000000000000001000001000 D
b00000000000000000000000110010011 E
b00000000000000000000001000001100 F
b000000000000000000000001100100110000000000000000000000100000100000000000000000000000001000001100000000000000000000000000000000111111 G
b00000000000000000000000000000011 L
b00000000000000000000000100010011 P
b00000000000000000000001000000100 Q
b00000000000000000000001000001000 R
b00000000000000000000000000000010 S
b00001 b
1d
b00010 f
b00000000000000000000000010010011000000000000000000000010000000000011000000000000000000000000000000000100001000000000000000000000000000000001000000000000000000000000000000001111 h
b00000000000000000000000010010011 n
b00000000000000000000001000000000 o
b00000000000000000000000000000001 p
b00000000000000000000001000000100 q
b001100 r
b00001 v
b1111 x
1~
b000000000000000000000000000000000000000000000000000000000000000010010100000000000000000000000000000000000000000000000000000000000000000000000000 !!
b100101 &!
b000000000000000000000001000100110000000000000000000000100000010000000000000000000000001000001000001100000000000000000000000000000000100000000000000000000000000000000000000000000000000000000000000000000100000000000000000000000000000000011111 :!
1{!
#104
0{!
#105
b00000000000000000000000000000011 %
b000000000000000000000001100100110000000000000000000000100000100000000000000000000000001000001100000000000000000000000000000000111111 &
b000000000000000000000001000100110000000000000000000000100000010000000000000000000000001000001000001100000000000000000000000000000000100000000000000000000000000000000000000000000000000000000000000000000100000000000000000000000000000000011111 +
b00000000000000000000000010010011000000000000000000000010000000000011000000000000000000000000000000000100001000000000000000000000000000000001000000000000000000000000000000001111 3
b000000000000000000000000000000000000000000000000000000000000000010010100000000000000000000000000000000000000000000000000000000000000000000000000 9
b0000101 @
b000011 A
b00000000000000000000001000001100 D
b00000000000000000000001000010011 E
b00000000000000000000001000010000 F
b000000000000000000000010000100110000000000000000000000100000110000000000000000000000001000010000000000000000000000000000000001001111 G
b00000000000000000000000000000100 L
b00000000000000000000000110010011 P
b00000000000000000000001000001000 Q
b00000000000000000000001000001100 R
b00000000000000000000000000000011 S
b00010 b
b00001 c
1e
b00011 f
b00000000000000000000000100010011000000000000000000000010000001000011000000000000000000000000000000001000010000000000000000000000000000000001000000000000000000000000000000001111 h
b00000000000000000000000100010011 n
b00000000000000000000001000000100 o
b00000000000000000000000000000010 p
b00000000000000000000001000001000 q
b00010 v
b000000000000000000000000100100110000000000000000000000100000000000110000000000000000000000000000000001000010000000000000000000000000000000011111 !!
b001100 &!
b00000000000000000000000000000001 '!
b00000000000000000000000010010011 (!
b00000000000000000000001000000000 )!
b1111 *!
b00001 /!
11!
b100101 2!
b000000000000000000000001100100110000000000000000000000100000100000000000000000000000001000001100001100000000000000000000000000000000110000000000000000000000000000000000000000000000000000000000000000000110000000000000000000000000000000011111 :!
1{!
#106
0{!
#107
b00000000000000000000000000000100 %
b000000000000000000000010000100110000000000000000000000100000110000000000000000000000001000010000000000000000000000000000000001001111 &
b000000000000000000000001100100110000000000000000000000100000100000000000000000000000001000001100001100000000000000000000000000000000110000000000000000000000000000000000000000000000000000000000000000000110000000000000000000000000000000011111 +
b00000000000000000000000100010011000000000000000000000010000001000011000000000000000000000000000000001000010000000000000000000000000000000001000000000000000000000000000000001111 3
b000000000000000000000000100100110000000000000000000000100000000000110000000000000000000000000000000001000010000000000000000000000000000000011111 9
b0000111 @
b000101 A
b1000010000000000000000000000000000000000000 B
b00000000000000000000001000010000 D
b00000000000000000000001010010011 E
b00000000000000000000001000010100 F
b000000000000000000000010100100110000000000000000000000100001000000000000000000000000001000010100000000000000000000000000000001011111 G
b00000000000000000000000000000101 L
b00000000000000000000001000010011 P
b00000000000000000000001000001100 Q
b00000000000000000000001000010000 R
b00000000000000000000000000000100 S
1\
b00001 ]
b00011 b
b00010 c
b00100 f
b00000000000000000000000110010011000000000000000000000010000010000011000000000000000000000000000000001100011000000000000000000000000000000001000000000000000000000000000000001111 h
b00000000000000000000000110010011 n
b00000000000000000000001000001000 o
b00000000000000000000000000000011 p
b00000000000000000000001000001100 q
b00011 v
b000000000000000000000001000100110000000000000000000000100000010000110000000000000000000000000000000010000100000000000000000000000000000000011111 !!
b00000000000000000000000000000010 '!
b00000000000000000000000100010011 (!
b00000000000000000000001000000100 )!
b00010 /!
b001100 2!
b00000000000000000000000010010011 3!
b00000000000000000000001000000000 4!
b00000000000000000000000000000001 5!
b1111 6!
17!
b00001 8!
b000000000000000000000010000100110000000000000000000000100000110000000000000000000000001000010000001100000000000000000000000000000001000000000000000000000000000000000000000000000000000000000000000000001000000000000000000000000000000000011111 :!
1{!
b00000000000000000000000000100101 E"
#108
0{!
