trace.vcd
$version Generated by VerilatedVcd $end
$date Tue Sep 20 20:59:27 2022
 $end
$timescale   1ps $end

 $scope module TOP $end
  $var wire  1 ^! clk $end
  $var wire  1 _! reset $end
  $scope module pipeline $end
   $var wire 143 3 AGEX_latch_out [142:0] $end
   $var wire 239 + DE_latch_out [238:0] $end
   $var wire 132 & FE_latch_out [131:0] $end
   $var wire 143 8 MEM_latch_out [142:0] $end
   $var wire  1 ^! clk $end
   $var wire 32 % cycle_count [31:0] $end
   $var wire  1 @ from_AGEX_to_DE [0:0] $end
   $var wire 33 > from_AGEX_to_FE [32:0] $end
   $var wire  1 = from_DE_to_FE [0:0] $end
   $var wire  1 E" from_MEM_to_AGEX [0:0] $end
   $var wire  1 D" from_MEM_to_DE [0:0] $end
   $var wire  1 B" from_MEM_to_FE [0:0] $end
   $var wire  1 F" from_WB_to_AGEX [0:0] $end
   $var wire 43 A from_WB_to_DE [42:0] $end
   $var wire  1 C" from_WB_to_FE [0:0] $end
   $var wire  1 G" from_WB_to_MEM [0:0] $end
   $var wire  1 _! reset $end
   $scope module my_AGEX_stage $end
    $var wire 143 3 AGEX_latch [142:0] $end
    $var wire 143 j AGEX_latch_contents [142:0] $end
    $var wire 143 3 AGEX_latch_out [142:0] $end
    $var wire 32 p PC_AGEX [31:0] $end
    $var wire  1 x br_cond_AGEX $end
    $var wire 32 { br_target [31:0] $end
    $var wire  4 y bus_canary_AGEX [3:0] $end
    $var wire  1 ^! clk $end
    $var wire  1 @ from_AGEX_to_DE [0:0] $end
    $var wire 33 > from_AGEX_to_FE [32:0] $end
    $var wire 239 + from_DE_latch [238:0] $end
    $var wire  1 E" from_MEM_to_AGEX [0:0] $end
    $var wire  1 F" from_WB_to_AGEX [0:0] $end
    $var wire 32 v imm_val [31:0] $end
    $var wire 32 o inst_AGEX [31:0] $end
    $var wire 32 q inst_count_AGEX [31:0] $end
    $var wire  1 @ is_branch $end
    $var wire  6 s op_I_AGEX [5:0] $end
    $var wire 32 r pcplus_AGEX [31:0] $end
    $var wire 32 t reg_1_val [31:0] $end
    $var wire 32 u reg_2_val [31:0] $end
    $var wire  5 w reg_dest [4:0] $end
    $var wire  1 _! reset $end
    $var wire 32 z result [31:0] $end
    $var wire  1 @ stall_de $end
   $upscope $end
   $scope module my_DE_stage $end
    $var wire 239 + DE_latch [238:0] $end
    $var wire 239 R DE_latch_contents [238:0] $end
    $var wire 239 + DE_latch_out [238:0] $end
    $var wire  3 [ F3_DE [2:0] $end
    $var wire  7 \ F7_DE [6:0] $end
    $var wire 32 O PC_DE [31:0] $end
    $var wire  4 Z bus_canary_DE [3:0] $end
    $var wire  1 ^! clk $end
    $var wire 32 N! csr_regs(0) [31:0] $end
    $var wire 32 O! csr_regs(1) [31:0] $end
    $var wire 32 X! csr_regs(10) [31:0] $end
    $var wire 32 Y! csr_regs(11) [31:0] $end
    $var wire 32 Z! csr_regs(12) [31:0] $end
    $var wire 32 [! csr_regs(13) [31:0] $end
    $var wire 32 \! csr_regs(14) [31:0] $end
    $var wire 32 ]! csr_regs(15) [31:0] $end
    $var wire 32 P! csr_regs(2) [31:0] $end
    $var wire 32 Q! csr_regs(3) [31:0] $end
    $var wire 32 R! csr_regs(4) [31:0] $end
    $var wire 32 S! csr_regs(5) [31:0] $end
    $var wire 32 T! csr_regs(6) [31:0] $end
    $var wire 32 U! csr_regs(7) [31:0] $end
    $var wire 32 V! csr_regs(8) [31:0] $end
    $var wire 32 W! csr_regs(9) [31:0] $end
    $var wire  1 @ from_AGEX_to_DE [0:0] $end
    $var wire  1 = from_DE_to_FE [0:0] $end
    $var wire 132 & from_FE_latch [131:0] $end
    $var wire  1 D" from_MEM_to_DE [0:0] $end
    $var wire 43 A from_WB_to_DE [42:0] $end
    $var wire 32 N inst_DE [31:0] $end
    $var wire 32 Q inst_count_DE [31:0] $end
    $var wire  7 ] op_DE [6:0] $end
    $var wire  6 ^ op_I_DE [5:0] $end
    $var wire 32 P pcplus_DE [31:0] $end
    $var wire  1 @ pipeline_stall_DE $end
    $var wire 32 h reg_1_val [31:0] $end
    $var wire 32 i reg_2_val [31:0] $end
    $var wire  5 g reg_dest [4:0] $end
    $var wire 32 .! regs(0) [31:0] $end
    $var wire 32 /! regs(1) [31:0] $end
    $var wire 32 8! regs(10) [31:0] $end
    $var wire 32 9! regs(11) [31:0] $end
    $var wire 32 :! regs(12) [31:0] $end
    $var wire 32 ;! regs(13) [31:0] $end
    $var wire 32 <! regs(14) [31:0] $end
    $var wire 32 =! regs(15) [31:0] $end
    $var wire 32 >! regs(16) [31:0] $end
    $var wire 32 ?! regs(17) [31:0] $end
    $var wire 32 @! regs(18) [31:0] $end
    $var wire 32 A! regs(19) [31:0] $end
    $var wire 32 0! regs(2) [31:0] $end
    $var wire 32 B! regs(20) [31:0] $end
    $var wire 32 C! regs(21) [31:0] $end
    $var wire 32 D! regs(22) [31:0] $end
    $var wire 32 E! regs(23) [31:0] $end
    $var wire 32 F! regs(24) [31:0] $end
    $var wire 32 G! regs(25) [31:0] $end
    $var wire 32 H! regs(26) [31:0] $end
    $var wire 32 I! regs(27) [31:0] $end
    $var wire 32 J! regs(28) [31:0] $end
    $var wire 32 K! regs(29) [31:0] $end
    $var wire 32 1! regs(3) [31:0] $end
    $var wire 32 L! regs(30) [31:0] $end
    $var wire 32 M! regs(31) [31:0] $end
    $var wire 32 2! regs(4) [31:0] $end
    $var wire 32 3! regs(5) [31:0] $end
    $var wire 32 4! regs(6) [31:0] $end
    $var wire 32 5! regs(7) [31:0] $end
    $var wire 32 6! regs(8) [31:0] $end
    $var wire 32 7! regs(9) [31:0] $end
    $var wire 32 d regval_WB [31:0] $end
    $var wire  1 _! reset $end
    $var wire 32 a sxt_imm_DE [31:0] $end
    $var wire  4 _ type_I_DE [3:0] $end
    $var wire  3 ` type_immediate_DE [2:0] $end
    $var wire  4 e wcsrno_WB [3:0] $end
    $var wire  1 f wr_csr_WB $end
    $var wire  1 b wr_reg_WB $end
    $var wire  5 c wregno_WB [4:0] $end
    $scope module unnamedblk1 $end
     $var wire 32 # i [31:0] $end
    $upscope $end
    $scope module unnamedblk2 $end
     $var wire 32 $ i [31:0] $end
    $upscope $end
   $upscope $end
   $scope module my_FE_stage $end
    $var wire 132 & FE_latch [131:0] $end
    $var wire 132 F FE_latch_contents [131:0] $end
    $var wire 132 & FE_latch_out [131:0] $end
    $var wire 32 C PC_FE_latch [31:0] $end
    $var wire 32 L br_target [31:0] $end
    $var wire  1 ^! clk $end
    $var wire 33 > from_AGEX_to_FE [32:0] $end
    $var wire  1 = from_DE_to_FE [0:0] $end
    $var wire  1 B" from_MEM_to_FE [0:0] $end
    $var wire  1 C" from_WB_to_FE [0:0] $end
    $var wire 32 D inst_FE [31:0] $end
    $var wire 32 H" inst_count_AGEX [31:0] $end
    $var wire 32 K inst_count_FE [31:0] $end
    $var wire  1 M is_branch $end
    $var wire 32 E pcplus_FE [31:0] $end
    $var wire  1 _! reset $end
    $var wire  1 = stall_pipe_FE $end
   $upscope $end
   $scope module my_MEM_stage $end
    $var wire 143 8 MEM_latch [142:0] $end
    $var wire 143 3 MEM_latch_contents [142:0] $end
    $var wire 143 8 MEM_latch_out [142:0] $end
    $var wire 32 !! PC_MEM [31:0] $end
    $var wire  4 "! bus_canary_MEM [3:0] $end
    $var wire  1 ^! clk $end
    $var wire 143 3 from_AGEX_latch [142:0] $end
    $var wire  1 E" from_MEM_to_AGEX [0:0] $end
    $var wire  1 D" from_MEM_to_DE [0:0] $end
    $var wire  1 B" from_MEM_to_FE [0:0] $end
    $var wire  1 G" from_WB_to_MEM [0:0] $end
    $var wire 32 ~ inst_MEM [31:0] $end
    $var wire 32 } inst_count_MEM [31:0] $end
    $var wire 32 I" memaddr_MEM [31:0] $end
    $var wire  6 | op_I_MEM [5:0] $end
    $var wire 32 #! rd_val_MEM [31:0] $end
    $var wire  5 $! reg_dest [4:0] $end
    $var wire  1 _! reset $end
    $var wire 32 %! result [31:0] $end
    $var wire  1 K" wr_mem_MEM $end
    $var wire 32 J" wr_val_MEM [31:0] $end
   $upscope $end
   $scope module my_WB_stage $end
    $var wire 32 (! PC_WB [31:0] $end
    $var wire 32 "" WB_counters(0) [31:0] $end
    $var wire 32 #" WB_counters(1) [31:0] $end
    $var wire 32 ," WB_counters(10) [31:0] $end
    $var wire 32 -" WB_counters(11) [31:0] $end
    $var wire 32 ." WB_counters(12) [31:0] $end
    $var wire 32 /" WB_counters(13) [31:0] $end
    $var wire 32 0" WB_counters(14) [31:0] $end
    $var wire 32 1" WB_counters(15) [31:0] $end
    $var wire 32 2" WB_counters(16) [31:0] $end
    $var wire 32 3" WB_counters(17) [31:0] $end
    $var wire 32 4" WB_counters(18) [31:0] $end
    $var wire 32 5" WB_counters(19) [31:0] $end
    $var wire 32 $" WB_counters(2) [31:0] $end
    $var wire 32 6" WB_counters(20) [31:0] $end
    $var wire 32 7" WB_counters(21) [31:0] $end
    $var wire 32 8" WB_counters(22) [31:0] $end
    $var wire 32 9" WB_counters(23) [31:0] $end
    $var wire 32 :" WB_counters(24) [31:0] $end
    $var wire 32 ;" WB_counters(25) [31:0] $end
    $var wire 32 <" WB_counters(26) [31:0] $end
    $var wire 32 =" WB_counters(27) [31:0] $end
    $var wire 32 >" WB_counters(28) [31:0] $end
    $var wire 32 ?" WB_counters(29) [31:0] $end
    $var wire 32 %" WB_counters(3) [31:0] $end
    $var wire 32 @" WB_counters(30) [31:0] $end
    $var wire 32 A" WB_counters(31) [31:0] $end
    $var wire 32 &" WB_counters(4) [31:0] $end
    $var wire 32 '" WB_counters(5) [31:0] $end
    $var wire 32 (" WB_counters(6) [31:0] $end
    $var wire 32 )" WB_counters(7) [31:0] $end
    $var wire 32 *" WB_counters(8) [31:0] $end
    $var wire 32 +" WB_counters(9) [31:0] $end
    $var wire  4 *! bus_canary_WB [3:0] $end
    $var wire  1 ^! clk $end
    $var wire 143 8 from_MEM_latch [142:0] $end
    $var wire  1 F" from_WB_to_AGEX [0:0] $end
    $var wire 43 A from_WB_to_DE [42:0] $end
    $var wire  1 C" from_WB_to_FE [0:0] $end
    $var wire  1 G" from_WB_to_MEM [0:0] $end
    $var wire 32 '! inst_WB [31:0] $end
    $var wire 32 )! inst_count_WB [31:0] $end
    $var wire 32 `! last_WB_value(0) [31:0] $end
    $var wire 32 a! last_WB_value(1) [31:0] $end
    $var wire 32 j! last_WB_value(10) [31:0] $end
    $var wire 32 k! last_WB_value(11) [31:0] $end
    $var wire 32 l! last_WB_value(12) [31:0] $end
    $var wire 32 m! last_WB_value(13) [31:0] $end
    $var wire 32 n! last_WB_value(14) [31:0] $end
    $var wire 32 o! last_WB_value(15) [31:0] $end
    $var wire 32 p! last_WB_value(16) [31:0] $end
    $var wire 32 q! last_WB_value(17) [31:0] $end
    $var wire 32 r! last_WB_value(18) [31:0] $end
    $var wire 32 s! last_WB_value(19) [31:0] $end
    $var wire 32 b! last_WB_value(2) [31:0] $end
    $var wire 32 t! last_WB_value(20) [31:0] $end
    $var wire 32 u! last_WB_value(21) [31:0] $end
    $var wire 32 v! last_WB_value(22) [31:0] $end
    $var wire 32 w! last_WB_value(23) [31:0] $end
    $var wire 32 x! last_WB_value(24) [31:0] $end
    $var wire 32 y! last_WB_value(25) [31:0] $end
    $var wire 32 z! last_WB_value(26) [31:0] $end
    $var wire 32 {! last_WB_value(27) [31:0] $end
    $var wire 32 |! last_WB_value(28) [31:0] $end
    $var wire 32 }! last_WB_value(29) [31:0] $end
    $var wire 32 c! last_WB_value(3) [31:0] $end
    $var wire 32 ~! last_WB_value(30) [31:0] $end
    $var wire 32 !" last_WB_value(31) [31:0] $end
    $var wire 32 d! last_WB_value(4) [31:0] $end
    $var wire 32 e! last_WB_value(5) [31:0] $end
    $var wire 32 f! last_WB_value(6) [31:0] $end
    $var wire 32 g! last_WB_value(7) [31:0] $end
    $var wire 32 h! last_WB_value(8) [31:0] $end
    $var wire 32 i! last_WB_value(9) [31:0] $end
    $var wire  6 &! op_I_WB [5:0] $end
    $var wire  5 ,! reg_dest [4:0] $end
    $var wire 32 -! regval_WB [31:0] $end
    $var wire  1 _! reset $end
    $var wire 32 -! result [31:0] $end
    $var wire  4 L" wcsrno_WB [3:0] $end
    $var wire  1 M" wr_csr_WB $end
    $var wire  1 +! wr_reg_WB $end
    $var wire  5 ,! wregno_WB [4:0] $end
    $var wire  1 +! write_reg $end
   $upscope $end
  $upscope $end
 $upscope $end
$enddefinitions $end


#0
b00000000000000000000000000100000 #
b00000000000000000000000000010000 $
b00000000000000000000000000000000 %
b000000000000000000000000000000000000000000000000000000000000000000000000000000000000000000000000000000000000000000000000000000000000 &
b00000000000000000000000000000000000000000000000000000000000000000000000000000000000000000000000000000000000000000000000000000000000000000000000000000000000000000000000000000000000000000000000000000000000000000000000000000000000000000000000 +
b00000000000000000000000000000000000000000000000000000000000000000000000000000000000000000000000000000000000000000000000000000000000000000000000 3
b00000000000000000000000000000000000000000000000000000000000000000000000000000000000000000000000000000000000000000000000000000000000000000000000 8
0=
b000000000000000000000000000000000 >
0@
b0000000000000000000000000000000000000000000 A
b00000000000000000000000000000000 C
b00000000000000000000000100000000 D
b00000000000000000000000000000100 E
b000000000000000000000001000000000000000000000000000000000000000000000000000000000000000000000100000000000000000000000000000000001111 F
b00000000000000000000000000000000 K
b00000000000000000000000000000000 L
0M
b00000000000000000000000000000000 N
b00000000000000000000000000000000 O
b00000000000000000000000000000000 P
b00000000000000000000000000000000 Q
b00000000000000000000000000000000000000000000000000000000000000000000000000000000000000000000000010010100000000000000000000000000000000000000000000000000000000000000000000000000000000000000000000000000000000000000000000000000000000000000000 R
b0000 Z
b000 [
b0000000 \
b0000000 ]
b100101 ^
b0000 _
b000 `
b00000000000000000000000000000000 a
0b
b00000 c
b00000000000000000000000000000000 d
b0000 e
0f
b00000 g
b00000000000000000000000000000000 h
b00000000000000000000000000000000 i
b00000000000000000000000000000000000000000000000000000000000000000000000000000000000000000000000000000000000000000000000000000000000000000000000 j
b00000000000000000000000000000000 o
b00000000000000000000000000000000 p
b00000000000000000000000000000000 q
b00000000000000000000000000000000 r
b000000 s
b00000000000000000000000000000000 t
b00000000000000000000000000000000 u
b00000000000000000000000000000000 v
b00000 w
0x
b0000 y
b00000000000000000000000000000000 z
b00000000000000000000000000000000 {
b000000 |
b00000000000000000000000000000000 }
b00000000000000000000000000000000 ~
b00000000000000000000000000000000 !!
b0000 "!
b00000000000000000000000100000000 #!
b00000 $!
b00000000000000000000000000000000 %!
b000000 &!
b00000000000000000000000000000000 '!
b00000000000000000000000000000000 (!
b00000000000000000000000000000000 )!
b0000 *!
0+!
b00000 ,!
b00000000000000000000000000000000 -!
b00000000000000000000000000000000 .!
b00000000000000000000000000000000 /!
b00000000000000000000000000000000 0!
b00000000000000000000000000000000 1!
b00000000000000000000000000000000 2!
b00000000000000000000000000000000 3!
b00000000000000000000000000000000 4!
b00000000000000000000000000000000 5!
b00000000000000000000000000000000 6!
b00000000000000000000000000000000 7!
b00000000000000000000000000000000 8!
b00000000000000000000000000000000 9!
b00000000000000000000000000000000 :!
b00000000000000000000000000000000 ;!
b00000000000000000000000000000000 <!
b00000000000000000000000000000000 =!
b00000000000000000000000000000000 >!
b00000000000000000000000000000000 ?!
b00000000000000000000000000000000 @!
b00000000000000000000000000000000 A!
b00000000000000000000000000000000 B!
b00000000000000000000000000000000 C!
b00000000000000000000000000000000 D!
b00000000000000000000000000000000 E!
b00000000000000000000000000000000 F!
b00000000000000000000000000000000 G!
b00000000000000000000000000000000 H!
b00000000000000000000000000000000 I!
b00000000000000000000000000000000 J!
b00000000000000000000000000000000 K!
b00000000000000000000000000000000 L!
b00000000000000000000000000000000 M!
b00000000000000000000000000000000 N!
b00000000000000000000000000000000 O!
b00000000000000000000000000000000 P!
b00000000000000000000000000000000 Q!
b00000000000000000000000000000000 R!
b00000000000000000000000000000000 S!
b00000000000000000000000000000000 T!
b00000000000000000000000000000000 U!
b00000000000000000000000000000000 V!
b00000000000000000000000000000000 W!
b00000000000000000000000000000000 X!
b00000000000000000000000000000000 Y!
b00000000000000000000000000000000 Z!
b00000000000000000000000000000000 [!
b00000000000000000000000000000000 \!
b00000000000000000000000000000000 ]!
0^!
0_!
b00000000000000000000000000000000 `!
b00000000000000000000000000000000 a!
b00000000000000000000000000000000 b!
b00000000000000000000000000000000 c!
b00000000000000000000000000000000 d!
b00000000000000000000000000000000 e!
b00000000000000000000000000000000 f!
b00000000000000000000000000000000 g!
b00000000000000000000000000000000 h!
b00000000000000000000000000000000 i!
b00000000000000000000000000000000 j!
b00000000000000000000000000000000 k!
b00000000000000000000000000000000 l!
b00000000000000000000000000000000 m!
b00000000000000000000000000000000 n!
b00000000000000000000000000000000 o!
b00000000000000000000000000000000 p!
b00000000000000000000000000000000 q!
b00000000000000000000000000000000 r!
b00000000000000000000000000000000 s!
b00000000000000000000000000000000 t!
b00000000000000000000000000000000 u!
b00000000000000000000000000000000 v!
b00000000000000000000000000000000 w!
b00000000000000000000000000000000 x!
b00000000000000000000000000000000 y!
b00000000000000000000000000000000 z!
b00000000000000000000000000000000 {!
b00000000000000000000000000000000 |!
b00000000000000000000000000000000 }!
b00000000000000000000000000000000 ~!
b00000000000000000000000000000000 !"
b00000000000000000000000000000000 ""
b00000000000000000000000000000000 #"
b00000000000000000000000000000000 $"
b00000000000000000000000000000000 %"
b00000000000000000000000000000000 &"
b00000000000000000000000000000000 '"
b00000000000000000000000000000000 ("
b00000000000000000000000000000000 )"
b00000000000000000000000000000000 *"
b00000000000000000000000000000000 +"
b00000000000000000000000000000000 ,"
b00000000000000000000000000000000 -"
b00000000000000000000000000000000 ."
b00000000000000000000000000000000 /"
b00000000000000000000000000000000 0"
b00000000000000000000000000000000 1"
b00000000000000000000000000000000 2"
b00000000000000000000000000000000 3"
b00000000000000000000000000000000 4"
b00000000000000000000000000000000 5"
b00000000000000000000000000000000 6"
b00000000000000000000000000000000 7"
b00000000000000000000000000000000 8"
b00000000000000000000000000000000 9"
b00000000000000000000000000000000 :"
b00000000000000000000000000000000 ;"
b00000000000000000000000000000000 <"
b00000000000000000000000000000000 ="
b00000000000000000000000000000000 >"
b00000000000000000000000000000000 ?"
b00000000000000000000000000000000 @"
b00000000000000000000000000000000 A"
0B"
0C"
0D"
0E"
0F"
0G"
b00000000000000000000000000000000 H"
b00000000000000000000000000000000 I"
b00000000000000000000000000000000 J"
0K"
b0000 L"
0M"
#1
b00000000000000000000000000000001 %
b000000000000000000000001000000000000000000000000000000000000000000000000000000000000000000000100000000000000000000000000000000001111 &
b00000000000000000000000000000000000000000000000000000000000000000000000000000000000000000000000010010100000000000000000000000000000000000000000000000000000000000000000000000000000000000000000000000000000000000000000000000000000000000000000 +
b00000000000000000000000000000100 C
b00000000000000000000000100010011 D
b00000000000000000000000000001000 E
b000000000000000000000001000100110000000000000000000000000000010000000000000000000000000000001000000000000000000000000000000000011111 F
b00000000000000000000000000000001 K
b00000000000000000000000100000000 N
b00000000000000000000000000000100 P
b00000000000000000000000100000000000000000000000000000000000000000000000000000000000000000000010010010100000000000000000000000000000000000000000000000000000000000000000000000000000000000000000000000000010000000000000000000000000000000001111 R
b1111 Z
b00010 g
b00000000000000000000000000000000000000000000000000000000000000001001010000000000000000000000000000000000000000000000000000000000000000000000000 j
b100101 s
1^!
#2
0^!
1_!
#3
b00000000000000000000000000000000 %
b000000000000000000000000000000000000000000000000000000000000000000000000000000000000000000000000000000000000000000000000000000000000 &
b00000000000000000000000000000000000000000000000000000000000000000000000000000000000000000000000000000000000000000000000000000000000000000000000000000000000000000000000000000000000000000000000000000000000000000000000000000000000000000000000 +
b00000000000000000000001000000000 C
b00000000000100000000001100010011 D
b00000000000000000000001000000100 E
b000000000001000000000011000100110000000000000000000000100000000000000000000000000000001000000100000000000000000000000000000000011111 F
b00000000000000000000000000000000 N
b00000000000000000000000000000000 P
b00000000000000000000000000000000000000000000000000000000000000000000000000000000000000000000000010010100000000000000000000000000000000000000000000000000000000000000000000000000000000000000000000000000000000000000000000000000000000000000000 R
b0000 Z
b00000 g
b00000000000000000000000000000000000000000000000000000000000000000000000000000000000000000000000000000000000000000000000000000000000000000000000 j
b000000 s
1^!
#4
0^!
#5
1^!
#6
0^!
#7
1^!
#8
0^!
#9
1^!
#10
#11
0^!
#12
1^!
#13
0^!
#14
1^!
#15
0^!
#16
1^!
#17
0^!
#18
1^!
#19
0^!
#20
#21
1^!
#22
0^!
#23
1^!
#24
0^!
#25
1^!
#26
0^!
#27
1^!
#28
0^!
#29
1^!
#30
#31
0^!
#32
1^!
#33
0^!
#34
1^!
#35
0^!
#36
1^!
#37
0^!
#38
1^!
#39
0^!
#40
#41
1^!
#42
0^!
#43
1^!
#44
0^!
#45
1^!
#46
0^!
#47
1^!
#48
0^!
#49
1^!
#50
#51
0^!
#52
1^!
#53
0^!
#54
1^!
#55
0^!
#56
1^!
#57
0^!
#58
1^!
#59
0^!
#60
#61
1^!
#62
0^!
#63
1^!
#64
0^!
#65
1^!
#66
0^!
#67
1^!
#68
0^!
#69
1^!
#70
#71
0^!
#72
1^!
#73
0^!
#74
1^!
#75
0^!
#76
1^!
#77
0^!
#78
1^!
#79
0^!
#80
#81
1^!
#82
0^!
#83
1^!
#84
0^!
#85
1^!
#86
0^!
#87
1^!
#88
0^!
#89
1^!
#90
#91
0^!
#92
1^!
#93
0^!
#94
1^!
#95
0^!
#96
1^!
#97
0^!
#98
1^!
#99
0^!
#100
0_!
#101
b00000000000000000000000000000001 %
b000000000001000000000011000100110000000000000000000000100000000000000000000000000000001000000100000000000000000000000000000000011111 &
b00000000000000000000000000000000000000000000000000000000000000000000000000000000000000000000000010010100000000000000000000000000000000000000000000000000000000000000000000000000000000000000000000000000000000000000000000000000000000000000000 +
b00000000000000000000001000000100 C
b00000000000100000000001110010011 D
b00000000000000000000001000001000 E
b000000000001000000000011100100110000000000000000000000100000010000000000000000000000001000001000000000000000000000000000000000101111 F
b00000000000000000000000000000010 K
b00000000000100000000001100010011 N
b00000000000000000000001000000000 O
b00000000000000000000001000000100 P
b00000000000000000000000000000001 Q
b00000000000100000000001100010011000000000000000000000010000000000000000000000000000000100000010000110000000000000000000000000000000001000000000000000000000000000000000000000000000000000000000000000000110000000000000000000000000000000011111 R
b1111 Z
b0010011 ]
b001100 ^
b0010 _
b001 `
b00000000000000000000000000000001 a
b00110 g
b00000000000000000000000000000000000000000000000000000000000000001001010000000000000000000000000000000000000000000000000000000000000000000000000 j
b100101 s
1^!
#102
0^!
#103
b00000000000000000000000000000010 %
b000000000001000000000011100100110000000000000000000000100000010000000000000000000000001000001000000000000000000000000000000000101111 &
b00000000000100000000001100010011000000000000000000000010000000000000000000000000000000100000010000110000000000000000000000000000000001000000000000000000000000000000000000000000000000000000000000000000110000000000000000000000000000000011111 +
b00000000000000000000000000000000000000000000000000000000000000001001010000000000000000000000000000000000000000000000000000000000000000000000000 3
b00000000000000000000001000001000 C
b00000000011100110000010001100011 D
b00000000000000000000001000001100 E
b000000000111001100000100011000110000000000000000000000100000100000000000000000000000001000001100000000000000000000000000000000111111 F
b00000000000000000000000000000011 K
b00000000000100000000001110010011 N
b00000000000000000000001000000100 O
b00000000000000000000001000001000 P
b00000000000000000000000000000010 Q
b00000000000100000000001110010011000000000000000000000010000001000000000000000000000000100000100000110000000000000000000000000000000010000000000000000000000000000000000000000000000000000000000000000000111000000000000000000000000000000011111 R
b00111 g
b00000000000100000000001100010011000000000000000000000010000000000011000000000000000000000000000000000100110000000000000000000000000000000011111 j
b00000000000100000000001100010011 o
b00000000000000000000001000000000 p
b00000000000000000000000000000001 q
b00000000000000000000001000000100 r
b001100 s
b00000000000000000000000000000001 v
b00110 w
b1111 y
b00000000000000000000000000000001 z
b100101 |
1^!
#104
0^!
#105
b00000000000000000000000000000011 %
b000000000111001100000100011000110000000000000000000000100000100000000000000000000000001000001100000000000000000000000000000000111111 &
b00000000000100000000001110010011000000000000000000000010000001000000000000000000000000100000100000110000000000000000000000000000000010000000000000000000000000000000000000000000000000000000000000000000111000000000000000000000000000000011111 +
b00000000000100000000001100010011000000000000000000000010000000000011000000000000000000000000000000000100110000000000000000000000000000000011111 3
b00000000000000000000000000000000000000000000000000000000000000001001010000000000000000000000000000000000000000000000000000000000000000000000000 8
1=
b00000000000000000000001000001100 C
b00000000001100000000000110010011 D
b00000000000000000000001000010000 E
b000000000011000000000001100100110000000000000000000000100000110000000000000000000000001000010000000000000000000000000000000001001111 F
b00000000000000000000000000000100 K
b00000000011100110000010001100011 N
b00000000000000000000001000001000 O
b00000000000000000000001000001100 P
b00000000000000000000000000000011 Q
b00000000011100110000010001100011000000000000000000000010000010000000000000000000000000100000110001110000000000000000000000000000000011000000000000000000000000000000000000000000000000000000000000000001000000000000000000000000000000010001111 R
b1100011 ]
b011100 ^
b0011 _
b101 `
b00000000000000000000000000001000 a
b01000 g
b00000000000100000000001110010011000000000000000000000010000001000011000000000000000000000000000000001000111000000000000000000000000000000011111 j
b00000000000100000000001110010011 o
b00000000000000000000001000000100 p
b00000000000000000000000000000010 q
b00000000000000000000001000001000 r
b00111 w
b001100 |
b00000000000000000000000000000001 }
b00000000000100000000001100010011 ~
b00000000000000000000001000000000 !!
b1111 "!
b00110 $!
b00000000000000000000000000000001 %!
b100101 &!
1^!
#106
0^!
#107
b00000000000000000000000000000100 %
b00000000011100110000010001100011000000000000000000000010000010000000000000000000000000100000110001110000000000000000000000000000000011000000000000000000000000000000000000000000000000000000000000000001000000000000000000000000000000010001111 +
b00000000000100000000001110010011000000000000000000000010000001000011000000000000000000000000000000001000111000000000000000000000000000000011111 3
b00000000000100000000001100010011000000000000000000000010000000000011000000000000000000000000000000000100110000000000000000000000000000000011111 8
b100000000000000000000001000010000 >
1@
b1001100000000000000000000000000000000100000 A
b00000000000100000000000110010011 D
b00000000000000000000001000010100 E
b000000000001000000000001100100110000000000000000000000100001000000000000000000000000001000010100000000000000000000000000000001001111 F
b00000000000000000000001000010000 L
1M
1b
b00110 c
b00000000000000000000000000000001 d
b00000000011100110000010001100011000000000000000000000010000010000111000000000000000000000000000000001101000000000000000000000000000000000011111 j
b00000000011100110000010001100011 o
b00000000000000000000001000001000 p
b00000000000000000000000000000011 q
b00000000000000000000001000001100 r
b011100 s
b00000000000000000000000000001000 v
b01000 w
1x
b00000000000000000000001000010000 {
b00000000000000000000000000000010 }
b00000000000100000000001110010011 ~
b00000000000000000000001000000100 !!
b00111 $!
b001100 &!
b00000000000100000000001100010011 '!
b00000000000000000000001000000000 (!
b00000000000000000000000000000001 )!
b1111 *!
1+!
b00110 ,!
b00000000000000000000000000000001 -!
1^!
b00000000000000000000000000100101 ("
#108
b00000000000000000000000000000001 4!
0^!
b00000000000000000000000000000001 f!
#109
b00000000000000000000000000000101 %
b000000000001000000000001100100110000000000000000000000100001000000000000000000000000001000010100000000000000000000000000000001001111 &
b00000000000000000000000000000000000000000000000000000000000000000000000000000000000000000000000000000000000000000000000000000000000000000000000000000000000000000000000000000000000000000000000000000000000000000000000000000000000000000000000 +
b00000000011100110000010001100011000000000000000000000010000010000111000000000000000000000000000000001101000000000000000000000000000000000011111 3
b00000000000100000000001110010011000000000000000000000010000001000011000000000000000000000000000000001000111000000000000000000000000000000011111 8
0=
b000000000000000000000001000010000 >
0@
b1001110000000000000000000000000000000100000 A
b00000000000000000000001000010100 C
b00000000010000000000001100010011 D
b00000000000000000000001000011000 E
b000000000100000000000011000100110000000000000000000000100001010000000000000000000000001000011000000000000000000000000000000001011111 F
b00000000000000000000000000000101 K
0M
b00000000000100000000000110010011 N
b00000000000000000000001000010000 O
b00000000000000000000001000010100 P
b00000000000000000000000000000100 Q
b00000000000100000000000110010011000000000000000000000010000100000000000000000000000000100001010000110000000000000000000000000000000100000000000000000000000000000000010000000000000000000000000000000000011000000000000000000000000000000011111 R
b0010011 ]
b001100 ^
b0010 _
b001 `
b00000000000000000000000000000001 a
b00111 c
b00011 g
b00000000000000000000000000000001 h
b00000000000000000000000000000000000000000000000000000000000000000000000000000000000000000000000000000000000000000000000000000000000000000010000 j
b00000000000000000000000000000000 o
b00000000000000000000000000000000 p
b00000000000000000000000000000000 q
b00000000000000000000000000000000 r
b000000 s
b00000000000000000000000000000000 v
b00000 w
0x
b0000 y
b011100 |
b00000000000000000000000000000011 }
b00000000011100110000010001100011 ~
b00000000000000000000001000001000 !!
b01000 $!
b00000000000100000000001110010011 '!
b00000000000000000000001000000100 (!
b00000000000000000000000000000010 )!
b00111 ,!
1^!
b00000000000000000000001000000000 #"
b00000000000100000000001100010011 $"
b00000000000000000000000000000001 %"
b00000000000000000000000000000001 &"
b00000000000000000000000000000001 '"
b00000000000000000000000000001100 ("
b00000000000000000000000000000110 )"
#110
#111
b00000000000000000000000000000001 5!
0^!
b00000000000000000000000000000001 g!
