trace.vcd
$version Generated by VerilatedVcd $end
$date Tue Sep 20 18:37:21 2022
 $end
$timescale   1ps $end

 $scope module TOP $end
  $var wire  1 Z! clk $end
  $var wire  1 [! reset $end
  $scope module pipeline $end
   $var wire 143 3 AGEX_latch_out [142:0] $end
   $var wire 239 + DE_latch_out [238:0] $end
   $var wire 132 & FE_latch_out [131:0] $end
   $var wire 143 8 MEM_latch_out [142:0] $end
   $var wire  1 Z! clk $end
   $var wire 32 % cycle_count [31:0] $end
   $var wire  1 A" from_AGEX_to_DE [0:0] $end
   $var wire  1 >" from_AGEX_to_FE [0:0] $end
   $var wire  1 = from_DE_to_FE [0:0] $end
   $var wire  1 C" from_MEM_to_AGEX [0:0] $end
   $var wire  1 B" from_MEM_to_DE [0:0] $end
   $var wire  1 ?" from_MEM_to_FE [0:0] $end
   $var wire  1 D" from_WB_to_AGEX [0:0] $end
   $var wire 43 > from_WB_to_DE [42:0] $end
   $var wire  1 @" from_WB_to_FE [0:0] $end
   $var wire  1 E" from_WB_to_MEM [0:0] $end
   $var wire  1 [! reset $end
   $scope module my_AGEX_stage $end
    $var wire 143 3 AGEX_latch [142:0] $end
    $var wire 143 e AGEX_latch_contents [142:0] $end
    $var wire 143 3 AGEX_latch_out [142:0] $end
    $var wire 32 k PC_AGEX [31:0] $end
    $var wire  1 s br_cond_AGEX $end
    $var wire 33 v br_target [32:0] $end
    $var wire  4 t bus_canary_AGEX [3:0] $end
    $var wire  1 Z! clk $end
    $var wire  1 A" from_AGEX_to_DE [0:0] $end
    $var wire  1 >" from_AGEX_to_FE [0:0] $end
    $var wire 239 + from_DE_latch [238:0] $end
    $var wire  1 C" from_MEM_to_AGEX [0:0] $end
    $var wire  1 D" from_WB_to_AGEX [0:0] $end
    $var wire 32 q imm_val [31:0] $end
    $var wire 32 j inst_AGEX [31:0] $end
    $var wire 32 l inst_count_AGEX [31:0] $end
    $var wire  6 n op_I_AGEX [5:0] $end
    $var wire 32 m pcplus_AGEX [31:0] $end
    $var wire 32 o reg_1_val [31:0] $end
    $var wire 32 p reg_2_val [31:0] $end
    $var wire  5 r reg_dest [4:0] $end
    $var wire  1 [! reset $end
    $var wire 32 u result [31:0] $end
   $upscope $end
   $scope module my_DE_stage $end
    $var wire 239 + DE_latch [238:0] $end
    $var wire 239 M DE_latch_contents [238:0] $end
    $var wire 239 + DE_latch_out [238:0] $end
    $var wire  3 V F3_DE [2:0] $end
    $var wire  7 W F7_DE [6:0] $end
    $var wire 32 J PC_DE [31:0] $end
    $var wire  4 U bus_canary_DE [3:0] $end
    $var wire  1 Z! clk $end
    $var wire 32 J! csr_regs(0) [31:0] $end
    $var wire 32 K! csr_regs(1) [31:0] $end
    $var wire 32 T! csr_regs(10) [31:0] $end
    $var wire 32 U! csr_regs(11) [31:0] $end
    $var wire 32 V! csr_regs(12) [31:0] $end
    $var wire 32 W! csr_regs(13) [31:0] $end
    $var wire 32 X! csr_regs(14) [31:0] $end
    $var wire 32 Y! csr_regs(15) [31:0] $end
    $var wire 32 L! csr_regs(2) [31:0] $end
    $var wire 32 M! csr_regs(3) [31:0] $end
    $var wire 32 N! csr_regs(4) [31:0] $end
    $var wire 32 O! csr_regs(5) [31:0] $end
    $var wire 32 P! csr_regs(6) [31:0] $end
    $var wire 32 Q! csr_regs(7) [31:0] $end
    $var wire 32 R! csr_regs(8) [31:0] $end
    $var wire 32 S! csr_regs(9) [31:0] $end
    $var wire  1 A" from_AGEX_to_DE [0:0] $end
    $var wire  1 = from_DE_to_FE [0:0] $end
    $var wire 132 & from_FE_latch [131:0] $end
    $var wire  1 B" from_MEM_to_DE [0:0] $end
    $var wire 43 > from_WB_to_DE [42:0] $end
    $var wire 32 I inst_DE [31:0] $end
    $var wire 32 L inst_count_DE [31:0] $end
    $var wire  7 X op_DE [6:0] $end
    $var wire  6 Y op_I_DE [5:0] $end
    $var wire 32 K pcplus_DE [31:0] $end
    $var wire  1 G" pipeline_stall_DE $end
    $var wire 32 c reg_1_val [31:0] $end
    $var wire 32 d reg_2_val [31:0] $end
    $var wire  5 b reg_dest [4:0] $end
    $var wire 32 *! regs(0) [31:0] $end
    $var wire 32 +! regs(1) [31:0] $end
    $var wire 32 4! regs(10) [31:0] $end
    $var wire 32 5! regs(11) [31:0] $end
    $var wire 32 6! regs(12) [31:0] $end
    $var wire 32 7! regs(13) [31:0] $end
    $var wire 32 8! regs(14) [31:0] $end
    $var wire 32 9! regs(15) [31:0] $end
    $var wire 32 :! regs(16) [31:0] $end
    $var wire 32 ;! regs(17) [31:0] $end
    $var wire 32 <! regs(18) [31:0] $end
    $var wire 32 =! regs(19) [31:0] $end
    $var wire 32 ,! regs(2) [31:0] $end
    $var wire 32 >! regs(20) [31:0] $end
    $var wire 32 ?! regs(21) [31:0] $end
    $var wire 32 @! regs(22) [31:0] $end
    $var wire 32 A! regs(23) [31:0] $end
    $var wire 32 B! regs(24) [31:0] $end
    $var wire 32 C! regs(25) [31:0] $end
    $var wire 32 D! regs(26) [31:0] $end
    $var wire 32 E! regs(27) [31:0] $end
    $var wire 32 F! regs(28) [31:0] $end
    $var wire 32 G! regs(29) [31:0] $end
    $var wire 32 -! regs(3) [31:0] $end
    $var wire 32 H! regs(30) [31:0] $end
    $var wire 32 I! regs(31) [31:0] $end
    $var wire 32 .! regs(4) [31:0] $end
    $var wire 32 /! regs(5) [31:0] $end
    $var wire 32 0! regs(6) [31:0] $end
    $var wire 32 1! regs(7) [31:0] $end
    $var wire 32 2! regs(8) [31:0] $end
    $var wire 32 3! regs(9) [31:0] $end
    $var wire 32 _ regval_WB [31:0] $end
    $var wire  1 [! reset $end
    $var wire 32 \ sxt_imm_DE [31:0] $end
    $var wire  4 Z type_I_DE [3:0] $end
    $var wire  3 [ type_immediate_DE [2:0] $end
    $var wire  4 ` wcsrno_WB [3:0] $end
    $var wire  1 a wr_csr_WB $end
    $var wire  1 ] wr_reg_WB $end
    $var wire  5 ^ wregno_WB [4:0] $end
    $scope module unnamedblk1 $end
     $var wire 32 # i [31:0] $end
    $upscope $end
    $scope module unnamedblk2 $end
     $var wire 32 $ i [31:0] $end
    $upscope $end
   $upscope $end
   $scope module my_FE_stage $end
    $var wire 132 & FE_latch [131:0] $end
    $var wire 132 C FE_latch_contents [131:0] $end
    $var wire 132 & FE_latch_out [131:0] $end
    $var wire 32 @ PC_FE_latch [31:0] $end
    $var wire  1 Z! clk $end
    $var wire  1 >" from_AGEX_to_FE [0:0] $end
    $var wire  1 = from_DE_to_FE [0:0] $end
    $var wire  1 ?" from_MEM_to_FE [0:0] $end
    $var wire  1 @" from_WB_to_FE [0:0] $end
    $var wire 32 A inst_FE [31:0] $end
    $var wire 32 F" inst_count_AGEX [31:0] $end
    $var wire 32 H inst_count_FE [31:0] $end
    $var wire 32 B pcplus_FE [31:0] $end
    $var wire  1 [! reset $end
    $var wire  1 = stall_pipe_FE $end
   $upscope $end
   $scope module my_MEM_stage $end
    $var wire 143 8 MEM_latch [142:0] $end
    $var wire 143 3 MEM_latch_contents [142:0] $end
    $var wire 143 8 MEM_latch_out [142:0] $end
    $var wire 32 { PC_MEM [31:0] $end
    $var wire  4 | bus_canary_MEM [3:0] $end
    $var wire  1 Z! clk $end
    $var wire 143 3 from_AGEX_latch [142:0] $end
    $var wire  1 C" from_MEM_to_AGEX [0:0] $end
    $var wire  1 B" from_MEM_to_DE [0:0] $end
    $var wire  1 ?" from_MEM_to_FE [0:0] $end
    $var wire  1 E" from_WB_to_MEM [0:0] $end
    $var wire 32 z inst_MEM [31:0] $end
    $var wire 32 y inst_count_MEM [31:0] $end
    $var wire 32 H" memaddr_MEM [31:0] $end
    $var wire  6 x op_I_MEM [5:0] $end
    $var wire 32 } rd_val_MEM [31:0] $end
    $var wire  5 ~ reg_dest [4:0] $end
    $var wire  1 [! reset $end
    $var wire 32 !! result [31:0] $end
    $var wire  1 J" wr_mem_MEM $end
    $var wire 32 I" wr_val_MEM [31:0] $end
   $upscope $end
   $scope module my_WB_stage $end
    $var wire 32 $! PC_WB [31:0] $end
    $var wire 32 |! WB_counters(0) [31:0] $end
    $var wire 32 }! WB_counters(1) [31:0] $end
    $var wire 32 (" WB_counters(10) [31:0] $end
    $var wire 32 )" WB_counters(11) [31:0] $end
    $var wire 32 *" WB_counters(12) [31:0] $end
    $var wire 32 +" WB_counters(13) [31:0] $end
    $var wire 32 ," WB_counters(14) [31:0] $end
    $var wire 32 -" WB_counters(15) [31:0] $end
    $var wire 32 ." WB_counters(16) [31:0] $end
    $var wire 32 /" WB_counters(17) [31:0] $end
    $var wire 32 0" WB_counters(18) [31:0] $end
    $var wire 32 1" WB_counters(19) [31:0] $end
    $var wire 32 ~! WB_counters(2) [31:0] $end
    $var wire 32 2" WB_counters(20) [31:0] $end
    $var wire 32 3" WB_counters(21) [31:0] $end
    $var wire 32 4" WB_counters(22) [31:0] $end
    $var wire 32 5" WB_counters(23) [31:0] $end
    $var wire 32 6" WB_counters(24) [31:0] $end
    $var wire 32 7" WB_counters(25) [31:0] $end
    $var wire 32 8" WB_counters(26) [31:0] $end
    $var wire 32 9" WB_counters(27) [31:0] $end
    $var wire 32 :" WB_counters(28) [31:0] $end
    $var wire 32 ;" WB_counters(29) [31:0] $end
    $var wire 32 !" WB_counters(3) [31:0] $end
    $var wire 32 <" WB_counters(30) [31:0] $end
    $var wire 32 =" WB_counters(31) [31:0] $end
    $var wire 32 "" WB_counters(4) [31:0] $end
    $var wire 32 #" WB_counters(5) [31:0] $end
    $var wire 32 $" WB_counters(6) [31:0] $end
    $var wire 32 %" WB_counters(7) [31:0] $end
    $var wire 32 &" WB_counters(8) [31:0] $end
    $var wire 32 '" WB_counters(9) [31:0] $end
    $var wire  4 &! bus_canary_WB [3:0] $end
    $var wire  1 Z! clk $end
    $var wire 143 8 from_MEM_latch [142:0] $end
    $var wire  1 D" from_WB_to_AGEX [0:0] $end
    $var wire 43 > from_WB_to_DE [42:0] $end
    $var wire  1 @" from_WB_to_FE [0:0] $end
    $var wire  1 E" from_WB_to_MEM [0:0] $end
    $var wire 32 #! inst_WB [31:0] $end
    $var wire 32 %! inst_count_WB [31:0] $end
    $var wire 32 \! last_WB_value(0) [31:0] $end
    $var wire 32 ]! last_WB_value(1) [31:0] $end
    $var wire 32 f! last_WB_value(10) [31:0] $end
    $var wire 32 g! last_WB_value(11) [31:0] $end
    $var wire 32 h! last_WB_value(12) [31:0] $end
    $var wire 32 i! last_WB_value(13) [31:0] $end
    $var wire 32 j! last_WB_value(14) [31:0] $end
    $var wire 32 k! last_WB_value(15) [31:0] $end
    $var wire 32 l! last_WB_value(16) [31:0] $end
    $var wire 32 m! last_WB_value(17) [31:0] $end
    $var wire 32 n! last_WB_value(18) [31:0] $end
    $var wire 32 o! last_WB_value(19) [31:0] $end
    $var wire 32 ^! last_WB_value(2) [31:0] $end
    $var wire 32 p! last_WB_value(20) [31:0] $end
    $var wire 32 q! last_WB_value(21) [31:0] $end
    $var wire 32 r! last_WB_value(22) [31:0] $end
    $var wire 32 s! last_WB_value(23) [31:0] $end
    $var wire 32 t! last_WB_value(24) [31:0] $end
    $var wire 32 u! last_WB_value(25) [31:0] $end
    $var wire 32 v! last_WB_value(26) [31:0] $end
    $var wire 32 w! last_WB_value(27) [31:0] $end
    $var wire 32 x! last_WB_value(28) [31:0] $end
    $var wire 32 y! last_WB_value(29) [31:0] $end
    $var wire 32 _! last_WB_value(3) [31:0] $end
    $var wire 32 z! last_WB_value(30) [31:0] $end
    $var wire 32 {! last_WB_value(31) [31:0] $end
    $var wire 32 `! last_WB_value(4) [31:0] $end
    $var wire 32 a! last_WB_value(5) [31:0] $end
    $var wire 32 b! last_WB_value(6) [31:0] $end
    $var wire 32 c! last_WB_value(7) [31:0] $end
    $var wire 32 d! last_WB_value(8) [31:0] $end
    $var wire 32 e! last_WB_value(9) [31:0] $end
    $var wire  6 "! op_I_WB [5:0] $end
    $var wire  5 (! reg_dest [4:0] $end
    $var wire 32 )! regval_WB [31:0] $end
    $var wire  1 [! reset $end
    $var wire 32 )! result [31:0] $end
    $var wire  4 K" wcsrno_WB [3:0] $end
    $var wire  1 L" wr_csr_WB $end
    $var wire  1 '! wr_reg_WB $end
    $var wire  5 (! wregno_WB [4:0] $end
    $var wire  1 '! write_reg $end
   $upscope $end
  $upscope $end
 $upscope $end
$enddefinitions $end


#0
b00000000000000000000000000100000 #
b00000000000000000000000000010000 $
b00000000000000000000000000000000 %
b000000000000000000000000000000000000000000000000000000000000000000000000000000000000000000000000000000000000000000000000000000000000 &
b00000000000000000000000000000000000000000000000000000000000000000000000000000000000000000000000000000000000000000000000000000000000000000000000000000000000000000000000000000000000000000000000000000000000000000000000000000000000000000000000 +
b00000000000000000000000000000000000000000000000000000000000000000000000000000000000000000000000000000000000000000000000000000000000000000000000 3
b00000000000000000000000000000000000000000000000000000000000000000000000000000000000000000000000000000000000000000000000000000000000000000000000 8
0=
b0000000000000000000000000000000000000000000 >
b00000000000000000000000000000000 @
b00000000000000000000000100000000 A
b00000000000000000000000000000100 B
b000000000000000000000001000000000000000000000000000000000000000000000000000000000000000000000100000000000000000000000000000000001111 C
b00000000000000000000000000000000 H
b00000000000000000000000000000000 I
b00000000000000000000000000000000 J
b00000000000000000000000000000000 K
b00000000000000000000000000000000 L
b00000000000000000000000000000000000000000000000000000000000000000000000000000000000000000000000010010100000000000000000000000000000000000000000000000000000000000000000000000000000000000000000000000000000000000000000000000000000000000000000 M
b0000 U
b000 V
b0000000 W
b0000000 X
b100101 Y
b0000 Z
b000 [
b00000000000000000000000000000000 \
0]
b00000 ^
b00000000000000000000000000000000 _
b0000 `
0a
b00000 b
b00000000000000000000000000000000 c
b00000000000000000000000000000000 d
b00000000000000000000000000000000000000000000000000000000000000000000000000000000000000000000000000000000000000000000000000000000000000000000000 e
b00000000000000000000000000000000 j
b00000000000000000000000000000000 k
b00000000000000000000000000000000 l
b00000000000000000000000000000000 m
b000000 n
b00000000000000000000000000000000 o
b00000000000000000000000000000000 p
b00000000000000000000000000000000 q
b00000 r
0s
b0000 t
b00000000000000000000000000000000 u
b000000000000000000000000000000000 v
b000000 x
b00000000000000000000000000000000 y
b00000000000000000000000000000000 z
b00000000000000000000000000000000 {
b0000 |
b00000000000000000000000100000000 }
b00000 ~
b00000000000000000000000000000000 !!
b000000 "!
b00000000000000000000000000000000 #!
b00000000000000000000000000000000 $!
b00000000000000000000000000000000 %!
b0000 &!
0'!
b00000 (!
b00000000000000000000000000000000 )!
b00000000000000000000000000000000 *!
b00000000000000000000000000000000 +!
b00000000000000000000000000000000 ,!
b00000000000000000000000000000000 -!
b00000000000000000000000000000000 .!
b00000000000000000000000000000000 /!
b00000000000000000000000000000000 0!
b00000000000000000000000000000000 1!
b00000000000000000000000000000000 2!
b00000000000000000000000000000000 3!
b00000000000000000000000000000000 4!
b00000000000000000000000000000000 5!
b00000000000000000000000000000000 6!
b00000000000000000000000000000000 7!
b00000000000000000000000000000000 8!
b00000000000000000000000000000000 9!
b00000000000000000000000000000000 :!
b00000000000000000000000000000000 ;!
b00000000000000000000000000000000 <!
b00000000000000000000000000000000 =!
b00000000000000000000000000000000 >!
b00000000000000000000000000000000 ?!
b00000000000000000000000000000000 @!
b00000000000000000000000000000000 A!
b00000000000000000000000000000000 B!
b00000000000000000000000000000000 C!
b00000000000000000000000000000000 D!
b00000000000000000000000000000000 E!
b00000000000000000000000000000000 F!
b00000000000000000000000000000000 G!
b00000000000000000000000000000000 H!
b00000000000000000000000000000000 I!
b00000000000000000000000000000000 J!
b00000000000000000000000000000000 K!
b00000000000000000000000000000000 L!
b00000000000000000000000000000000 M!
b00000000000000000000000000000000 N!
b00000000000000000000000000000000 O!
b00000000000000000000000000000000 P!
b00000000000000000000000000000000 Q!
b00000000000000000000000000000000 R!
b00000000000000000000000000000000 S!
b00000000000000000000000000000000 T!
b00000000000000000000000000000000 U!
b00000000000000000000000000000000 V!
b00000000000000000000000000000000 W!
b00000000000000000000000000000000 X!
b00000000000000000000000000000000 Y!
0Z!
0[!
b00000000000000000000000000000000 \!
b00000000000000000000000000000000 ]!
b00000000000000000000000000000000 ^!
b00000000000000000000000000000000 _!
b00000000000000000000000000000000 `!
b00000000000000000000000000000000 a!
b00000000000000000000000000000000 b!
b00000000000000000000000000000000 c!
b00000000000000000000000000000000 d!
b00000000000000000000000000000000 e!
b00000000000000000000000000000000 f!
b00000000000000000000000000000000 g!
b00000000000000000000000000000000 h!
b00000000000000000000000000000000 i!
b00000000000000000000000000000000 j!
b00000000000000000000000000000000 k!
b00000000000000000000000000000000 l!
b00000000000000000000000000000000 m!
b00000000000000000000000000000000 n!
b00000000000000000000000000000000 o!
b00000000000000000000000000000000 p!
b00000000000000000000000000000000 q!
b00000000000000000000000000000000 r!
b00000000000000000000000000000000 s!
b00000000000000000000000000000000 t!
b00000000000000000000000000000000 u!
b00000000000000000000000000000000 v!
b00000000000000000000000000000000 w!
b00000000000000000000000000000000 x!
b00000000000000000000000000000000 y!
b00000000000000000000000000000000 z!
b00000000000000000000000000000000 {!
b00000000000000000000000000000000 |!
b00000000000000000000000000000000 }!
b00000000000000000000000000000000 ~!
b00000000000000000000000000000000 !"
b00000000000000000000000000000000 ""
b00000000000000000000000000000000 #"
b00000000000000000000000000000000 $"
b00000000000000000000000000000000 %"
b00000000000000000000000000000000 &"
b00000000000000000000000000000000 '"
b00000000000000000000000000000000 ("
b00000000000000000000000000000000 )"
b00000000000000000000000000000000 *"
b00000000000000000000000000000000 +"
b00000000000000000000000000000000 ,"
b00000000000000000000000000000000 -"
b00000000000000000000000000000000 ."
b00000000000000000000000000000000 /"
b00000000000000000000000000000000 0"
b00000000000000000000000000000000 1"
b00000000000000000000000000000000 2"
b00000000000000000000000000000000 3"
b00000000000000000000000000000000 4"
b00000000000000000000000000000000 5"
b00000000000000000000000000000000 6"
b00000000000000000000000000000000 7"
b00000000000000000000000000000000 8"
b00000000000000000000000000000000 9"
b00000000000000000000000000000000 :"
b00000000000000000000000000000000 ;"
b00000000000000000000000000000000 <"
b00000000000000000000000000000000 ="
0>"
0?"
0@"
0A"
0B"
0C"
0D"
0E"
b00000000000000000000000000000000 F"
0G"
b00000000000000000000000000000000 H"
b00000000000000000000000000000000 I"
0J"
b0000 K"
0L"
#1
b00000000000000000000000000000001 %
b000000000000000000000001000000000000000000000000000000000000000000000000000000000000000000000100000000000000000000000000000000001111 &
b00000000000000000000000000000000000000000000000000000000000000000000000000000000000000000000000010010100000000000000000000000000000000000000000000000000000000000000000000000000000000000000000000000000000000000000000000000000000000000000000 +
b00000000000000000000000000000100 @
b00000000000000000000000100010011 A
b00000000000000000000000000001000 B
b000000000000000000000001000100110000000000000000000000000000010000000000000000000000000000001000000000000000000000000000000000011111 C
b00000000000000000000000000000001 H
b00000000000000000000000100000000 I
b00000000000000000000000000000100 K
b00000000000000000000000100000000000000000000000000000000000000000000000000000000000000000000010010010100000000000000000000000000000000000000000000000000000000000000000000000000000000000000000000000000010000000000000000000000000000000001111 M
b1111 U
b00010 b
b00000000000000000000000000000000000000000000000000000000000000001001010000000000000000000000000000000000000000000000000000000000000000000000000 e
b100101 n
1Z!
#2
0Z!
1[!
#3
b00000000000000000000000000000000 %
b000000000000000000000000000000000000000000000000000000000000000000000000000000000000000000000000000000000000000000000000000000000000 &
b00000000000000000000000000000000000000000000000000000000000000000000000000000000000000000000000000000000000000000000000000000000000000000000000000000000000000000000000000000000000000000000000000000000000000000000000000000000000000000000000 +
b00000000000000000000001000000000 @
b00000000000100000000001100010011 A
b00000000000000000000001000000100 B
b000000000001000000000011000100110000000000000000000000100000000000000000000000000000001000000100000000000000000000000000000000011111 C
b00000000000000000000000000000000 I
b00000000000000000000000000000000 K
b00000000000000000000000000000000000000000000000000000000000000000000000000000000000000000000000010010100000000000000000000000000000000000000000000000000000000000000000000000000000000000000000000000000000000000000000000000000000000000000000 M
b0000 U
b00000 b
b00000000000000000000000000000000000000000000000000000000000000000000000000000000000000000000000000000000000000000000000000000000000000000000000 e
b000000 n
1Z!
#4
0Z!
#5
1Z!
#6
0Z!
#7
1Z!
#8
0Z!
#9
1Z!
#10
#11
0Z!
#12
1Z!
#13
0Z!
#14
1Z!
#15
0Z!
#16
1Z!
#17
0Z!
#18
1Z!
#19
0Z!
#20
#21
1Z!
#22
0Z!
#23
1Z!
#24
0Z!
#25
1Z!
#26
0Z!
#27
1Z!
#28
0Z!
#29
1Z!
#30
#31
0Z!
#32
1Z!
#33
0Z!
#34
1Z!
#35
0Z!
#36
1Z!
#37
0Z!
#38
1Z!
#39
0Z!
#40
#41
1Z!
#42
0Z!
#43
1Z!
#44
0Z!
#45
1Z!
#46
0Z!
#47
1Z!
#48
0Z!
#49
1Z!
#50
#51
0Z!
#52
1Z!
#53
0Z!
#54
1Z!
#55
0Z!
#56
1Z!
#57
0Z!
#58
1Z!
#59
0Z!
#60
#61
1Z!
#62
0Z!
#63
1Z!
#64
0Z!
#65
1Z!
#66
0Z!
#67
1Z!
#68
0Z!
#69
1Z!
#70
#71
0Z!
#72
1Z!
#73
0Z!
#74
1Z!
#75
0Z!
#76
1Z!
#77
0Z!
#78
1Z!
#79
0Z!
#80
#81
1Z!
#82
0Z!
#83
1Z!
#84
0Z!
#85
1Z!
#86
0Z!
#87
1Z!
#88
0Z!
#89
1Z!
#90
#91
0Z!
#92
1Z!
#93
0Z!
#94
1Z!
#95
0Z!
#96
1Z!
#97
0Z!
#98
1Z!
#99
0Z!
#100
0[!
#101
b00000000000000000000000000000001 %
b000000000001000000000011000100110000000000000000000000100000000000000000000000000000001000000100000000000000000000000000000000011111 &
b00000000000000000000000000000000000000000000000000000000000000000000000000000000000000000000000010010100000000000000000000000000000000000000000000000000000000000000000000000000000000000000000000000000000000000000000000000000000000000000000 +
b00000000000000000000001000000100 @
b00000000000100000000001110010011 A
b00000000000000000000001000001000 B
b000000000001000000000011100100110000000000000000000000100000010000000000000000000000001000001000000000000000000000000000000000101111 C
b00000000000000000000000000000010 H
b00000000000100000000001100010011 I
b00000000000000000000001000000000 J
b00000000000000000000001000000100 K
b00000000000000000000000000000001 L
b00000000000100000000001100010011000000000000000000000010000000000000000000000000000000100000010000110000000000000000000000000000000001000000000000000000000000000000000000000000000000000000000000000000110000000000000000000000000000000011111 M
b1111 U
b0010011 X
b001100 Y
b0010 Z
b001 [
b00000000000000000000000000000001 \
b00110 b
b00000000000000000000000000000000000000000000000000000000000000001001010000000000000000000000000000000000000000000000000000000000000000000000000 e
b100101 n
1Z!
#102
0Z!
#103
b00000000000000000000000000000010 %
b000000000001000000000011100100110000000000000000000000100000010000000000000000000000001000001000000000000000000000000000000000101111 &
b00000000000100000000001100010011000000000000000000000010000000000000000000000000000000100000010000110000000000000000000000000000000001000000000000000000000000000000000000000000000000000000000000000000110000000000000000000000000000000011111 +
b00000000000000000000000000000000000000000000000000000000000000001001010000000000000000000000000000000000000000000000000000000000000000000000000 3
b00000000000000000000001000001000 @
b00000000011100110000010001100011 A
b00000000000000000000001000001100 B
b000000000111001100000100011000110000000000000000000000100000100000000000000000000000001000001100000000000000000000000000000000111111 C
b00000000000000000000000000000011 H
b00000000000100000000001110010011 I
b00000000000000000000001000000100 J
b00000000000000000000001000001000 K
b00000000000000000000000000000010 L
b00000000000100000000001110010011000000000000000000000010000001000000000000000000000000100000100000110000000000000000000000000000000010000000000000000000000000000000000000000000000000000000000000000000111000000000000000000000000000000011111 M
b00111 b
b00000000000100000000001100010011000000000000000000000010000000000011000000000000000000000000000000000100110000000000000000000000000000000011111 e
b00000000000100000000001100010011 j
b00000000000000000000001000000000 k
b00000000000000000000000000000001 l
b00000000000000000000001000000100 m
b001100 n
b00000000000000000000000000000001 q
b00110 r
b1111 t
b00000000000000000000000000000001 u
b100101 x
1Z!
#104
0Z!
#105
b00000000000000000000000000000011 %
b000000000111001100000100011000110000000000000000000000100000100000000000000000000000001000001100000000000000000000000000000000111111 &
b00000000000100000000001110010011000000000000000000000010000001000000000000000000000000100000100000110000000000000000000000000000000010000000000000000000000000000000000000000000000000000000000000000000111000000000000000000000000000000011111 +
b00000000000100000000001100010011000000000000000000000010000000000011000000000000000000000000000000000100110000000000000000000000000000000011111 3
b00000000000000000000000000000000000000000000000000000000000000001001010000000000000000000000000000000000000000000000000000000000000000000000000 8
1=
b00000000000000000000001000001100 @
b00000000001100000000000110010011 A
b00000000000000000000001000010000 B
b000000000011000000000001100100110000000000000000000000100000110000000000000000000000001000010000000000000000000000000000000001001111 C
b00000000000000000000000000000100 H
b00000000011100110000010001100011 I
b00000000000000000000001000001000 J
b00000000000000000000001000001100 K
b00000000000000000000000000000011 L
b00000000011100110000010001100011000000000000000000000010000010000000000000000000000000100000110001110000000000000000000000000000000011000000000000000000000000000000000000000000000000000000000000000001000000000000000000000000000000010001111 M
b1100011 X
b011100 Y
b0011 Z
b101 [
b00000000000000000000000000001000 \
b01000 b
b00000000000100000000001110010011000000000000000000000010000001000011000000000000000000000000000000001000111000000000000000000000000000000011111 e
b00000000000100000000001110010011 j
b00000000000000000000001000000100 k
b00000000000000000000000000000010 l
b00000000000000000000001000001000 m
b00111 r
b001100 x
b00000000000000000000000000000001 y
b00000000000100000000001100010011 z
b00000000000000000000001000000000 {
b1111 |
b00110 ~
b00000000000000000000000000000001 !!
b100101 "!
1Z!
#106
0Z!
#107
b00000000000000000000000000000100 %
b00000000011100110000010001100011000000000000000000000010000010000000000000000000000000100000110001110000000000000000000000000000000011000000000000000000000000000000000000000000000000000000000000000001000000000000000000000000000000010001111 +
b00000000000100000000001110010011000000000000000000000010000001000011000000000000000000000000000000001000111000000000000000000000000000000011111 3
b00000000000100000000001100010011000000000000000000000010000000000011000000000000000000000000000000000100110000000000000000000000000000000011111 8
b1001100000000000000000000000000000000100000 >
1]
b00110 ^
b00000000000000000000000000000001 _
b00000000011100110000010001100011000000000000000000000010000010000111000000000000000000000000000000001101000000000000000000000000000000000011111 e
b00000000011100110000010001100011 j
b00000000000000000000001000001000 k
b00000000000000000000000000000011 l
b00000000000000000000001000001100 m
b011100 n
b00000000000000000000000000001000 q
b01000 r
1s
b000000000000000000000000000001000 v
b00000000000000000000000000000010 y
b00000000000100000000001110010011 z
b00000000000000000000001000000100 {
b00111 ~
b001100 "!
b00000000000100000000001100010011 #!
b00000000000000000000001000000000 $!
b00000000000000000000000000000001 %!
b1111 &!
1'!
b00110 (!
b00000000000000000000000000000001 )!
1Z!
b00000000000000000000000000100101 $"
#108
b00000000000000000000000000000001 0!
0Z!
b00000000000000000000000000000001 b!
#109
b00000000000000000000000000000101 %
b00000000011100110000010001100011000000000000000000000010000010000000000000000000000000100000110001110000000000000000000000000000000011000000000000000000000000000000010000000000000000000000000000000001000000000000000000000000000000010001111 +
b00000000011100110000010001100011000000000000000000000010000010000111000000000000000000000000000000001101000000000000000000000000000000000011111 3
b00000000000100000000001110010011000000000000000000000010000001000011000000000000000000000000000000001000111000000000000000000000000000000011111 8
b1001110000000000000000000000000000000100000 >
b00000000011100110000010001100011000000000000000000000010000010000000000000000000000000100000110001110000000000000000000000000000000011000000000000000000000000000000010000000000000000000000000000000001000000000000000000000000000000010001111 M
b00111 ^
b00000000000000000000000000000001 c
b00000000000000000000000000000001 o
0s
b000000000000000000000000000001001 v
b011100 x
b00000000000000000000000000000011 y
b00000000011100110000010001100011 z
b00000000000000000000001000001000 {
b01000 ~
b00000000000100000000001110010011 #!
b00000000000000000000001000000100 $!
b00000000000000000000000000000010 %!
b00111 (!
1Z!
b00000000000000000000001000000000 }!
b00000000000100000000001100010011 ~!
b00000000000000000000000000000001 !"
b00000000000000000000000000000001 ""
b00000000000000000000000000000001 #"
b00000000000000000000000000001100 $"
b00000000000000000000000000000110 %"
#110
#111
b00000000000000000000000000000001 1!
0Z!
b00000000000000000000000000000001 c!
#112
b00000000000000000000000000000110 %
b00000000011100110000010001100011000000000000000000000010000010000000000000000000000000100000110001110000000000000000000000000000000011000000000000000000000000000000010000000000000000000000000000000101000000000000000000000000000000010001111 +
b00000000011100110000010001100011000000000000000000000010000010000111000000000000000000000000000000001101000000000000000000000000000000000011111 8
b0010000000000000000000000000000000000100000 >
b00000000011100110000010001100011000000000000000000000010000010000000000000000000000000100000110001110000000000000000000000000000000011000000000000000000000000000000010000000000000000000000000000000101000000000000000000000000000000010001111 M
0]
b01000 ^
b00000000000000000000000000000001 d
b00000000000000000000000000000001 p
1s
b011100 "!
b00000000011100110000010001100011 #!
b00000000000000000000001000001000 $!
b00000000000000000000000000000011 %!
0'!
b01000 (!
1Z!
b00000000000000000000001000000100 }!
b00000000000100000000001110010011 ~!
b00000000000000000000000000000010 #"
b00000000000000000000000000000111 %"
#113
0Z!
#114
b00000000000000000000000000000111 %
1Z!
b00000000000000000000001000001000 }!
b00000000011100110000010001100011 ~!
b00000000000000000000000000000000 !"
b00000000000000000000000000000011 #"
b00000000000000000000000000011100 $"
b00000000000000000000000000001000 %"
#115
0Z!
#116
b00000000000000000000000000001000 %
1Z!
#117
0Z!
#118
b00000000000000000000000000001001 %
1Z!
#119
0Z!
#120
#121
b00000000000000000000000000001010 %
1Z!
#122
0Z!
#123
b00000000000000000000000000001011 %
1Z!
#124
0Z!
#125
b00000000000000000000000000001100 %
1Z!
#126
0Z!
#127
b00000000000000000000000000001101 %
1Z!
#128
0Z!
#129
b00000000000000000000000000001110 %
1Z!
#130
#131
0Z!
#132
b00000000000000000000000000001111 %
1Z!
#133
0Z!
#134
b00000000000000000000000000010000 %
1Z!
#135
0Z!
#136
b00000000000000000000000000010001 %
1Z!
#137
0Z!
#138
b00000000000000000000000000010010 %
1Z!
#139
0Z!
#140
#141
b00000000000000000000000000010011 %
1Z!
#142
0Z!
