trace.vcd
$version Generated by VerilatedVcd $end
$date Thu Oct 27 21:24:40 2022
 $end
$timescale   1ps $end

 $scope module TOP $end
  $var wire  1 '" clk $end
  $var wire  1 (" reset $end
  $scope module pipeline $end
   $var wire 176 3 AGEX_latch_out [175:0] $end
   $var wire 245 + DE_latch_out [244:0] $end
   $var wire 132 & FE_latch_out [131:0] $end
   $var wire 144 9 MEM_latch_out [143:0] $end
   $var wire  1 '" clk $end
   $var wire 32 % cycle_count [31:0] $end
   $var wire 33 G from_AGEX_to_BP [32:0] $end
   $var wire  7 @ from_AGEX_to_DE [6:0] $end
   $var wire 34 > from_AGEX_to_FE [33:0] $end
   $var wire  1 J from_BP_to_DE [0:0] $end
   $var wire 33 E from_BP_to_FE [32:0] $end
   $var wire 32 I from_DE_to_BP [31:0] $end
   $var wire  1 !" from_DE_to_FE [0:0] $end
   $var wire 32 D from_FE_to_BP [31:0] $end
   $var wire  1 k" from_MEM_to_AGEX [0:0] $end
   $var wire  6 A from_MEM_to_DE [5:0] $end
   $var wire  1 i" from_MEM_to_FE [0:0] $end
   $var wire  1 l" from_WB_to_AGEX [0:0] $end
   $var wire 43 B from_WB_to_DE [42:0] $end
   $var wire  1 j" from_WB_to_FE [0:0] $end
   $var wire  1 m" from_WB_to_MEM [0:0] $end
   $var wire  1 (" reset $end
   $scope module branch_predictor $end
    $var wire 32 I DE_PC [31:0] $end
    $var wire 32 D FE_PC [31:0] $end
    $var wire 32 M agex_branch_pc [31:0] $end
    $var wire  1 '" clk $end
    $var wire  1 J flush $end
    $var wire 33 G from_AGEX_to_BP [32:0] $end
    $var wire  1 J from_BP_to_DE [0:0] $end
    $var wire 33 E from_BP_to_FE [32:0] $end
    $var wire 32 I from_DE_to_BP [31:0] $end
    $var wire 32 D from_FE_to_BP [31:0] $end
    $var wire  1 L is_agex_branch $end
    $var wire 32 K new_PC [31:0] $end
    $var wire 32 N predicted_PC [31:0] $end
    $var wire  1 (" reset $end
   $upscope $end
   $scope module my_AGEX_stage $end
    $var wire 176 3 AGEX_latch [175:0] $end
    $var wire 176 s AGEX_latch_contents [175:0] $end
    $var wire 176 3 AGEX_latch_out [175:0] $end
    $var wire 32 z PC_AGEX [31:0] $end
    $var wire  1 Y br_cond_AGEX $end
    $var wire 32 (! br_next_addr [31:0] $end
    $var wire 32 X br_target [31:0] $end
    $var wire  4 $! bus_canary_AGEX [3:0] $end
    $var wire  1 '" clk $end
    $var wire 33 G from_AGEX_to_BP [32:0] $end
    $var wire  7 @ from_AGEX_to_DE [6:0] $end
    $var wire 34 > from_AGEX_to_FE [33:0] $end
    $var wire 245 + from_DE_latch [244:0] $end
    $var wire  1 k" from_MEM_to_AGEX [0:0] $end
    $var wire  1 l" from_WB_to_AGEX [0:0] $end
    $var wire 32 "! imm_val [31:0] $end
    $var wire 32 y inst_AGEX [31:0] $end
    $var wire 32 { inst_count_AGEX [31:0] $end
    $var wire  1 Z is_branch $end
    $var wire 32 '! mem_addr [31:0] $end
    $var wire  1 %! move_on_fetch $end
    $var wire  6 } op_I_AGEX [5:0] $end
    $var wire 32 | pcplus_AGEX [31:0] $end
    $var wire 32 ~ reg_1_val [31:0] $end
    $var wire 32 !! reg_2_val [31:0] $end
    $var wire  5 #! reg_dest [4:0] $end
    $var wire  1 (" reset $end
    $var wire 32 &! result [31:0] $end
    $var wire 32 "! signed_imm [31:0] $end
    $var wire 32 ~ signed_reg_1_val [31:0] $end
    $var wire 32 !! signed_reg_2_val [31:0] $end
    $var wire  5 )! signed_shift_val [4:0] $end
    $var wire  1 Z stall_de $end
    $var wire  1 *! wr_reg $end
   $upscope $end
   $scope module my_DE_stage $end
    $var wire 245 + DE_latch [244:0] $end
    $var wire 245 D! DE_latch_contents [244:0] $end
    $var wire 245 + DE_latch_out [244:0] $end
    $var wire  3 _ F3_DE [2:0] $end
    $var wire  7 ` F7_DE [6:0] $end
    $var wire 32 I PC_DE [31:0] $end
    $var wire  5 m agex_reg_dest [4:0] $end
    $var wire  1 l agex_stall_command $end
    $var wire  4 ^ bus_canary_DE [3:0] $end
    $var wire  1 '" clk $end
    $var wire 32 o! csr_regs(0) [31:0] $end
    $var wire 32 p! csr_regs(1) [31:0] $end
    $var wire 32 y! csr_regs(10) [31:0] $end
    $var wire 32 z! csr_regs(11) [31:0] $end
    $var wire 32 {! csr_regs(12) [31:0] $end
    $var wire 32 |! csr_regs(13) [31:0] $end
    $var wire 32 }! csr_regs(14) [31:0] $end
    $var wire 32 ~! csr_regs(15) [31:0] $end
    $var wire 32 q! csr_regs(2) [31:0] $end
    $var wire 32 r! csr_regs(3) [31:0] $end
    $var wire 32 s! csr_regs(4) [31:0] $end
    $var wire 32 t! csr_regs(5) [31:0] $end
    $var wire 32 u! csr_regs(6) [31:0] $end
    $var wire 32 v! csr_regs(7) [31:0] $end
    $var wire 32 w! csr_regs(8) [31:0] $end
    $var wire 32 x! csr_regs(9) [31:0] $end
    $var wire  1 J flush $end
    $var wire  7 @ from_AGEX_to_DE [6:0] $end
    $var wire  1 J from_BP_to_DE [0:0] $end
    $var wire 32 I from_DE_to_BP [31:0] $end
    $var wire  1 !" from_DE_to_FE [0:0] $end
    $var wire 132 & from_FE_latch [131:0] $end
    $var wire  6 A from_MEM_to_DE [5:0] $end
    $var wire 43 B from_WB_to_DE [42:0] $end
    $var wire 32 [ inst_DE [31:0] $end
    $var wire 32 ] inst_count_DE [31:0] $end
    $var wire  1 o is_agex_wr $end
    $var wire  1 p is_mem_wr $end
    $var wire  5 n mem_reg_dest [4:0] $end
    $var wire  7 a op_DE [6:0] $end
    $var wire  6 b op_I_DE [5:0] $end
    $var wire 32 \ pcplus_DE [31:0] $end
    $var wire  1 "" pipeline_stall_DE $end
    $var wire  1 o" prev_dest $end
    $var wire  1 p" prev_wr $end
    $var wire  5 %" reg_1_num [4:0] $end
    $var wire 32 #" reg_1_val [31:0] $end
    $var wire  5 &" reg_2_num [4:0] $end
    $var wire 32 $" reg_2_val [31:0] $end
    $var wire  5 q reg_dest [4:0] $end
    $var wire 32 O! regs(0) [31:0] $end
    $var wire 32 P! regs(1) [31:0] $end
    $var wire 32 Y! regs(10) [31:0] $end
    $var wire 32 Z! regs(11) [31:0] $end
    $var wire 32 [! regs(12) [31:0] $end
    $var wire 32 \! regs(13) [31:0] $end
    $var wire 32 ]! regs(14) [31:0] $end
    $var wire 32 ^! regs(15) [31:0] $end
    $var wire 32 _! regs(16) [31:0] $end
    $var wire 32 `! regs(17) [31:0] $end
    $var wire 32 a! regs(18) [31:0] $end
    $var wire 32 b! regs(19) [31:0] $end
    $var wire 32 Q! regs(2) [31:0] $end
    $var wire 32 c! regs(20) [31:0] $end
    $var wire 32 d! regs(21) [31:0] $end
    $var wire 32 e! regs(22) [31:0] $end
    $var wire 32 f! regs(23) [31:0] $end
    $var wire 32 g! regs(24) [31:0] $end
    $var wire 32 h! regs(25) [31:0] $end
    $var wire 32 i! regs(26) [31:0] $end
    $var wire 32 j! regs(27) [31:0] $end
    $var wire 32 k! regs(28) [31:0] $end
    $var wire 32 l! regs(29) [31:0] $end
    $var wire 32 R! regs(3) [31:0] $end
    $var wire 32 m! regs(30) [31:0] $end
    $var wire 32 n! regs(31) [31:0] $end
    $var wire 32 S! regs(4) [31:0] $end
    $var wire 32 T! regs(5) [31:0] $end
    $var wire 32 U! regs(6) [31:0] $end
    $var wire 32 V! regs(7) [31:0] $end
    $var wire 32 W! regs(8) [31:0] $end
    $var wire 32 X! regs(9) [31:0] $end
    $var wire 32 i regval_WB [31:0] $end
    $var wire  1 (" reset $end
    $var wire  5 f signed_shift_val [4:0] $end
    $var wire  1 L! stall_from_agex $end
    $var wire  1 M! stall_from_mem $end
    $var wire  1 N! stall_from_wb $end
    $var wire 32 e sxt_imm_DE [31:0] $end
    $var wire  4 c type_I_DE [3:0] $end
    $var wire  3 d type_immediate_DE [2:0] $end
    $var wire  5 h wb_reg_dest [4:0] $end
    $var wire  4 j wcsrno_WB [3:0] $end
    $var wire  1 k wr_csr_WB $end
    $var wire  1 r wr_reg $end
    $var wire  1 g wr_reg_WB $end
    $var wire  5 h wregno_WB [4:0] $end
    $scope module unnamedblk1 $end
     $var wire 32 # i [31:0] $end
    $upscope $end
    $scope module unnamedblk2 $end
     $var wire 32 $ i [31:0] $end
    $upscope $end
   $upscope $end
   $scope module my_FE_stage $end
    $var wire 32 P BP_PC [31:0] $end
    $var wire 132 & FE_latch [131:0] $end
    $var wire 132 Q FE_latch_contents [131:0] $end
    $var wire 132 & FE_latch_out [131:0] $end
    $var wire 32 D PC_FE_latch [31:0] $end
    $var wire 32 X br_target [31:0] $end
    $var wire  1 '" clk $end
    $var wire  1 W flush $end
    $var wire 34 > from_AGEX_to_FE [33:0] $end
    $var wire 33 E from_BP_to_FE [32:0] $end
    $var wire  1 !" from_DE_to_FE [0:0] $end
    $var wire 32 D from_FE_to_BP [31:0] $end
    $var wire  1 i" from_MEM_to_FE [0:0] $end
    $var wire  1 j" from_WB_to_FE [0:0] $end
    $var wire 32 O inst_FE [31:0] $end
    $var wire 32 n" inst_count_AGEX [31:0] $end
    $var wire 32 V inst_count_FE [31:0] $end
    $var wire  1 Z is_branch $end
    $var wire 32 P pcplus_FE [31:0] $end
    $var wire  1 (" reset $end
    $var wire  1 Y should_branch $end
    $var wire  1 !" stall_pipe_FE $end
   $upscope $end
   $scope module my_MEM_stage $end
    $var wire 144 9 MEM_latch [143:0] $end
    $var wire 144 +! MEM_latch_contents [143:0] $end
    $var wire 144 9 MEM_latch_out [143:0] $end
    $var wire 32 3! PC_MEM [31:0] $end
    $var wire  4 4! bus_canary_MEM [3:0] $end
    $var wire  1 '" clk $end
    $var wire 176 3 from_AGEX_latch [175:0] $end
    $var wire  1 k" from_MEM_to_AGEX [0:0] $end
    $var wire  6 A from_MEM_to_DE [5:0] $end
    $var wire  1 i" from_MEM_to_FE [0:0] $end
    $var wire  1 m" from_WB_to_MEM [0:0] $end
    $var wire 32 2! inst_MEM [31:0] $end
    $var wire 32 1! inst_count_MEM [31:0] $end
    $var wire 32 5! memaddr_MEM [31:0] $end
    $var wire  6 0! op_I_MEM [5:0] $end
    $var wire 32 6! rd_val_MEM [31:0] $end
    $var wire  5 9! reg_dest [4:0] $end
    $var wire  1 (" reset $end
    $var wire 32 7! result [31:0] $end
    $var wire 32 :! result_to_wb [31:0] $end
    $var wire  1 8! wr_mem_MEM $end
    $var wire  1 ;! wr_reg $end
    $var wire 32 7! wr_val_MEM [31:0] $end
   $upscope $end
   $scope module my_WB_stage $end
    $var wire 32 >! PC_WB [31:0] $end
    $var wire 32 I" WB_counters(0) [31:0] $end
    $var wire 32 J" WB_counters(1) [31:0] $end
    $var wire 32 S" WB_counters(10) [31:0] $end
    $var wire 32 T" WB_counters(11) [31:0] $end
    $var wire 32 U" WB_counters(12) [31:0] $end
    $var wire 32 V" WB_counters(13) [31:0] $end
    $var wire 32 W" WB_counters(14) [31:0] $end
    $var wire 32 X" WB_counters(15) [31:0] $end
    $var wire 32 Y" WB_counters(16) [31:0] $end
    $var wire 32 Z" WB_counters(17) [31:0] $end
    $var wire 32 [" WB_counters(18) [31:0] $end
    $var wire 32 \" WB_counters(19) [31:0] $end
    $var wire 32 K" WB_counters(2) [31:0] $end
    $var wire 32 ]" WB_counters(20) [31:0] $end
    $var wire 32 ^" WB_counters(21) [31:0] $end
    $var wire 32 _" WB_counters(22) [31:0] $end
    $var wire 32 `" WB_counters(23) [31:0] $end
    $var wire 32 a" WB_counters(24) [31:0] $end
    $var wire 32 b" WB_counters(25) [31:0] $end
    $var wire 32 c" WB_counters(26) [31:0] $end
    $var wire 32 d" WB_counters(27) [31:0] $end
    $var wire 32 e" WB_counters(28) [31:0] $end
    $var wire 32 f" WB_counters(29) [31:0] $end
    $var wire 32 L" WB_counters(3) [31:0] $end
    $var wire 32 g" WB_counters(30) [31:0] $end
    $var wire 32 h" WB_counters(31) [31:0] $end
    $var wire 32 M" WB_counters(4) [31:0] $end
    $var wire 32 N" WB_counters(5) [31:0] $end
    $var wire 32 O" WB_counters(6) [31:0] $end
    $var wire 32 P" WB_counters(7) [31:0] $end
    $var wire 32 Q" WB_counters(8) [31:0] $end
    $var wire 32 R" WB_counters(9) [31:0] $end
    $var wire  4 @! bus_canary_WB [3:0] $end
    $var wire  1 '" clk $end
    $var wire 144 9 from_MEM_latch [143:0] $end
    $var wire  1 l" from_WB_to_AGEX [0:0] $end
    $var wire 43 B from_WB_to_DE [42:0] $end
    $var wire  1 j" from_WB_to_FE [0:0] $end
    $var wire  1 m" from_WB_to_MEM [0:0] $end
    $var wire 32 =! inst_WB [31:0] $end
    $var wire 32 ?! inst_count_WB [31:0] $end
    $var wire 32 )" last_WB_value(0) [31:0] $end
    $var wire 32 *" last_WB_value(1) [31:0] $end
    $var wire 32 3" last_WB_value(10) [31:0] $end
    $var wire 32 4" last_WB_value(11) [31:0] $end
    $var wire 32 5" last_WB_value(12) [31:0] $end
    $var wire 32 6" last_WB_value(13) [31:0] $end
    $var wire 32 7" last_WB_value(14) [31:0] $end
    $var wire 32 8" last_WB_value(15) [31:0] $end
    $var wire 32 9" last_WB_value(16) [31:0] $end
    $var wire 32 :" last_WB_value(17) [31:0] $end
    $var wire 32 ;" last_WB_value(18) [31:0] $end
    $var wire 32 <" last_WB_value(19) [31:0] $end
    $var wire 32 +" last_WB_value(2) [31:0] $end
    $var wire 32 =" last_WB_value(20) [31:0] $end
    $var wire 32 >" last_WB_value(21) [31:0] $end
    $var wire 32 ?" last_WB_value(22) [31:0] $end
    $var wire 32 @" last_WB_value(23) [31:0] $end
    $var wire 32 A" last_WB_value(24) [31:0] $end
    $var wire 32 B" last_WB_value(25) [31:0] $end
    $var wire 32 C" last_WB_value(26) [31:0] $end
    $var wire 32 D" last_WB_value(27) [31:0] $end
    $var wire 32 E" last_WB_value(28) [31:0] $end
    $var wire 32 F" last_WB_value(29) [31:0] $end
    $var wire 32 ," last_WB_value(3) [31:0] $end
    $var wire 32 G" last_WB_value(30) [31:0] $end
    $var wire 32 H" last_WB_value(31) [31:0] $end
    $var wire 32 -" last_WB_value(4) [31:0] $end
    $var wire 32 ." last_WB_value(5) [31:0] $end
    $var wire 32 /" last_WB_value(6) [31:0] $end
    $var wire 32 0" last_WB_value(7) [31:0] $end
    $var wire 32 1" last_WB_value(8) [31:0] $end
    $var wire 32 2" last_WB_value(9) [31:0] $end
    $var wire  6 <! op_I_WB [5:0] $end
    $var wire  5 B! reg_dest [4:0] $end
    $var wire 32 C! regval_WB [31:0] $end
    $var wire  1 (" reset $end
    $var wire 32 C! result [31:0] $end
    $var wire  4 q" wcsrno_WB [3:0] $end
    $var wire  1 r" wr_csr_WB $end
    $var wire  1 A! wr_reg $end
    $var wire  1 A! wr_reg_WB $end
    $var wire  5 B! wregno_WB [4:0] $end
   $upscope $end
  $upscope $end
 $upscope $end
$enddefinitions $end


#0
b00000000000000000000000000100000 #
b00000000000000000000000000010000 $
b00000000000000000000000000000000 %
b000000000000000000000000000000000000000000000000000000000000000000000000000000000000000000000000000000000000000000000000000000000000 &
b00000000000000000000000000000000000000000000000000000000000000000000000000000000000000000000000000000000000000000000000000000000000000000000000000000000000000000000000000000000000000000000000000000000000000000000000000000000000000000000000000000 +
b00000000000000000000000000000000000000000000000000000000000000000000000000000000000000000000000000000000000000000000000000000000000000000000000000000000000000000000000000000000 3
b000000000000000000000000000000000000000000000000000000000000000000000000000000000000000000000000000000000000000000000000000000000000000000000000 9
b0000000000000000000000000000000000 >
b0000000 @
b000000 A
b0000000000000000000000000000000000000000000 B
b00000000000000000000000000000000 D
b000000000000000000000000000000100 E
b000000000000000000000000000000100 G
b00000000000000000000000000000000 I
0J
b00000000000000000000000000000100 K
0L
b00000000000000000000000000000100 M
b00000000000000000000000000000100 N
b00000000000000000000000000000000 O
b00000000000000000000000000000100 P
b000000000000000000000000000000000000000000000000000000000000000000000000000000000000000000000100000000000000000000000000000000001111 Q
b00000000000000000000000000000000 V
0W
b00000000000000000000000000000000 X
0Y
0Z
b00000000000000000000000000000000 [
b00000000000000000000000000000000 \
b00000000000000000000000000000000 ]
b0000 ^
b000 _
b0000000 `
b0000000 a
b100101 b
b0000 c
b000 d
b00000000000000000000000000000000 e
b00000 f
0g
b00000 h
b00000000000000000000000000000000 i
b0000 j
0k
0l
b00000 m
b00000 n
0o
0p
b00000 q
0r
b00000000000000000000000000000000000000000000000000000000000000000000000000000000000000000000000000000000000000000000000000000000000000000000000000000000000000000000000000000000 s
b00000000000000000000000000000000 y
b00000000000000000000000000000000 z
b00000000000000000000000000000000 {
b00000000000000000000000000000000 |
b000000 }
b00000000000000000000000000000000 ~
b00000000000000000000000000000000 !!
b00000000000000000000000000000000 "!
b00000 #!
b0000 $!
0%!
b00000000000000000000000000000000 &!
b00000000000000000000000000000000 '!
b00000000000000000000000000000100 (!
b00000 )!
0*!
b000000000000000000000000000000000000000000000000000000000000000000000000000000000000000000000000000000000000000000000000000000000000000000000000 +!
b000000 0!
b00000000000000000000000000000000 1!
b00000000000000000000000000000000 2!
b00000000000000000000000000000000 3!
b0000 4!
b00000000000000000000000000000000 5!
b00000000000000000000000000000000 6!
b00000000000000000000000000000000 7!
08!
b00000 9!
b00000000000000000000000000000000 :!
0;!
b000000 <!
b00000000000000000000000000000000 =!
b00000000000000000000000000000000 >!
b00000000000000000000000000000000 ?!
b0000 @!
0A!
b00000 B!
b00000000000000000000000000000000 C!
b00000000000000000000000000000000000000000000000000000000000000000000000000000000000000000000000010010100000000000000000000000000000000000000000000000000000000000000000000000000000000000000000000000000000000000000000000000000000000000000000000000 D!
0L!
0M!
0N!
b00000000000000000000000000000000 O!
b00000000000000000000000000000000 P!
b00000000000000000000000000000000 Q!
b00000000000000000000000000000000 R!
b00000000000000000000000000000000 S!
b00000000000000000000000000000000 T!
b00000000000000000000000000000000 U!
b00000000000000000000000000000000 V!
b00000000000000000000000000000000 W!
b00000000000000000000000000000000 X!
b00000000000000000000000000000000 Y!
b00000000000000000000000000000000 Z!
b00000000000000000000000000000000 [!
b00000000000000000000000000000000 \!
b00000000000000000000000000000000 ]!
b00000000000000000000000000000000 ^!
b00000000000000000000000000000000 _!
b00000000000000000000000000000000 `!
b00000000000000000000000000000000 a!
b00000000000000000000000000000000 b!
b00000000000000000000000000000000 c!
b00000000000000000000000000000000 d!
b00000000000000000000000000000000 e!
b00000000000000000000000000000000 f!
b00000000000000000000000000000000 g!
b00000000000000000000000000000000 h!
b00000000000000000000000000000000 i!
b00000000000000000000000000000000 j!
b00000000000000000000000000000000 k!
b00000000000000000000000000000000 l!
b00000000000000000000000000000000 m!
b00000000000000000000000000000000 n!
b00000000000000000000000000000000 o!
b00000000000000000000000000000000 p!
b00000000000000000000000000000000 q!
b00000000000000000000000000000000 r!
b00000000000000000000000000000000 s!
b00000000000000000000000000000000 t!
b00000000000000000000000000000000 u!
b00000000000000000000000000000000 v!
b00000000000000000000000000000000 w!
b00000000000000000000000000000000 x!
b00000000000000000000000000000000 y!
b00000000000000000000000000000000 z!
b00000000000000000000000000000000 {!
b00000000000000000000000000000000 |!
b00000000000000000000000000000000 }!
b00000000000000000000000000000000 ~!
0!"
0""
b00000000000000000000000000000000 #"
b00000000000000000000000000000000 $"
b00000 %"
b00000 &"
0'"
0("
b00000000000000000000000000000000 )"
b00000000000000000000000000000000 *"
b00000000000000000000000000000000 +"
b00000000000000000000000000000000 ,"
b00000000000000000000000000000000 -"
b00000000000000000000000000000000 ."
b00000000000000000000000000000000 /"
b00000000000000000000000000000000 0"
b00000000000000000000000000000000 1"
b00000000000000000000000000000000 2"
b00000000000000000000000000000000 3"
b00000000000000000000000000000000 4"
b00000000000000000000000000000000 5"
b00000000000000000000000000000000 6"
b00000000000000000000000000000000 7"
b00000000000000000000000000000000 8"
b00000000000000000000000000000000 9"
b00000000000000000000000000000000 :"
b00000000000000000000000000000000 ;"
b00000000000000000000000000000000 <"
b00000000000000000000000000000000 ="
b00000000000000000000000000000000 >"
b00000000000000000000000000000000 ?"
b00000000000000000000000000000000 @"
b00000000000000000000000000000000 A"
b00000000000000000000000000000000 B"
b00000000000000000000000000000000 C"
b00000000000000000000000000000000 D"
b00000000000000000000000000000000 E"
b00000000000000000000000000000000 F"
b00000000000000000000000000000000 G"
b00000000000000000000000000000000 H"
b00000000000000000000000000000000 I"
b00000000000000000000000000000000 J"
b00000000000000000000000000000000 K"
b00000000000000000000000000000000 L"
b00000000000000000000000000000000 M"
b00000000000000000000000000000000 N"
b00000000000000000000000000000000 O"
b00000000000000000000000000000000 P"
b00000000000000000000000000000000 Q"
b00000000000000000000000000000000 R"
b00000000000000000000000000000000 S"
b00000000000000000000000000000000 T"
b00000000000000000000000000000000 U"
b00000000000000000000000000000000 V"
b00000000000000000000000000000000 W"
b00000000000000000000000000000000 X"
b00000000000000000000000000000000 Y"
b00000000000000000000000000000000 Z"
b00000000000000000000000000000000 ["
b00000000000000000000000000000000 \"
b00000000000000000000000000000000 ]"
b00000000000000000000000000000000 ^"
b00000000000000000000000000000000 _"
b00000000000000000000000000000000 `"
b00000000000000000000000000000000 a"
b00000000000000000000000000000000 b"
b00000000000000000000000000000000 c"
b00000000000000000000000000000000 d"
b00000000000000000000000000000000 e"
b00000000000000000000000000000000 f"
b00000000000000000000000000000000 g"
b00000000000000000000000000000000 h"
0i"
0j"
0k"
0l"
0m"
b00000000000000000000000000000000 n"
0o"
0p"
b0000 q"
0r"
#1
b00000000000000000000000000000001 %
b000000000000000000000000000000000000000000000000000000000000000000000000000000000000000000000100000000000000000000000000000000001111 &
b00000000000000000000000000000000000000000000000000000000000000000000000000000000000000000000000010010100000000000000000000000000000000000000000000000000000000000000000000000000000000000000000000000000000000000000000000000000000000000000000000000 +
b00000000000000000000000000000100 D
b000000000000000000000000000001000 E
b00000000000000000000000000001000 K
b00000000000000000000000000001000 N
b00000000000000000000000000001000 P
b000000000000000000000000000000000000000000000000000000000000010000000000000000000000000000001000000000000000000000000000000000011111 Q
b00000000000000000000000000000001 V
b00000000000000000000000000000100 \
b1111 ^
b00000000000000000000000000000000000000000000000000000000000000001001010000000000000000000000000000000000000000000000000000000000000000000000000000000000000000000000000000000000 s
b100101 }
b00000000000000000000000000000000000000000000000000000000000000000000000000000000000000000000010010010100000000000000000000000000000000000000000000000000000000000000000000000000000000000000000000000000000000000000000000000000000000000000000001111 D!
1'"
#2
0'"
1("
#3
b00000000000000000000000000000000 %
b000000000000000000000000000000000000000000000000000000000000000000000000000000000000000000000000000000000000000000000000000000000000 &
b00000000000000000000000000000000000000000000000000000000000000000000000000000000000000000000000000000000000000000000000000000000000000000000000000000000000000000000000000000000000000000000000000000000000000000000000000000000000000000000000000000 +
b00000000000000000000001000000000 D
b000000000000000000000001000000100 E
b00000000000000000000001000000100 K
b00000000000000000000001000000100 N
b00000000000000000000000010010011 O
b00000000000000000000001000000100 P
b000000000000000000000000100100110000000000000000000000100000000000000000000000000000001000000100000000000000000000000000000000011111 Q
b00000000000000000000000000000000 \
b0000 ^
b00000000000000000000000000000000000000000000000000000000000000000000000000000000000000000000000000000000000000000000000000000000000000000000000000000000000000000000000000000000 s
b000000 }
b00000000000000000000000000000000000000000000000000000000000000000000000000000000000000000000000010010100000000000000000000000000000000000000000000000000000000000000000000000000000000000000000000000000000000000000000000000000000000000000000000000 D!
1'"
#4
0'"
#5
1'"
#6
0'"
#7
1'"
#8
0'"
#9
1'"
#10
#11
0'"
#12
1'"
#13
0'"
#14
1'"
#15
0'"
#16
1'"
#17
0'"
#18
1'"
#19
0'"
#20
#21
1'"
#22
0'"
#23
1'"
#24
0'"
#25
1'"
#26
0'"
#27
1'"
#28
0'"
#29
1'"
#30
#31
0'"
#32
1'"
#33
0'"
#34
1'"
#35
0'"
#36
1'"
#37
0'"
#38
1'"
#39
0'"
#40
#41
1'"
#42
0'"
#43
1'"
#44
0'"
#45
1'"
#46
0'"
#47
1'"
#48
0'"
#49
1'"
#50
#51
0'"
#52
1'"
#53
0'"
#54
1'"
#55
0'"
#56
1'"
#57
0'"
#58
1'"
#59
0'"
#60
#61
1'"
#62
0'"
#63
1'"
#64
0'"
#65
1'"
#66
0'"
#67
1'"
#68
0'"
#69
1'"
#70
#71
0'"
#72
1'"
#73
0'"
#74
1'"
#75
0'"
#76
1'"
#77
0'"
#78
1'"
#79
0'"
#80
#81
1'"
#82
0'"
#83
1'"
#84
0'"
#85
1'"
#86
0'"
#87
1'"
#88
0'"
#89
1'"
#90
#91
0'"
#92
1'"
#93
0'"
#94
1'"
#95
0'"
#96
1'"
#97
0'"
#98
1'"
#99
0'"
#100
0("
#101
b00000000000000000000000000000001 %
b000000000000000000000000100100110000000000000000000000100000000000000000000000000000001000000100000000000000000000000000000000011111 &
b00000000000000000000000000000000000000000000000000000000000000000000000000000000000000000000000010010100000000000000000000000000000000000000000000000000000000000000000000000000000000000000000000000000000000000000000000000000000000000000000000000 +
b00000000000000000000001000000100 D
b000000000000000000000001000001000 E
b00000000000000000000001000000000 I
b00000000000000000000001000001000 K
b00000000000000000000001000001000 N
b00000000000000000000000100010011 O
b00000000000000000000001000001000 P
b000000000000000000000001000100110000000000000000000000100000010000000000000000000000001000001000000000000000000000000000000000101111 Q
b00000000000000000000000000000010 V
b00000000000000000000000010010011 [
b00000000000000000000001000000100 \
b00000000000000000000000000000001 ]
b1111 ^
b0010011 a
b001100 b
b0010 c
b001 d
b00001 q
1r
b00000000000000000000000000000000000000000000000000000000000000001001010000000000000000000000000000000000000000000000000000000000000000000000000000000000000000000000000000000000 s
b100101 }
b00000000000000000000000010010011000000000000000000000010000000000000000000000000000000100000010000110000000000000000000000000000000001000000000000000000000000000000000000000000000000000000000000000000001000000000000000000000000000000001000001111 D!
1'"
#102
0'"
#103
b00000000000000000000000000000010 %
b000000000000000000000001000100110000000000000000000000100000010000000000000000000000001000001000000000000000000000000000000000101111 &
b00000000000000000000000010010011000000000000000000000010000000000000000000000000000000100000010000110000000000000000000000000000000001000000000000000000000000000000000000000000000000000000000000000000001000000000000000000000000000000001000001111 +
b00000000000000000000000000000000000000000000000000000000000000001001010000000000000000000000000000000000000000000000000000000000000000000000000000000000000000000000000000000000 3
b0000011 @
b00000000000000000000001000001000 D
b000000000000000000000001000001100 E
b000000000000000000000001000000100 G
b00000000000000000000001000000100 I
b00000000000000000000001000001100 K
b00000000000000000000001000000100 M
b00000000000000000000001000001100 N
b00000000000000000000000110010011 O
b00000000000000000000001000001100 P
b000000000000000000000001100100110000000000000000000000100000100000000000000000000000001000001100000000000000000000000000000000111111 Q
b00000000000000000000000000000011 V
b00000000000000000000000100010011 [
b00000000000000000000001000001000 \
b00000000000000000000000000000010 ]
b00001 m
1o
b00010 q
b00000000000000000000000010010011000000000000000000000010000000000011000000000000000000000000000000000100001000000000000000000000000000000001000000000000000000000000000000001111 s
b00000000000000000000000010010011 y
b00000000000000000000001000000000 z
b00000000000000000000000000000001 {
b00000000000000000000001000000100 |
b001100 }
b00001 #!
b1111 $!
b00000000000000000000001000000100 (!
1*!
b000000000000000000000000000000000000000000000000000000000000000010010100000000000000000000000000000000000000000000000000000000000000000000000000 +!
b100101 0!
b00000000000000000000000100010011000000000000000000000010000001000000000000000000000000100000100000110000000000000000000000000000000010000000000000000000000000000000000000000000000000000000000000000000010000000000000000000000000000000001000001111 D!
1'"
#104
0'"
#105
b00000000000000000000000000000011 %
b000000000000000000000001100100110000000000000000000000100000100000000000000000000000001000001100000000000000000000000000000000111111 &
b00000000000000000000000100010011000000000000000000000010000001000000000000000000000000100000100000110000000000000000000000000000000010000000000000000000000000000000000000000000000000000000000000000000010000000000000000000000000000000001000001111 +
b00000000000000000000000010010011000000000000000000000010000000000011000000000000000000000000000000000100001000000000000000000000000000000001000000000000000000000000000000001111 3
b000000000000000000000000000000000000000000000000000000000000000010010100000000000000000000000000000000000000000000000000000000000000000000000000 9
b0000101 @
b000011 A
b00000000000000000000001000001100 D
b000000000000000000000001000010000 E
b000000000000000000000001000001000 G
b00000000000000000000001000001000 I
b00000000000000000000001000010000 K
b00000000000000000000001000001000 M
b00000000000000000000001000010000 N
b00000000000000000000001000010011 O
b00000000000000000000001000010000 P
b000000000000000000000010000100110000000000000000000000100000110000000000000000000000001000010000000000000000000000000000000001001111 Q
b00000000000000000000000000000100 V
b00000000000000000000000110010011 [
b00000000000000000000001000001100 \
b00000000000000000000000000000011 ]
b00010 m
b00001 n
1p
b00011 q
b00000000000000000000000100010011000000000000000000000010000001000011000000000000000000000000000000001000010000000000000000000000000000000001000000000000000000000000000000001111 s
b00000000000000000000000100010011 y
b00000000000000000000001000000100 z
b00000000000000000000000000000010 {
b00000000000000000000001000001000 |
b00010 #!
b00000000000000000000001000001000 (!
b000000000000000000000000100100110000000000000000000000100000000000110000000000000000000000000000000001000010000000000000000000000000000000011111 +!
b001100 0!
b00000000000000000000000000000001 1!
b00000000000000000000000010010011 2!
b00000000000000000000001000000000 3!
b1111 4!
b00001 9!
1;!
b100101 <!
b00000000000000000000000110010011000000000000000000000010000010000000000000000000000000100000110000110000000000000000000000000000000011000000000000000000000000000000000000000000000000000000000000000000011000000000000000000000000000000001000001111 D!
1'"
#106
0'"
